{
    "connectorRef" : {
        "displayName" : "ScriptedREST Connector",
        "bundleVersion" : "1.5.1.0",
        "systemType" : "provisioner.openicf",
        "bundleName" : "org.forgerock.openicf.connectors.scriptedrest-connector",
        "connectorName" : "org.forgerock.openicf.connectors.scriptedrest.ScriptedRESTConnector"
    },
    "poolConfigOption" : {
        "maxObjects" : 10,
        "maxIdle" : 10,
        "maxWait" : 150000,
        "minEvictableIdleTimeMillis" : 120000,
        "minIdle" : 1
    },
    "resultsHandlerConfig" : {
        "enableNormalizingResultsHandler" : true,
        "enableFilteredResultsHandler" : true,
        "enableCaseInsensitiveFilter" : false,
        "enableAttributesToGetSearchResultsHandler" : true
    },
    "operationTimeout" : {
        "CREATE" : -1,
        "UPDATE" : -1,
        "DELETE" : -1,
        "TEST" : -1,
        "SCRIPT_ON_CONNECTOR" : -1,
        "SCRIPT_ON_RESOURCE" : -1,
        "GET" : -1,
        "RESOLVEUSERNAME" : -1,
        "AUTHENTICATE" : -1,
        "SEARCH" : -1,
        "VALIDATE" : -1,
        "SYNC" : -1,
        "SCHEMA" : -1
    },
    "configurationProperties" : {
        "localFilePath" : "&{idm.instance.dir}/conf",
        "fileNamePrefix" : "",
        "fileNameSuffix" : ".json",
        "serviceAddress" : "https://api.enterprise.apigee.com/v1/organizations/doerner-eval/",
        "defaultAuthMethod" : "NONE",
        "defaultContentType" : "application/json",
        "sourceEncoding" : "100",
        "warningLevel" : "10",
        "recompileGroovySource" : "false",
        "debug" : "true",
        "verbose" : "false",
        "createScriptFileName" : "CreateScript.groovy",
        "testScriptFileName" : "TestScript.groovy",
        "searchScriptFileName" : "SearchScript.groovy",
        "authenticateScriptFileName" : "AuthenticateScript.groovy",
        "deleteScriptFileName" : "DeleteScript.groovy",
        "updateScriptFileName" : "UpdateScript.groovy",
        "syncScriptFileName" : "SyncScript.groovy",
        "schemaScriptFileName" : "SchemaScript.groovy",
        "customizerScriptFileName" : "CustomizerScript.groovy",
        "resolveUsernameScriptFileName" : "ResolveUsernameScript.groovy",
        "scriptRoots" : [
            "&{idm.instance.dir}/tools"
        ],
        "defaultRequestHeaders" : [
            "Authorization=Basic ZG9lcm5lckB0aGlua2FwcHMuZGU6TWFzdGVyMTIh"
        ],
        "username" : "notUsed",
        "password" : {
            "$crypto" : {
                "type" : "x-simple-encryption",
                "value" : {
                    "cipher" : "AES/CBC/PKCS5Padding",
                    "stableId" : "openidm-sym-default",
                    "salt" : "yvhHsQG2L2Zl0wYJhpwfrQ==",
                    "data" : "XeDi6vtzLfvsETa22M9L4A==",
                    "keySize" : 16,
                    "purpose" : "idm.config.encryption",
                    "iv" : "lIh29Rjj4g8js78iXH+R0w==",
                    "mac" : "8CmtmCQIz9ujYXThMZEYUA=="
                }
            }
        },
        "scriptExtensions" : [ ]
    },
    "enabled" : true,
    "objectTypes" : {
        "apiproduct" : {
            "$schema" : "http://json-schema.org/draft-04/schema",
            "type" : "object",
            "properties" : {
                "apiproductname" : {
                    "type" : "string",
                    "nativeName" : "__NAME__",
                    "nativeType" : "string",
                    "required" : true
                },
                "description" : {
                    "type" : "string",
                    "nativeName" : "description",
                    "nativeType" : "string",
                    "required" : false
                },
                "quota" : {
                    "type" : "string",
                    "nativeName" : "quota",
                    "nativeType" : "string",
                    "required" : false
                },
                "displayname" : {
                    "type" : "string",
                    "nativeName" : "displayname",
                    "nativeType" : "string",
                    "required" : false
                },
                "environments" : {
                    "type" : "array",
                    "items" : {
                        "type" : "string",
                        "nativeType" : "string"
                    },
                    "nativeName" : "environments",
                    "nativeType" : "string",
                    "required" : false
                }
            },
            "id" : "__APIPRODUCT__",
            "nativeType" : "__APIPRODUCT__"
        }
    },
    "root" : [
        "&{idm.instance.dir}/conf"
    ]
}