{
    "filters" : [
        {
            "condition" : {
                "type" : "text/javascript",
                "source" : "context.caller.external === true || context.current.name === 'selfservice'"
            },
            "onRequest" : {
                "type" : "text/javascript",
                "file" : "router-authz.js"
            }
        },        {
            "pattern" : "managed/user.*",
            "onRequest" : {
                "type" : "text/javascript",
                "file" : "script/set-additional-passwords.js",
                "additionalPasswordFields" : [
                    "ldapPassword",
                    "ldap2Password"
                ]
            },
            "methods" : [
                "create",
                "update"
            ]
        },        {
            "pattern" : "policy/managed/user.*",
            "onRequest" : {
                "type" : "text/javascript",
                "file" : "script/set-additional-passwords.js",
                "additionalPasswordFields" : [
                    "ldapPassword",
                    "ldap2Password"
                ]
            },
            "methods" : [
                "action"
            ]
        },
        {
            "pattern" : "^(managed|system|internal)($|(/.+))",
            "onRequest" : {
                "type" : "text/javascript",
                "source" : "require('policyFilter').runFilter()"
            },
            "methods" : [
                "create",
                "update"
            ]
        },
        {
            "pattern" : "internal/user.*",
            "onRequest" : {
                "type" : "text/javascript",
                "source" : "request.content.password = require('crypto').hash(request.content.password);"
            },
            "methods" : [
                "create",
                "update"
            ]
        }
    ]
}
