[19] Jan 30, 2019 3:59:48.449 PM org.forgerock.openidm.config.persistence.Activator start
INFORMATION: OpenIDM is starting from /Users/andorn/Repos/APIM/IdmDocker/openidm
[19] Jan 30, 2019 3:59:48.998 PM org.forgerock.openidm.datasource.jdbc.Activator start
INFORMATION: Registered DataSourceServiceFactory service
[19] Jan 30, 2019 3:59:49.000 PM org.forgerock.openidm.datasource.jdbc.Activator start
INFORMATION: Registered DataSourceServicePool service
[19] Jan 30, 2019 3:59:49.051 PM org.forgerock.openidm.config.persistence.ConfigBootstrapHelper getBootConfig
INFORMATION: Bootstrapping with settings from configuration file /Users/andorn/Repos/APIM/IdmDocker/openidm/conf/repo.ds.json
[19] Jan 30, 2019 3:59:49.051 PM org.forgerock.openidm.repo.opendj.impl.Activator start
INFORMATION: DS bundle starting
[19] Jan 30, 2019 3:59:49.052 PM org.forgerock.openidm.repo.opendj.impl.Activator initializeEmbeddedServer
INFORMATION: Starting embedded DS instance
[19] Jan 30, 2019 3:59:50.245 PM org.forgerock.openidm.repo.opendj.impl.Activator setupEmbeddedServer
INFORMATION: Performing initial setup of embedded DS instance
[19] Jan 30, 2019 3:59:55.511 PM org.forgerock.i18n.slf4j.LocalizedLogger info
INFORMATION: ForgeRock Directory Services 6.5.0 (build 20181128095826, revision number e2a029a050cc6908fd144a6ca9c687e01ad56ea3) starting up
[19] Jan 30, 2019 3:59:55.513 PM org.forgerock.i18n.slf4j.LocalizedLogger info
INFORMATION: Installation Directory:  /Users/andorn/Repos/APIM/IdmDocker/openidm/db/openidm/opendj
[19] Jan 30, 2019 3:59:55.514 PM org.forgerock.i18n.slf4j.LocalizedLogger info
INFORMATION: Instance Directory:      /Users/andorn/Repos/APIM/IdmDocker/openidm/db/openidm/opendj
[19] Jan 30, 2019 3:59:55.515 PM org.forgerock.i18n.slf4j.LocalizedLogger info
INFORMATION: JVM Information: 1.8.0_152-b16 by Oracle Corporation, 64-bit architecture, 1029177344 bytes heap size
[19] Jan 30, 2019 3:59:55.518 PM org.forgerock.i18n.slf4j.LocalizedLogger info
INFORMATION: JVM Host: 192.168.0.132, running Mac OS X 10.14.2 x86_64, 17179869184 bytes physical memory size, number of processors available 8
[19] Jan 30, 2019 3:59:55.519 PM org.forgerock.i18n.slf4j.LocalizedLogger info
INFORMATION: JVM Arguments: "-Djava.util.logging.config.file=/Users/andorn/Repos/APIM/IdmDocker/openidm/conf/logging.properties", "-XX:+IgnoreUnrecognizedVMOptions", "--add-opens=java.base/jdk.internal.loader=ALL-UNNAMED", "-Xmx1024m", "-Xms1024m", "-Djava.endorsed.dirs=", "-Dopenidm.system.server.root=/Users/andorn/Repos/APIM/IdmDocker/openidm", "-Djava.awt.headless=true", "-Djava.security.properties=/Users/andorn/Repos/APIM/IdmDocker/openidm/conf/java.security"
[19] Jan 30, 2019 3:59:56.011 PM org.forgerock.i18n.slf4j.LocalizedLogger info
INFORMATION: ForgeRock Directory Services 6.5.0 starting import (build 20181128095826, Re2a029a050cc6908fd144a6ca9c687e01ad56ea3)
[19] Jan 30, 2019 3:59:56.314 PM org.forgerock.i18n.slf4j.LocalizedLogger info
INFORMATION: The amount of free memory available to the import task is 400728835 bytes. The number of phase one buffers required is 72 buffers
[19] Jan 30, 2019 3:59:56.315 PM org.forgerock.i18n.slf4j.LocalizedLogger info
INFORMATION: Setting DB cache size to 33554432 bytes and phase one buffer size to 4194304 bytes
[19] Jan 30, 2019 3:59:56.315 PM org.forgerock.i18n.slf4j.LocalizedLogger info
INFORMATION: Import Thread Count: 2 threads
[50] Jan 30, 2019 3:59:56.454 PM org.forgerock.i18n.slf4j.LocalizedLogger info
INFORMATION: Index /dc=com,dc=forgerock,dc=openidm/dn2id phase two started processing 1 buffers in 1 batches
[51] Jan 30, 2019 3:59:56.455 PM org.forgerock.i18n.slf4j.LocalizedLogger info
INFORMATION: Index /dc=com,dc=forgerock,dc=openidm/entryUUID.uuidMatch phase two started processing 1 buffers in 1 batches
[49] Jan 30, 2019 3:59:56.455 PM org.forgerock.i18n.slf4j.LocalizedLogger info
INFORMATION: Index /dc=com,dc=forgerock,dc=openidm/objectClass.objectIdentifierMatch phase two started processing 1 buffers in 1 batches
[49] Jan 30, 2019 3:59:56.458 PM org.forgerock.i18n.slf4j.LocalizedLogger info
INFORMATION: Index /dc=com,dc=forgerock,dc=openidm/objectClass.objectIdentifierMatch phase two processing completed
[51] Jan 30, 2019 3:59:56.459 PM org.forgerock.i18n.slf4j.LocalizedLogger info
INFORMATION: Index /dc=com,dc=forgerock,dc=openidm/entryUUID.uuidMatch phase two processing completed
[50] Jan 30, 2019 3:59:56.462 PM org.forgerock.i18n.slf4j.LocalizedLogger info
INFORMATION: Index /dc=com,dc=forgerock,dc=openidm/dn2id phase two processing completed
[50] Jan 30, 2019 3:59:56.463 PM org.forgerock.i18n.slf4j.LocalizedLogger info
INFORMATION: Index /dc=com,dc=forgerock,dc=openidm/id2childrencount phase two started processing 1 buffers in 1 batches
[50] Jan 30, 2019 3:59:56.464 PM org.forgerock.i18n.slf4j.LocalizedLogger info
INFORMATION: Index /dc=com,dc=forgerock,dc=openidm/id2childrencount phase two processing completed
[19] Jan 30, 2019 3:59:56.499 PM org.forgerock.i18n.slf4j.LocalizedLogger info
INFORMATION: Total import time was 0 seconds. Phase one processing completed in 0 seconds, phase two processing completed in 0 seconds
[19] Jan 30, 2019 3:59:56.500 PM org.forgerock.i18n.slf4j.LocalizedLogger info
INFORMATION: Processed 36 entries, imported 36, skipped 0, rejected 0 and migrated 0 in 0 seconds (average rate 73,8/sec)
[19] Jan 30, 2019 3:59:56.502 PM org.forgerock.i18n.slf4j.LocalizedLogger info
INFORMATION: Import LDIF environment close took 0 seconds
[19] Jan 30, 2019 3:59:56.503 PM org.forgerock.i18n.slf4j.LocalizedLogger info
INFORMATION: Flushing data to disk
[19] Jan 30, 2019 3:59:56.539 PM org.forgerock.openidm.repo.opendj.impl.Activator setupEmbeddedServer
INFORMATION: Starting embedded DS
[19] Jan 30, 2019 3:59:56.936 PM org.forgerock.audit.handlers.json.JsonFileWriter parseWriteInterval
INFORMATION: writeInterval 'null' is invalid, so falling back to 100 MILLISECONDS
[19] Jan 30, 2019 3:59:57.019 PM org.forgerock.audit.handlers.json.JsonFileWriter parseWriteInterval
INFORMATION: writeInterval 'null' is invalid, so falling back to 100 MILLISECONDS
[19] Jan 30, 2019 3:59:57.033 PM org.forgerock.i18n.slf4j.LocalizedLogger info
INFORMATION: ForgeRock Directory Services 6.5.0 (build 20181128095826, revision number e2a029a050cc6908fd144a6ca9c687e01ad56ea3) starting up
[19] Jan 30, 2019 3:59:57.033 PM org.forgerock.i18n.slf4j.LocalizedLogger info
INFORMATION: Installation Directory:  /Users/andorn/Repos/APIM/IdmDocker/openidm/db/openidm/opendj
[19] Jan 30, 2019 3:59:57.034 PM org.forgerock.i18n.slf4j.LocalizedLogger info
INFORMATION: Instance Directory:      /Users/andorn/Repos/APIM/IdmDocker/openidm/db/openidm/opendj
[19] Jan 30, 2019 3:59:57.034 PM org.forgerock.i18n.slf4j.LocalizedLogger info
INFORMATION: JVM Information: 1.8.0_152-b16 by Oracle Corporation, 64-bit architecture, 988807168 bytes heap size
[19] Jan 30, 2019 3:59:57.037 PM org.forgerock.i18n.slf4j.LocalizedLogger info
INFORMATION: JVM Host: 192.168.0.132, running Mac OS X 10.14.2 x86_64, 17179869184 bytes physical memory size, number of processors available 8
[19] Jan 30, 2019 3:59:57.037 PM org.forgerock.i18n.slf4j.LocalizedLogger info
INFORMATION: JVM Arguments: "-Djava.util.logging.config.file=/Users/andorn/Repos/APIM/IdmDocker/openidm/conf/logging.properties", "-XX:+IgnoreUnrecognizedVMOptions", "--add-opens=java.base/jdk.internal.loader=ALL-UNNAMED", "-Xmx1024m", "-Xms1024m", "-Djava.endorsed.dirs=", "-Dopenidm.system.server.root=/Users/andorn/Repos/APIM/IdmDocker/openidm", "-Djava.awt.headless=true", "-Djava.security.properties=/Users/andorn/Repos/APIM/IdmDocker/openidm/conf/java.security"
[19] Jan 30, 2019 3:59:57.298 PM org.forgerock.i18n.slf4j.LocalizedLogger info
INFORMATION: The database backend idmRepo containing 36 entries has started
[19] Jan 30, 2019 3:59:57.457 PM org.forgerock.i18n.slf4j.LocalizedLogger info
INFORMATION: DIGEST-MD5 SASL mechanism using a server fully qualified domain name of: localhost
[19] Jan 30, 2019 3:59:58.952 PM org.forgerock.i18n.slf4j.LocalizedLogger info
INFORMATION: Started listening for new connections on Administration Connector 0.0.0.0 port 34444
[19] Jan 30, 2019 3:59:58.954 PM org.forgerock.i18n.slf4j.LocalizedLogger info
INFORMATION: Started listening for new connections on LDAP 0.0.0.0 port 31389
[19] Jan 30, 2019 3:59:58.956 PM org.forgerock.i18n.slf4j.LocalizedLogger info
INFORMATION: The Directory Server has started successfully
[19] Jan 30, 2019 3:59:58.957 PM org.forgerock.i18n.slf4j.LocalizedLogger info
INFORMATION: The Directory Server has sent an alert notification generated by class org.opends.server.core.DirectoryServer (alert type org.opends.server.DirectoryServerStarted, alert ID org.opends.messages.core-135): The Directory Server has started successfully
