[19] Jan 30, 2019 11:31:24.353 AM org.forgerock.openidm.repo.opendj.impl.Activator start
INFORMATION: Registered bootstrap repository service
[19] Jan 30, 2019 11:31:24.355 AM org.forgerock.openidm.repo.opendj.impl.Activator start
INFORMATION: DS bundle started
[19] Jan 30, 2019 11:31:26.916 AM org.forgerock.openidm.config.persistence.ConfigInstallStarter activate
INFORMATION: Services ready to handle config install.
[57] Jan 30, 2019 11:31:26.919 AM org.forgerock.openidm.config.installer.JSONConfigInstaller getConfigurationAdmin
INFORMATION: ConfigAdmin service detected by JSON configuration listener
[19] Jan 30, 2019 11:31:26.920 AM org.forgerock.openidm.config.persistence.ConfigBootstrapHelper installAllConfig
INFORMATION: Configuration from file enabled
[56] Jan 30, 2019 11:31:26.942 AM org.forgerock.openidm.config.installer.JSONConfigInstaller parsePid
INFORMATION: Configuring service PID org.forgerock.openidm.ui.context factory PID api
[56] Jan 30, 2019 11:31:26.947 AM org.forgerock.openidm.config.installer.JSONConfigInstaller parsePid
INFORMATION: Configuring service PID org.forgerock.openidm.endpoint factory PID removeRepoPathFromRelationships
[56] Jan 30, 2019 11:31:26.948 AM org.forgerock.openidm.config.installer.JSONConfigInstaller parsePid
INFORMATION: Configuring service PID org.forgerock.openidm.endpoint factory PID reconResults
[56] Jan 30, 2019 11:31:26.954 AM org.forgerock.openidm.config.installer.JSONConfigInstaller parsePid
INFORMATION: Configuring service PID org.forgerock.openidm.process factory PID access
[56] Jan 30, 2019 11:31:27.267 AM org.forgerock.openidm.config.installer.JSONConfigInstaller parsePid
INFORMATION: Configuring service PID org.forgerock.openidm.ui.context factory PID enduser
[56] Jan 30, 2019 11:31:27.269 AM org.forgerock.openidm.config.installer.JSONConfigInstaller parsePid
INFORMATION: Configuring service PID org.forgerock.openidm.notification factory PID profileUpdate
[56] Jan 30, 2019 11:31:27.274 AM org.forgerock.openidm.config.installer.JSONConfigInstaller parsePid
INFORMATION: Configuring service PID org.forgerock.openidm.servletfilter factory PID cors
[56] Jan 30, 2019 11:31:27.284 AM org.forgerock.openidm.config.installer.JSONConfigInstaller parsePid
INFORMATION: Configuring service PID org.forgerock.openidm.ui factory PID dashboard
[56] Jan 30, 2019 11:31:27.285 AM org.forgerock.openidm.config.installer.JSONConfigInstaller parsePid
INFORMATION: Configuring service PID org.forgerock.openidm.endpoint factory PID updateInternalUserAndInternalRoleEntries
[56] Jan 30, 2019 11:31:27.286 AM org.forgerock.openidm.config.installer.JSONConfigInstaller parsePid
INFORMATION: Configuring service PID org.forgerock.openidm.servletfilter factory PID gzip
[56] Jan 30, 2019 11:31:27.287 AM org.forgerock.openidm.config.installer.JSONConfigInstaller parsePid
INFORMATION: Configuring service PID org.forgerock.openidm.ui factory PID configuration
[56] Jan 30, 2019 11:31:27.290 AM org.forgerock.openidm.config.installer.JSONConfigInstaller parsePid
INFORMATION: Configuring service PID org.forgerock.openidm.ui factory PID profile
[19] Jan 30, 2019 11:31:27.290 AM org.forgerock.openidm.idp.IdentityProviderService activate
INFORMATION: OpenIDM Identity Provider Service is activated.
[56] Jan 30, 2019 11:31:27.293 AM org.forgerock.openidm.config.installer.JSONConfigInstaller parsePid
INFORMATION: Configuring service PID org.forgerock.openidm.emailTemplate factory PID welcome
[56] Jan 30, 2019 11:31:27.294 AM org.forgerock.openidm.config.installer.JSONConfigInstaller parsePid
INFORMATION: Configuring service PID org.forgerock.openidm.notification factory PID passwordUpdate
[56] Jan 30, 2019 11:31:27.296 AM org.forgerock.openidm.config.installer.JSONConfigInstaller parsePid
INFORMATION: Configuring service PID org.forgerock.openidm.endpoint factory PID mappingDetails
[56] Jan 30, 2019 11:31:27.297 AM org.forgerock.openidm.config.installer.JSONConfigInstaller parsePid
INFORMATION: Configuring service PID org.forgerock.openidm.endpoint factory PID getprocessesforuser
[56] Jan 30, 2019 11:31:27.298 AM org.forgerock.openidm.config.installer.JSONConfigInstaller parsePid
INFORMATION: Configuring service PID org.forgerock.openidm.ui.context factory PID oauth
[56] Jan 30, 2019 11:31:27.299 AM org.forgerock.openidm.config.installer.JSONConfigInstaller parsePid
INFORMATION: Configuring service PID org.forgerock.openidm.ui.context factory PID admin
[56] Jan 30, 2019 11:31:27.301 AM org.forgerock.openidm.config.installer.JSONConfigInstaller parsePid
INFORMATION: Configuring service PID org.forgerock.openidm.endpoint factory PID oauthproxy
[56] Jan 30, 2019 11:31:27.303 AM org.forgerock.openidm.config.installer.JSONConfigInstaller parsePid
INFORMATION: Configuring service PID org.forgerock.openidm.endpoint factory PID linkedView
[56] Jan 30, 2019 11:31:27.305 AM org.forgerock.openidm.config.installer.JSONConfigInstaller parsePid
INFORMATION: Configuring service PID org.forgerock.openidm.endpoint factory PID repairMetadata
[56] Jan 30, 2019 11:31:27.307 AM org.forgerock.openidm.config.installer.JSONConfigInstaller parsePid
INFORMATION: Configuring service PID org.forgerock.openidm.endpoint factory PID getavailableuserstoassign
[56] Jan 30, 2019 11:31:27.309 AM org.forgerock.openidm.config.installer.JSONConfigInstaller parsePid
INFORMATION: Configuring service PID org.forgerock.openidm.provisioner.openicf factory PID APIGEE
[56] Jan 30, 2019 11:31:27.315 AM org.forgerock.openidm.config.installer.JSONConfigInstaller parsePid
INFORMATION: Configuring service PID org.forgerock.openidm.ui factory PID themeconfig
[56] Jan 30, 2019 11:31:27.316 AM org.forgerock.openidm.config.installer.JSONConfigInstaller parsePid
INFORMATION: Configuring service PID org.forgerock.openidm.endpoint factory PID gettasksview
[19] Jan 30, 2019 11:31:27.521 AM org.apache.aries.blueprint.container.BlueprintExtender start
INFORMATION: No quiesce support is available, so blueprint components will not participate in quiesce operations
[19] Jan 30, 2019 11:31:27.744 AM org.forgerock.openidm.external.rest.RestService activate
INFORMATION: External REST connectivity started.
[19] Jan 30, 2019 11:31:29.284 AM org.forgerock.openidm.provisioner.openicf.impl.ConnectorInfoProviderService activate
INFORMATION: ConnectorInfoProviderService with OpenICF Version[1.5] is activated.
[19] Jan 30, 2019 11:31:29.355 AM org.forgerock.openidm.maintenance.impl.MaintenanceService activate
INFORMATION: Maintenance service started.
[19] Jan 30, 2019 11:31:29.394 AM org.forgerock.openidm.servlet.internal.ServletConnectionFactory activate
INFORMATION: Servlet ConnectionFactory created.
[19] Jan 30, 2019 11:31:29.434 AM org.forgerock.openidm.router.impl.JsonResourceRouterService activate
INFORMATION: IDMConnectionFactory service activated.
[19] Jan 30, 2019 11:31:29.506 AM org.forgerock.openidm.maintenance.impl.UpdateLogServiceImpl activate
INFORMATION: Update Log service started.
[19] Jan 30, 2019 11:31:29.517 AM org.forgerock.openidm.maintenance.upgrade.UpdateManagerImpl activate
FEIN: Activating UpdateManagerImpl {suppressMetatypeWarning=true, service.pid=org.forgerock.openidm.maintenance.updatemanager, service.vendor=ForgeRock AS., service.description=Product Update Manager, connectionFactory.target=(service.pid=org.forgerock.openidm.router.internal), component.name=org.forgerock.openidm.maintenance.updatemanager, component.id=85, ref_UpdateManagerImpl_RepoService.target=(openidm.router.prefix=repo/*)}
[19] Jan 30, 2019 11:31:29.518 AM org.forgerock.openidm.maintenance.upgrade.UpdateManagerImpl activate
FEIN: Obtained OSGiFrameworkService
[19] Jan 30, 2019 11:31:29.522 AM org.forgerock.openidm.maintenance.impl.UpdateService activate
INFORMATION: Update service started.
[19] Jan 30, 2019 11:31:29.586 AM org.forgerock.openidm.script.impl.ScriptRegistryService bindCryptoService
INFORMATION: Crypto functions are enabled
[19] Jan 30, 2019 11:31:29.593 AM org.forgerock.openidm.script.impl.ScriptRegistryService setConnectionFactory
INFORMATION: Resource functions are enabled
[19] Jan 30, 2019 11:31:29.601 AM org.forgerock.openidm.script.impl.ScriptRegistryService activate
INFORMATION: OpenIDM Script Service component is activated.
[19] Jan 30, 2019 11:31:30.334 AM org.forgerock.openidm.customendpoint.impl.EndpointsService activate
INFORMATION: OpenIDM Endpoints Service "oauthproxy" component is activated.
[19] Jan 30, 2019 11:31:30.344 AM org.forgerock.openidm.customendpoint.impl.EndpointsService activate
INFORMATION: OpenIDM Endpoints Service "repairMetadata" component is activated.
[19] Jan 30, 2019 11:31:30.351 AM org.forgerock.openidm.customendpoint.impl.EndpointsService activate
INFORMATION: OpenIDM Endpoints Service "getavailableuserstoassign" component is activated.
[19] Jan 30, 2019 11:31:30.360 AM org.forgerock.openidm.customendpoint.impl.EndpointsService activate
INFORMATION: OpenIDM Endpoints Service "gettasksview" component is activated.
[19] Jan 30, 2019 11:31:30.366 AM org.forgerock.openidm.customendpoint.impl.EndpointsService activate
INFORMATION: OpenIDM Endpoints Service "updateInternalUserAndInternalRoleEntries" component is activated.
[19] Jan 30, 2019 11:31:30.372 AM org.forgerock.openidm.customendpoint.impl.EndpointsService activate
INFORMATION: OpenIDM Endpoints Service "removeRepoPathFromRelationships" component is activated.
[19] Jan 30, 2019 11:31:30.384 AM org.forgerock.openidm.customendpoint.impl.EndpointsService activate
INFORMATION: OpenIDM Endpoints Service "reconResults" component is activated.
[19] Jan 30, 2019 11:31:30.391 AM org.forgerock.openidm.customendpoint.impl.EndpointsService activate
INFORMATION: OpenIDM Endpoints Service "mappingDetails" component is activated.
[19] Jan 30, 2019 11:31:30.395 AM org.forgerock.openidm.customendpoint.impl.EndpointsService activate
INFORMATION: OpenIDM Endpoints Service "linkedView" component is activated.
[19] Jan 30, 2019 11:31:30.402 AM org.forgerock.openidm.customendpoint.impl.EndpointsService activate
INFORMATION: OpenIDM Endpoints Service "getprocessesforuser" component is activated.
[19] Jan 30, 2019 11:31:30.444 AM org.forgerock.openidm.policy.PolicyService activate
INFORMATION: OpenIDM Policy Service component is activated.
[19] Jan 30, 2019 11:31:30.590 AM org.forgerock.openidm.audit.impl.AuditServiceImpl activate
INFORMATION: Audit service started.
[19] Jan 30, 2019 11:31:30.859 AM org.forgerock.api.transform.OpenApiTransformer addDefinitionReference
INFORMATION: Replacing schema definition with id: urn:jsonschema:org:forgerock:openidm:policy:api:PolicyParameterMap
[19] Jan 30, 2019 11:31:30.860 AM org.forgerock.api.transform.OpenApiTransformer addDefinitionReference
INFORMATION: Replacing schema definition with id: urn:jsonschema:org:forgerock:openidm:policy:api:PolicyParameterMap
[19] Jan 30, 2019 11:31:30.860 AM org.forgerock.api.transform.OpenApiTransformer addDefinitionReference
INFORMATION: Replacing schema definition with id: urn:jsonschema:org:forgerock:openidm:policy:api:PolicyParameterMap
[19] Jan 30, 2019 11:31:30.861 AM org.forgerock.api.transform.OpenApiTransformer addDefinitionReference
INFORMATION: Replacing schema definition with id: urn:jsonschema:org:forgerock:openidm:policy:api:PolicyParameterMap
[19] Jan 30, 2019 11:31:30.862 AM org.forgerock.api.transform.OpenApiTransformer addDefinitionReference
INFORMATION: Replacing schema definition with id: urn:jsonschema:org:forgerock:openidm:policy:api:PolicyParameterMap
[19] Jan 30, 2019 11:31:30.862 AM org.forgerock.api.transform.OpenApiTransformer addDefinitionReference
INFORMATION: Replacing schema definition with id: urn:jsonschema:org:forgerock:openidm:policy:api:PolicyParameterMap
[19] Jan 30, 2019 11:31:30.863 AM org.forgerock.api.transform.OpenApiTransformer addDefinitionReference
INFORMATION: Replacing schema definition with id: urn:jsonschema:org:forgerock:openidm:policy:api:PolicyParameterMap
[19] Jan 30, 2019 11:31:30.866 AM org.forgerock.openidm.policy.PolicyService resetService
INFORMATION: OpenIDM Policy Service component has been reset.
[19] Jan 30, 2019 11:31:30.935 AM org.forgerock.openidm.internal.impl.InternalObjectApiDescription build
INFORMATION: Failed to generate API Description for internal schema section: notification
[19] Jan 30, 2019 11:31:31.010 AM org.forgerock.openidm.sync.ReconciliationService activate
INFORMATION: Reconciliation service started.
[32] Jan 30, 2019 11:31:34.266 AM org.forgerock.i18n.slf4j.LocalizedLogger warn
WARNUNG: The Directory Server has sent an alert notification generated by class org.opends.server.extensions.DiskSpaceMonitor (alert type org.opends.server.DiskSpaceLow, alert ID org.opends.messages.core-749): The free space (16,6 gigabytes) on the disk containing directory "/" is between low and full threshold for the following subsystems: "idmRepo Backend" (low=17,53 gigabytes, full=13,53 gigabytes). Write operations are only permitted by a user with the BYPASS_LOCKDOWN privilege until the free space rises above the threshold. Replication updates are still allowed
[19] Jan 30, 2019 11:31:35.741 AM org.forgerock.openicf.connectors.groovy.ScriptedConfiguration evaluate
INFORMATION: Entering TEST Script
[19] Jan 30, 2019 11:31:35.762 AM org.forgerock.openidm.provisioner.openicf.impl.OpenICFProvisionerService lambda$activate$0
INFORMATION: OpenICF Provisioner Service component APIGEE is activated.
[19] Jan 30, 2019 11:31:35.788 AM org.forgerock.openidm.auth.AuthenticationService activate
INFORMATION: Activating Authentication Service with configuration {component.name=org.forgerock.openidm.authentication, authFilterWrapper.target=(service.pid=org.forgerock.openidm.auth.config), jsonconfig={
    "serverAuthContext" : {
        "sessionModule" : {
            "name" : "JWT_SESSION",
            "properties" : {
                "maxTokenLifeMinutes" : 120,
                "tokenIdleTimeMinutes" : 30,
                "sessionOnly" : true,
                "isHttpOnly" : true,
                "enableDynamicRoles" : false
            }
        },
        "authModules" : [
            {
                "name" : "STATIC_USER",
                "properties" : {
                    "queryOnResource" : "internal/user",
                    "username" : "anonymous",
                    "password" : {
                        "$crypto" : {
                            "type" : "x-simple-encryption",
                            "value" : {
                                "cipher" : "AES/CBC/PKCS5Padding",
                                "stableId" : "openidm-sym-default",
                                "salt" : "bCBr4LQhEW4lQeBbnSYM/A==",
                                "data" : "wTsKoYwuvCp9TsO/BPxdNQ==",
                                "keySize" : 16,
                                "purpose" : "idm.config.encryption",
                                "iv" : "9JSuCy3k8WIJrH//9V40oA==",
                                "mac" : "pF2NrVABLe8xlbkeQm238A=="
                            }
                        }
                    },
                    "defaultUserRoles" : [
                        "internal/role/openidm-reg"
                    ]
                },
                "enabled" : true
            },
            {
                "name" : "MANAGED_USER",
                "properties" : {
                    "augmentSecurityContext" : {
                        "type" : "text/javascript",
                        "source" : "require('auth/customAuthz').setProtectedAttributes(security)"
                    },
                    "queryId" : "credential-query",
                    "queryOnResource" : "managed/user",
                    "propertyMapping" : {
                        "authenticationId" : "username",
                        "userCredential" : "password",
                        "userRoles" : "authzRoles"
                    },
                    "defaultUserRoles" : [ ]
                },
                "enabled" : true
            },
            {
                "name" : "INTERNAL_USER",
                "properties" : {
                    "queryId" : "credential-internaluser-query",
                    "queryOnResource" : "internal/user",
                    "propertyMapping" : {
                        "authenticationId" : "username",
                        "userCredential" : "password",
                        "userRoles" : "authzRoles"
                    },
                    "defaultUserRoles" : [ ]
                },
                "enabled" : true
            },
            {
                "name" : "SOCIAL_PROVIDERS",
                "properties" : {
                    "defaultUserRoles" : [
                        "internal/role/openidm-authorized"
                    ],
                    "augmentSecurityContext" : {
                        "type" : "text/javascript",
                        "globals" : { },
                        "file" : "auth/populateAsManagedUserFromRelationship.js"
                    },
                    "propertyMapping" : {
                        "userRoles" : "authzRoles"
                    }
                },
                "enabled" : true
            },
            {
                "name" : "STATIC_USER",
                "properties" : {
                    "queryOnResource" : "internal/user",
                    "username" : "&{openidm.prometheus.username}",
                    "password" : "&{openidm.prometheus.password}",
                    "defaultUserRoles" : [
                        "&{openidm.prometheus.role}"
                    ]
                },
                "enabled" : true
            }
        ]
    }
}, service.vendor=ForgeRock AS., ref_AuthenticationService_Audit.target=(openidm.router.prefix=audit/*), service.pid=org.forgerock.openidm.authentication, openidm.router.prefix=authentication, connectionFactory.target=(service.pid=org.forgerock.openidm.router.internal), _rev=000000008a3efde0, component.id=19, _id=org.forgerock.openidm.authentication, service.description=OpenIDM Authentication Service}
[19] Jan 30, 2019 11:31:36.243 AM org.forgerock.openidm.cluster.ClusterManager startClusterManagement
INFORMATION: Starting Cluster Management
[19] Jan 30, 2019 11:31:36.243 AM org.forgerock.openidm.cluster.ClusterManager$ClusterManagerThread startup
INFORMATION: Starting the cluster manager thread
[19] Jan 30, 2019 11:31:36.257 AM org.forgerock.openidm.health.HealthService activate
INFORMATION: OpenIDM Health Service component is activated.
[19] Jan 30, 2019 11:31:36.302 AM org.forgerock.openidm.info.InfoService activate
INFORMATION: OpenIDM Info Service "{}" component is activated.
[19] Jan 30, 2019 11:31:36.409 AM org.forgerock.openidm.schema.impl.SchemaServiceImpl activate
INFORMATION: OpenIDM Schema Service is activated.
[19] Jan 30, 2019 11:31:36.420 AM org.forgerock.openidm.consent.impl.ConsentServiceImpl activate
INFORMATION: OpenIDM Consent Service is activated.
[19] Jan 30, 2019 11:31:36.455 AM org.forgerock.openidm.router.impl.RouterConfig createFiltersFromConfig
INFORMATION: Router filters added.
[19] Jan 30, 2019 11:31:36.474 AM org.ops4j.pax.web.service.internal.Activator start
INFORMATION: EventAdmin support enabled, servlet events will be postet to topics.
[19] Jan 30, 2019 11:31:36.475 AM org.ops4j.pax.web.service.internal.Activator start
INFORMATION: LogService support enabled, log events will be created.
[19] Jan 30, 2019 11:31:36.477 AM org.ops4j.pax.web.service.internal.Activator start
INFORMATION: Pax Web started
[125] Jan 30, 2019 11:31:36.521 AM org.eclipse.jetty.util.log.JavaUtilLog info
INFORMATION: Logging initialized @23858ms
[125] Jan 30, 2019 11:31:36.645 AM org.ops4j.pax.web.service.jetty.internal.JettyServerImpl start
INFORMATION: Pax Web available at [0.0.0.0]:[8080]
[125] Jan 30, 2019 11:31:36.646 AM org.ops4j.pax.web.service.jetty.internal.JettyServerImpl start
INFORMATION: Pax Web available at [0.0.0.0]:[8443]
[125] Jan 30, 2019 11:31:36.646 AM org.ops4j.pax.web.service.jetty.internal.JettyServerImpl start
INFORMATION: Pax Web available at [0.0.0.0]:[8444]
[125] Jan 30, 2019 11:31:36.657 AM org.ops4j.pax.web.service.internal.HttpServiceFactoryImpl getService
INFORMATION: Binding bundle: [org.forgerock.openidm.servlet-registrator [236]] to http service
[125] Jan 30, 2019 11:31:36.681 AM org.forgerock.openidm.servletregistration.impl.ServletFilterConfiguration activate
INFORMATION: Activating servlet registrator with configuration {config.factory-pid=gzip, component.name=org.forgerock.openidm.servletfilter, jsonconfig={
    "classPathURLs" : [ ],
    "systemProperties" : { },
    "requestAttributes" : { },
    "initParams" : { },
    "scriptExtensions" : { },
    "urlPatterns" : [
        "/*"
    ],
    "filterClass" : "org.eclipse.jetty.servlets.GzipFilter"
}, service.factoryPid=org.forgerock.openidm.servletfilter, felix.fileinstall.filename=file:/Users/andorn/Repos/APIM/IdmDocker/openidm/conf/servletfilter-gzip.json, service.pid=org.forgerock.openidm.servletfilter.43856a70-dcdb-4e1a-b0b7-388826ddcff0, _rev=00000000622f0864, component.id=95, _id=org.forgerock.openidm.servletfilter.43856a70-dcdb-4e1a-b0b7-388826ddcff0}
[125] Jan 30, 2019 11:31:36.682 AM org.forgerock.openidm.servletregistration.impl.ServletRegistrationSingleton registerFilterWithWebContainer
INFORMATION: Using filter class: org.eclipse.jetty.servlets.GzipFilter
[125] Jan 30, 2019 11:31:36.683 AM org.forgerock.openidm.servletregistration.impl.ServletRegistrationSingleton registerFilterWithWebContainer
INFORMATION: Added URLs {  })) to filter classpath
[125] Jan 30, 2019 11:31:36.747 AM org.ops4j.pax.web.service.jetty.internal.HttpServiceContext <init>
INFORMATION: registering context org.ops4j.pax.web.service.internal.DefaultSharedWebContainerContext@37287655, with context-name: 
[125] Jan 30, 2019 11:31:36.751 AM org.forgerock.openidm.servletregistration.impl.ServletRegistrationSingleton registerFilter
INFORMATION: Successfully registered servlet filter { "classPathURLs": [  ], "systemProperties": {  }, "requestAttributes": {  }, "initParams": {  }, "scriptExtensions": {  }, "urlPatterns": [ "/*" ], "filterClass": "org.eclipse.jetty.servlets.GzipFilter" }
[125] Jan 30, 2019 11:31:36.752 AM org.forgerock.openidm.servletregistration.impl.ServletFilterConfiguration activate
INFORMATION: Successfully registered servlet filter {config.factory-pid=gzip, component.name=org.forgerock.openidm.servletfilter, jsonconfig={
    "classPathURLs" : [ ],
    "systemProperties" : { },
    "requestAttributes" : { },
    "initParams" : { },
    "scriptExtensions" : { },
    "urlPatterns" : [
        "/*"
    ],
    "filterClass" : "org.eclipse.jetty.servlets.GzipFilter"
}, service.factoryPid=org.forgerock.openidm.servletfilter, felix.fileinstall.filename=file:/Users/andorn/Repos/APIM/IdmDocker/openidm/conf/servletfilter-gzip.json, service.pid=org.forgerock.openidm.servletfilter.43856a70-dcdb-4e1a-b0b7-388826ddcff0, _rev=00000000622f0864, component.id=95, _id=org.forgerock.openidm.servletfilter.43856a70-dcdb-4e1a-b0b7-388826ddcff0}
[125] Jan 30, 2019 11:31:36.753 AM org.forgerock.openidm.servletregistration.impl.ServletFilterConfiguration activate
INFORMATION: Activating servlet registrator with configuration {config.factory-pid=cors, component.name=org.forgerock.openidm.servletfilter, jsonconfig={
    "classPathURLs" : [ ],
    "systemProperties" : { },
    "requestAttributes" : { },
    "scriptExtensions" : { },
    "initParams" : {
        "allowedOrigins" : "https://localhost:&{openidm.port.https}",
        "allowedMethods" : "GET,POST,PUT,DELETE,PATCH",
        "allowedHeaders" : "accept,x-openidm-password,x-openidm-nosession,x-openidm-username,content-type,origin,x-requested-with",
        "allowCredentials" : true,
        "chainPreflight" : false
    },
    "urlPatterns" : [
        "/*"
    ],
    "filterClass" : "org.eclipse.jetty.servlets.CrossOriginFilter"
}, service.factoryPid=org.forgerock.openidm.servletfilter, felix.fileinstall.filename=file:/Users/andorn/Repos/APIM/IdmDocker/openidm/conf/servletfilter-cors.json, service.pid=org.forgerock.openidm.servletfilter.088af44b-3fd5-405a-adbd-435fddaaaf2d, _rev=00000000854c6f63, component.id=96, _id=org.forgerock.openidm.servletfilter.088af44b-3fd5-405a-adbd-435fddaaaf2d}
[125] Jan 30, 2019 11:31:36.754 AM org.forgerock.openidm.servletregistration.impl.ServletRegistrationSingleton registerFilterWithWebContainer
INFORMATION: Using filter class: org.eclipse.jetty.servlets.GzipFilter
[125] Jan 30, 2019 11:31:36.755 AM org.forgerock.openidm.servletregistration.impl.ServletRegistrationSingleton registerFilterWithWebContainer
INFORMATION: Added URLs {  })) to filter classpath
[125] Jan 30, 2019 11:31:36.755 AM org.forgerock.openidm.servletregistration.impl.ServletRegistrationSingleton registerFilterWithWebContainer
INFORMATION: Using filter class: org.eclipse.jetty.servlets.CrossOriginFilter
[125] Jan 30, 2019 11:31:36.755 AM org.forgerock.openidm.servletregistration.impl.ServletRegistrationSingleton registerFilterWithWebContainer
INFORMATION: Added URLs {  })) to filter classpath
[125] Jan 30, 2019 11:31:36.759 AM org.forgerock.openidm.servletregistration.impl.ServletRegistrationSingleton registerFilter
INFORMATION: Successfully registered servlet filter { "classPathURLs": [  ], "systemProperties": {  }, "requestAttributes": {  }, "scriptExtensions": {  }, "initParams": { "allowedOrigins": "https://localhost:8443", "allowedMethods": "GET,POST,PUT,DELETE,PATCH", "allowedHeaders": "accept,x-openidm-password,x-openidm-nosession,x-openidm-username,content-type,origin,x-requested-with", "allowCredentials": true, "chainPreflight": false }, "urlPatterns": [ "/*" ], "filterClass": "org.eclipse.jetty.servlets.CrossOriginFilter" }
[125] Jan 30, 2019 11:31:36.760 AM org.forgerock.openidm.servletregistration.impl.ServletFilterConfiguration activate
INFORMATION: Successfully registered servlet filter {config.factory-pid=cors, component.name=org.forgerock.openidm.servletfilter, jsonconfig={
    "classPathURLs" : [ ],
    "systemProperties" : { },
    "requestAttributes" : { },
    "scriptExtensions" : { },
    "initParams" : {
        "allowedOrigins" : "https://localhost:&{openidm.port.https}",
        "allowedMethods" : "GET,POST,PUT,DELETE,PATCH",
        "allowedHeaders" : "accept,x-openidm-password,x-openidm-nosession,x-openidm-username,content-type,origin,x-requested-with",
        "allowCredentials" : true,
        "chainPreflight" : false
    },
    "urlPatterns" : [
        "/*"
    ],
    "filterClass" : "org.eclipse.jetty.servlets.CrossOriginFilter"
}, service.factoryPid=org.forgerock.openidm.servletfilter, felix.fileinstall.filename=file:/Users/andorn/Repos/APIM/IdmDocker/openidm/conf/servletfilter-cors.json, service.pid=org.forgerock.openidm.servletfilter.088af44b-3fd5-405a-adbd-435fddaaaf2d, _rev=00000000854c6f63, component.id=96, _id=org.forgerock.openidm.servletfilter.088af44b-3fd5-405a-adbd-435fddaaaf2d}
[125] Jan 30, 2019 11:31:36.929 AM org.forgerock.api.transform.OpenApiTransformer addDefinitionReference
INFORMATION: Replacing schema definition with id: urn:jsonschema:org:forgerock:openidm:policy:api:PolicyParameterMap
[125] Jan 30, 2019 11:31:36.930 AM org.forgerock.api.transform.OpenApiTransformer addDefinitionReference
INFORMATION: Replacing schema definition with id: urn:jsonschema:org:forgerock:openidm:policy:api:PolicyParameterMap
[125] Jan 30, 2019 11:31:36.931 AM org.forgerock.api.transform.OpenApiTransformer addDefinitionReference
INFORMATION: Replacing schema definition with id: urn:jsonschema:org:forgerock:openidm:policy:api:PolicyParameterMap
[125] Jan 30, 2019 11:31:36.931 AM org.forgerock.api.transform.OpenApiTransformer addDefinitionReference
INFORMATION: Replacing schema definition with id: urn:jsonschema:org:forgerock:openidm:policy:api:PolicyParameterMap
[125] Jan 30, 2019 11:31:36.932 AM org.forgerock.api.transform.OpenApiTransformer addDefinitionReference
INFORMATION: Replacing schema definition with id: urn:jsonschema:org:forgerock:openidm:policy:api:PolicyParameterMap
[125] Jan 30, 2019 11:31:36.932 AM org.forgerock.api.transform.OpenApiTransformer addDefinitionReference
INFORMATION: Replacing schema definition with id: urn:jsonschema:org:forgerock:openidm:policy:api:PolicyParameterMap
[125] Jan 30, 2019 11:31:36.933 AM org.forgerock.api.transform.OpenApiTransformer addDefinitionReference
INFORMATION: Replacing schema definition with id: urn:jsonschema:org:forgerock:openidm:policy:api:PolicyParameterMap
[125] Jan 30, 2019 11:31:36.962 AM org.forgerock.api.transform.OpenApiTransformer addDefinitionReference
INFORMATION: Replacing schema definition with id: urn:jsonschema:org:forgerock:openidm:policy:api:PolicyParameterMap
[125] Jan 30, 2019 11:31:36.963 AM org.forgerock.api.transform.OpenApiTransformer addDefinitionReference
INFORMATION: Replacing schema definition with id: urn:jsonschema:org:forgerock:openidm:policy:api:PolicyParameterMap
[125] Jan 30, 2019 11:31:36.964 AM org.forgerock.api.transform.OpenApiTransformer addDefinitionReference
INFORMATION: Replacing schema definition with id: urn:jsonschema:org:forgerock:openidm:policy:api:PolicyParameterMap
[125] Jan 30, 2019 11:31:36.964 AM org.forgerock.api.transform.OpenApiTransformer addDefinitionReference
INFORMATION: Replacing schema definition with id: urn:jsonschema:org:forgerock:openidm:policy:api:PolicyParameterMap
[125] Jan 30, 2019 11:31:36.965 AM org.forgerock.api.transform.OpenApiTransformer addDefinitionReference
INFORMATION: Replacing schema definition with id: urn:jsonschema:org:forgerock:openidm:policy:api:PolicyParameterMap
[125] Jan 30, 2019 11:31:36.965 AM org.forgerock.api.transform.OpenApiTransformer addDefinitionReference
INFORMATION: Replacing schema definition with id: urn:jsonschema:org:forgerock:openidm:policy:api:PolicyParameterMap
[125] Jan 30, 2019 11:31:36.966 AM org.forgerock.api.transform.OpenApiTransformer addDefinitionReference
INFORMATION: Replacing schema definition with id: urn:jsonschema:org:forgerock:openidm:policy:api:PolicyParameterMap
[125] Jan 30, 2019 11:31:36.976 AM org.eclipse.jetty.util.log.JavaUtilLog info
INFORMATION: Started HttpServiceContext{httpContext=org.ops4j.pax.web.service.internal.DefaultSharedWebContainerContext@37287655}
[125] Jan 30, 2019 11:31:36.980 AM org.eclipse.jetty.util.log.JavaUtilLog info
INFORMATION: jetty-9.2.z-SNAPSHOT
[125] Jan 30, 2019 11:31:37.018 AM org.eclipse.jetty.util.log.JavaUtilLog info
INFORMATION: Started 0.0.0.0:8080@73e5883b{HTTP/1.1}{0.0.0.0:8080}
[19] Jan 30, 2019 11:31:37.020 AM org.forgerock.openidm.scheduler.SchedulerService activate
INFORMATION: Starting Scheduler Service
[19] Jan 30, 2019 11:31:37.021 AM org.forgerock.openidm.scheduler.SchedulerService initInMemoryScheduler
INFORMATION: Creating In-Memory Scheduler
[19] Jan 30, 2019 11:31:37.055 AM org.quartz.core.SchedulerSignalerImpl <init>
INFORMATION: Initialized Scheduler Signaller of type: class org.quartz.core.SchedulerSignalerImpl
[19] Jan 30, 2019 11:31:37.055 AM org.quartz.core.QuartzScheduler <init>
INFORMATION: Quartz Scheduler v.1.8.6 created.
[19] Jan 30, 2019 11:31:37.058 AM org.quartz.simpl.RAMJobStore initialize
INFORMATION: RAMJobStore initialized.
[19] Jan 30, 2019 11:31:37.061 AM org.quartz.core.QuartzScheduler initialize
INFORMATION: Scheduler meta-data: Quartz Scheduler (v1.8.6) 'SimpleQuartzScheduler' with instanceId 'SIMPLE_NON_CLUSTERED'
  Scheduler class: 'org.quartz.core.QuartzScheduler' - running locally.
  NOT STARTED.
  Currently in standby mode.
  Number of jobs executed: 0
  Using thread pool 'org.quartz.simpl.SimpleThreadPool' - with 10 threads.
  Using job-store 'org.quartz.simpl.RAMJobStore' - which does not support persistence. and is not clustered.

[19] Jan 30, 2019 11:31:37.061 AM org.quartz.impl.DirectSchedulerFactory createScheduler
INFORMATION: Quartz scheduler 'SimpleQuartzScheduler
[19] Jan 30, 2019 11:31:37.062 AM org.quartz.impl.DirectSchedulerFactory createScheduler
INFORMATION: Quartz scheduler version: 1.8.6
[19] Jan 30, 2019 11:31:37.064 AM org.forgerock.openidm.scheduler.SchedulerService initInMemoryScheduler
INFORMATION: Scheduler facility started
[19] Jan 30, 2019 11:31:37.066 AM org.forgerock.openidm.scheduler.SchedulerService createPersistentScheduler
INFORMATION: Creating Persistent Scheduler
[19] Jan 30, 2019 11:31:37.091 AM org.quartz.impl.StdSchedulerFactory instantiate
INFORMATION: Using default implementation for ThreadExecutor
[19] Jan 30, 2019 11:31:37.092 AM org.quartz.simpl.SimpleThreadPool initialize
INFORMATION: Job execution threads will use class loader of thread: FelixStartLevel
[19] Jan 30, 2019 11:31:37.095 AM org.quartz.core.QuartzSchedulerThread <init>
INFORMATION: QuartzSchedulerThread Inheriting ContextClassLoader of thread: FelixStartLevel
[19] Jan 30, 2019 11:31:37.096 AM org.quartz.core.SchedulerSignalerImpl <init>
INFORMATION: Initialized Scheduler Signaller of type: class org.quartz.core.SchedulerSignalerImpl
[19] Jan 30, 2019 11:31:37.096 AM org.quartz.core.QuartzScheduler <init>
INFORMATION: Quartz Scheduler v.1.8.6 created.
[19] Jan 30, 2019 11:31:37.097 AM org.forgerock.openidm.quartz.RepoJobStore initialize
INFORMATION: Initializing RepoJobStore
[19] Jan 30, 2019 11:31:37.097 AM org.forgerock.openidm.quartz.RepoJobStore initialize
INFORMATION: Registering with ClusterManagementService
[19] Jan 30, 2019 11:31:37.098 AM org.quartz.core.QuartzScheduler initialize
INFORMATION: Scheduler meta-data: Quartz Scheduler (v1.8.6) 'DefaultQuartzScheduler' with instanceId 'node1'
  Scheduler class: 'org.quartz.core.QuartzScheduler' - running locally.
  NOT STARTED.
  Currently in standby mode.
  Number of jobs executed: 0
  Using thread pool 'org.quartz.simpl.SimpleThreadPool' - with 10 threads.
  Using job-store 'org.forgerock.openidm.quartz.RepoJobStore' - which supports persistence. and is clustered.

[19] Jan 30, 2019 11:31:37.098 AM org.quartz.impl.StdSchedulerFactory instantiate
INFORMATION: Quartz scheduler 'DefaultQuartzScheduler' initialized from an externally provided properties instance.
[19] Jan 30, 2019 11:31:37.098 AM org.quartz.impl.StdSchedulerFactory instantiate
INFORMATION: Quartz scheduler version: 1.8.6
[19] Jan 30, 2019 11:31:37.098 AM org.forgerock.openidm.scheduler.SchedulerService activate
INFORMATION: Starting Volatile Scheduler
[19] Jan 30, 2019 11:31:37.099 AM org.quartz.core.QuartzScheduler start
INFORMATION: Scheduler SimpleQuartzScheduler_$_SIMPLE_NON_CLUSTERED started.
[19] Jan 30, 2019 11:31:37.099 AM org.forgerock.openidm.scheduler.SchedulerService activate
INFORMATION: Starting Persistent Scheduler
[19] Jan 30, 2019 11:31:37.099 AM org.forgerock.openidm.quartz.RepoJobStore schedulerStarted
INFORMATION: Job Scheduler Started
[19] Jan 30, 2019 11:31:37.103 AM org.quartz.core.QuartzScheduler start
INFORMATION: Scheduler DefaultQuartzScheduler_$_node1 started.
[19] Jan 30, 2019 11:31:37.108 AM org.forgerock.openidm.scheduler.SchedulerService activate
INFORMATION: There are 0 jobs waiting to be scheduled
[19] Jan 30, 2019 11:31:37.108 AM org.forgerock.openidm.scheduler.SchedulerService activate
INFORMATION: Scheduling waiting schedules
[19] Jan 30, 2019 11:31:37.142 AM org.forgerock.api.transform.OpenApiTransformer addDefinitionReference
INFORMATION: Replacing schema definition with id: urn:jsonschema:org:forgerock:openidm:policy:api:PolicyParameterMap
[19] Jan 30, 2019 11:31:37.142 AM org.forgerock.api.transform.OpenApiTransformer addDefinitionReference
INFORMATION: Replacing schema definition with id: urn:jsonschema:org:forgerock:openidm:policy:api:PolicyParameterMap
[19] Jan 30, 2019 11:31:37.143 AM org.forgerock.api.transform.OpenApiTransformer addDefinitionReference
INFORMATION: Replacing schema definition with id: urn:jsonschema:org:forgerock:openidm:policy:api:PolicyParameterMap
[19] Jan 30, 2019 11:31:37.144 AM org.forgerock.api.transform.OpenApiTransformer addDefinitionReference
INFORMATION: Replacing schema definition with id: urn:jsonschema:org:forgerock:openidm:policy:api:PolicyParameterMap
[19] Jan 30, 2019 11:31:37.144 AM org.forgerock.api.transform.OpenApiTransformer addDefinitionReference
INFORMATION: Replacing schema definition with id: urn:jsonschema:org:forgerock:openidm:policy:api:PolicyParameterMap
[19] Jan 30, 2019 11:31:37.145 AM org.forgerock.api.transform.OpenApiTransformer addDefinitionReference
INFORMATION: Replacing schema definition with id: urn:jsonschema:org:forgerock:openidm:policy:api:PolicyParameterMap
[19] Jan 30, 2019 11:31:37.146 AM org.forgerock.api.transform.OpenApiTransformer addDefinitionReference
INFORMATION: Replacing schema definition with id: urn:jsonschema:org:forgerock:openidm:policy:api:PolicyParameterMap
[19] Jan 30, 2019 11:31:37.172 AM org.forgerock.api.transform.OpenApiTransformer addDefinitionReference
INFORMATION: Replacing schema definition with id: urn:jsonschema:org:forgerock:openidm:policy:api:PolicyParameterMap
[19] Jan 30, 2019 11:31:37.173 AM org.forgerock.api.transform.OpenApiTransformer addDefinitionReference
INFORMATION: Replacing schema definition with id: urn:jsonschema:org:forgerock:openidm:policy:api:PolicyParameterMap
[19] Jan 30, 2019 11:31:37.173 AM org.forgerock.api.transform.OpenApiTransformer addDefinitionReference
INFORMATION: Replacing schema definition with id: urn:jsonschema:org:forgerock:openidm:policy:api:PolicyParameterMap
[19] Jan 30, 2019 11:31:37.174 AM org.forgerock.api.transform.OpenApiTransformer addDefinitionReference
INFORMATION: Replacing schema definition with id: urn:jsonschema:org:forgerock:openidm:policy:api:PolicyParameterMap
[19] Jan 30, 2019 11:31:37.175 AM org.forgerock.api.transform.OpenApiTransformer addDefinitionReference
INFORMATION: Replacing schema definition with id: urn:jsonschema:org:forgerock:openidm:policy:api:PolicyParameterMap
[19] Jan 30, 2019 11:31:37.175 AM org.forgerock.api.transform.OpenApiTransformer addDefinitionReference
INFORMATION: Replacing schema definition with id: urn:jsonschema:org:forgerock:openidm:policy:api:PolicyParameterMap
[19] Jan 30, 2019 11:31:37.176 AM org.forgerock.api.transform.OpenApiTransformer addDefinitionReference
INFORMATION: Replacing schema definition with id: urn:jsonschema:org:forgerock:openidm:policy:api:PolicyParameterMap
[19] Jan 30, 2019 11:31:37.218 AM org.forgerock.api.transform.OpenApiTransformer addDefinitionReference
INFORMATION: Replacing schema definition with id: urn:jsonschema:org:forgerock:openidm:policy:api:PolicyParameterMap
[19] Jan 30, 2019 11:31:37.219 AM org.forgerock.api.transform.OpenApiTransformer addDefinitionReference
INFORMATION: Replacing schema definition with id: urn:jsonschema:org:forgerock:openidm:policy:api:PolicyParameterMap
[19] Jan 30, 2019 11:31:37.219 AM org.forgerock.api.transform.OpenApiTransformer addDefinitionReference
INFORMATION: Replacing schema definition with id: urn:jsonschema:org:forgerock:openidm:policy:api:PolicyParameterMap
[19] Jan 30, 2019 11:31:37.220 AM org.forgerock.api.transform.OpenApiTransformer addDefinitionReference
INFORMATION: Replacing schema definition with id: urn:jsonschema:org:forgerock:openidm:policy:api:PolicyParameterMap
[19] Jan 30, 2019 11:31:37.220 AM org.forgerock.api.transform.OpenApiTransformer addDefinitionReference
INFORMATION: Replacing schema definition with id: urn:jsonschema:org:forgerock:openidm:policy:api:PolicyParameterMap
[19] Jan 30, 2019 11:31:37.221 AM org.forgerock.api.transform.OpenApiTransformer addDefinitionReference
INFORMATION: Replacing schema definition with id: urn:jsonschema:org:forgerock:openidm:policy:api:PolicyParameterMap
[19] Jan 30, 2019 11:31:37.221 AM org.forgerock.api.transform.OpenApiTransformer addDefinitionReference
INFORMATION: Replacing schema definition with id: urn:jsonschema:org:forgerock:openidm:policy:api:PolicyParameterMap
[19] Jan 30, 2019 11:31:37.245 AM org.forgerock.api.transform.OpenApiTransformer addDefinitionReference
INFORMATION: Replacing schema definition with id: urn:jsonschema:org:forgerock:openidm:policy:api:PolicyParameterMap
[19] Jan 30, 2019 11:31:37.245 AM org.forgerock.api.transform.OpenApiTransformer addDefinitionReference
INFORMATION: Replacing schema definition with id: urn:jsonschema:org:forgerock:openidm:policy:api:PolicyParameterMap
[19] Jan 30, 2019 11:31:37.246 AM org.forgerock.api.transform.OpenApiTransformer addDefinitionReference
INFORMATION: Replacing schema definition with id: urn:jsonschema:org:forgerock:openidm:policy:api:PolicyParameterMap
[19] Jan 30, 2019 11:31:37.246 AM org.forgerock.api.transform.OpenApiTransformer addDefinitionReference
INFORMATION: Replacing schema definition with id: urn:jsonschema:org:forgerock:openidm:policy:api:PolicyParameterMap
[19] Jan 30, 2019 11:31:37.247 AM org.forgerock.api.transform.OpenApiTransformer addDefinitionReference
INFORMATION: Replacing schema definition with id: urn:jsonschema:org:forgerock:openidm:policy:api:PolicyParameterMap
[19] Jan 30, 2019 11:31:37.247 AM org.forgerock.api.transform.OpenApiTransformer addDefinitionReference
INFORMATION: Replacing schema definition with id: urn:jsonschema:org:forgerock:openidm:policy:api:PolicyParameterMap
[19] Jan 30, 2019 11:31:37.248 AM org.forgerock.api.transform.OpenApiTransformer addDefinitionReference
INFORMATION: Replacing schema definition with id: urn:jsonschema:org:forgerock:openidm:policy:api:PolicyParameterMap
[12] Jan 30, 2019 11:31:37.289 AM org.forgerock.openidm.health.HealthService setState
INFORMATION: OpenIDM ready OpenIDM version "6.5.0" (build: 20181128123548, revision: 7b41aaf) jenkins-openidm-release-sustaining%2F6.5.x-10
[125] Jan 30, 2019 11:31:37.684 AM org.eclipse.jetty.util.log.JavaUtilLog info
INFORMATION: Started 0.0.0.0:8443@310a0022{SSL-http/1.1}{0.0.0.0:8443}
[125] Jan 30, 2019 11:31:38.257 AM org.eclipse.jetty.util.log.JavaUtilLog info
INFORMATION: Started 0.0.0.0:8444@540c06db{SSL-http/1.1}{0.0.0.0:8444}
[125] Jan 30, 2019 11:31:38.258 AM org.eclipse.jetty.util.log.JavaUtilLog info
INFORMATION: Started @25596ms
[125] Jan 30, 2019 11:31:38.259 AM org.forgerock.openidm.servlet.internal.ServletComponent activate
INFORMATION: Registered servlet at /openidm
[125] Jan 30, 2019 11:31:38.275 AM org.ops4j.pax.web.service.internal.HttpServiceFactoryImpl getService
INFORMATION: Binding bundle: [org.forgerock.openidm.servlet [148]] to http service
[125] Jan 30, 2019 11:31:38.277 AM org.forgerock.openidm.ui.internal.service.ResourceServlet activate
INFORMATION: Activating resource servlet with configuration {config.factory-pid=api, component.name=org.forgerock.openidm.ui.context, jsonconfig={
    "enabled" : true,
    "urlContextRoot" : "/api",
    "defaultDir" : "&{idm.install.dir}/ui/api/default",
    "extensionDir" : "&{idm.install.dir}/ui/api/extension"
}, service.factoryPid=org.forgerock.openidm.ui.context, felix.fileinstall.filename=file:/Users/andorn/Repos/APIM/IdmDocker/openidm/conf/ui.context-api.json, service.pid=org.forgerock.openidm.ui.context.100c0635-929a-446d-b0d8-9e79d8bc962a, _rev=00000000f728efcd, component.id=34, _id=org.forgerock.openidm.ui.context.100c0635-929a-446d-b0d8-9e79d8bc962a}
[125] Jan 30, 2019 11:31:38.278 AM org.forgerock.openidm.ui.internal.service.ResourceServlet activate
INFORMATION: Activating resource servlet with configuration {config.factory-pid=admin, component.name=org.forgerock.openidm.ui.context, jsonconfig={
    "enabled" : true,
    "urlContextRoot" : "/admin",
    "defaultDir" : "&{idm.install.dir}/ui/admin/default",
    "extensionDir" : "&{idm.install.dir}/ui/admin/extension",
    "responseHeaders" : {
        "X-Frame-Options" : "DENY"
    }
}, service.factoryPid=org.forgerock.openidm.ui.context, felix.fileinstall.filename=file:/Users/andorn/Repos/APIM/IdmDocker/openidm/conf/ui.context-admin.json, service.pid=org.forgerock.openidm.ui.context.15683cc4-1449-42d7-bb29-44e3ff07a515, _rev=000000008a48033d, component.id=35, _id=org.forgerock.openidm.ui.context.15683cc4-1449-42d7-bb29-44e3ff07a515}
[125] Jan 30, 2019 11:31:38.279 AM org.forgerock.openidm.ui.internal.service.ResourceServlet activate
INFORMATION: Activating resource servlet with configuration {config.factory-pid=enduser, component.name=org.forgerock.openidm.ui.context, jsonconfig={
    "enabled" : true,
    "urlContextRoot" : "/",
    "defaultDir" : "&{idm.install.dir}/ui/enduser",
    "responseHeaders" : {
        "X-Frame-Options" : "DENY"
    }
}, service.factoryPid=org.forgerock.openidm.ui.context, felix.fileinstall.filename=file:/Users/andorn/Repos/APIM/IdmDocker/openidm/conf/ui.context-enduser.json, service.pid=org.forgerock.openidm.ui.context.adf68af8-470a-433c-9519-c31cbb67b4c8, _rev=00000000bd5cef52, component.id=36, _id=org.forgerock.openidm.ui.context.adf68af8-470a-433c-9519-c31cbb67b4c8}
[125] Jan 30, 2019 11:31:38.281 AM org.forgerock.openidm.ui.internal.service.ResourceServlet activate
INFORMATION: Activating resource servlet with configuration {config.factory-pid=oauth, component.name=org.forgerock.openidm.ui.context, jsonconfig={
    "enabled" : true,
    "urlContextRoot" : "/oauthReturn",
    "defaultDir" : "&{idm.install.dir}/ui/oauth/default",
    "extensionDir" : "&{idm.install.dir}/ui/oauth/extension"
}, service.factoryPid=org.forgerock.openidm.ui.context, felix.fileinstall.filename=file:/Users/andorn/Repos/APIM/IdmDocker/openidm/conf/ui.context-oauth.json, service.pid=org.forgerock.openidm.ui.context.59797a69-c0ea-4d6a-a460-d5ef4a3391b9, _rev=00000000ae57f856, component.id=37, _id=org.forgerock.openidm.ui.context.59797a69-c0ea-4d6a-a460-d5ef4a3391b9}
[125] Jan 30, 2019 11:31:38.283 AM org.ops4j.pax.web.service.internal.HttpServiceFactoryImpl getService
INFORMATION: Binding bundle: [org.forgerock.openidm.api-servlet [234]] to http service
[125] Jan 30, 2019 11:31:38.285 AM org.forgerock.openidm.servlet.internal.ErrorServletComponent activate
INFORMATION: Registered servlet at /error
[125] Jan 30, 2019 11:31:38.301 AM org.ops4j.pax.web.service.internal.HttpServiceFactoryImpl getService
INFORMATION: Binding bundle: [org.apache.felix.webconsole [241]] to http service
[125] Jan 30, 2019 11:31:38.315 AM org.ops4j.pax.web.service.jetty.internal.HttpServiceContext <init>
INFORMATION: registering context org.apache.felix.webconsole.internal.servlet.OsgiManagerHttpContext@4523a077, with context-name: 
[125] Jan 30, 2019 11:31:38.330 AM org.eclipse.jetty.util.log.JavaUtilLog info
INFORMATION: Started HttpServiceContext{httpContext=org.apache.felix.webconsole.internal.servlet.OsgiManagerHttpContext@4523a077}
[125] Jan 30, 2019 11:31:38.334 AM org.ops4j.pax.web.service.internal.HttpServiceFactoryImpl getService
INFORMATION: Binding bundle: [org.forgerock.openidm.httpcontext [15]] to http service
[125] Jan 30, 2019 11:31:38.349 AM org.forgerock.openidm.http.ContextRegistrator activateSecurityConfigurators
INFORMATION: Activated security configurator org.forgerock.openidm.http.internal.JettySecurityConfigurator
[172] Jan 30, 2019 11:33:00.388 AM org.forgerock.openidm.router.filter.ScriptedFilter evaluateOnResponse
INFORMATION: Filter response: f35e47b8-ab8f-47e4-8078-4d1f72cc0e95-661.
[175] Jan 30, 2019 11:33:02.896 AM org.forgerock.openicf.connectors.groovy.ScriptedConfiguration evaluate
INFORMATION: Entering TEST Script
[174] Jan 30, 2019 11:33:06.101 AM org.forgerock.openicf.connectors.groovy.ScriptedConfiguration evaluate
INFORMATION: Entering TEST Script
[174] Jan 30, 2019 11:33:06.116 AM org.forgerock.openicf.connectors.groovy.ScriptedConfiguration evaluate
INFORMATION: Entering SCHEMA Script
[57] Jan 30, 2019 11:33:18.730 AM org.forgerock.api.transform.OpenApiTransformer addDefinitionReference
INFORMATION: Replacing schema definition with id: urn:jsonschema:org:forgerock:openidm:policy:api:PolicyParameterMap
[57] Jan 30, 2019 11:33:18.731 AM org.forgerock.api.transform.OpenApiTransformer addDefinitionReference
INFORMATION: Replacing schema definition with id: urn:jsonschema:org:forgerock:openidm:policy:api:PolicyParameterMap
[57] Jan 30, 2019 11:33:18.732 AM org.forgerock.api.transform.OpenApiTransformer addDefinitionReference
INFORMATION: Replacing schema definition with id: urn:jsonschema:org:forgerock:openidm:policy:api:PolicyParameterMap
[57] Jan 30, 2019 11:33:18.733 AM org.forgerock.api.transform.OpenApiTransformer addDefinitionReference
INFORMATION: Replacing schema definition with id: urn:jsonschema:org:forgerock:openidm:policy:api:PolicyParameterMap
[57] Jan 30, 2019 11:33:18.733 AM org.forgerock.api.transform.OpenApiTransformer addDefinitionReference
INFORMATION: Replacing schema definition with id: urn:jsonschema:org:forgerock:openidm:policy:api:PolicyParameterMap
[57] Jan 30, 2019 11:33:18.734 AM org.forgerock.api.transform.OpenApiTransformer addDefinitionReference
INFORMATION: Replacing schema definition with id: urn:jsonschema:org:forgerock:openidm:policy:api:PolicyParameterMap
[57] Jan 30, 2019 11:33:18.735 AM org.forgerock.api.transform.OpenApiTransformer addDefinitionReference
INFORMATION: Replacing schema definition with id: urn:jsonschema:org:forgerock:openidm:policy:api:PolicyParameterMap
[57] Jan 30, 2019 11:33:18.760 AM org.forgerock.api.transform.OpenApiTransformer addDefinitionReference
INFORMATION: Replacing schema definition with id: urn:jsonschema:org:forgerock:openidm:policy:api:PolicyParameterMap
[57] Jan 30, 2019 11:33:18.761 AM org.forgerock.api.transform.OpenApiTransformer addDefinitionReference
INFORMATION: Replacing schema definition with id: urn:jsonschema:org:forgerock:openidm:policy:api:PolicyParameterMap
[57] Jan 30, 2019 11:33:18.762 AM org.forgerock.api.transform.OpenApiTransformer addDefinitionReference
INFORMATION: Replacing schema definition with id: urn:jsonschema:org:forgerock:openidm:policy:api:PolicyParameterMap
[57] Jan 30, 2019 11:33:18.762 AM org.forgerock.api.transform.OpenApiTransformer addDefinitionReference
INFORMATION: Replacing schema definition with id: urn:jsonschema:org:forgerock:openidm:policy:api:PolicyParameterMap
[57] Jan 30, 2019 11:33:18.763 AM org.forgerock.api.transform.OpenApiTransformer addDefinitionReference
INFORMATION: Replacing schema definition with id: urn:jsonschema:org:forgerock:openidm:policy:api:PolicyParameterMap
[57] Jan 30, 2019 11:33:18.764 AM org.forgerock.api.transform.OpenApiTransformer addDefinitionReference
INFORMATION: Replacing schema definition with id: urn:jsonschema:org:forgerock:openidm:policy:api:PolicyParameterMap
[57] Jan 30, 2019 11:33:18.765 AM org.forgerock.api.transform.OpenApiTransformer addDefinitionReference
INFORMATION: Replacing schema definition with id: urn:jsonschema:org:forgerock:openidm:policy:api:PolicyParameterMap
[57] Jan 30, 2019 11:33:18.834 AM org.forgerock.api.transform.OpenApiTransformer addDefinitionReference
INFORMATION: Replacing schema definition with id: urn:jsonschema:org:forgerock:openidm:policy:api:PolicyParameterMap
[57] Jan 30, 2019 11:33:18.835 AM org.forgerock.api.transform.OpenApiTransformer addDefinitionReference
INFORMATION: Replacing schema definition with id: urn:jsonschema:org:forgerock:openidm:policy:api:PolicyParameterMap
[57] Jan 30, 2019 11:33:18.836 AM org.forgerock.api.transform.OpenApiTransformer addDefinitionReference
INFORMATION: Replacing schema definition with id: urn:jsonschema:org:forgerock:openidm:policy:api:PolicyParameterMap
[57] Jan 30, 2019 11:33:18.844 AM org.forgerock.api.transform.OpenApiTransformer addDefinitionReference
INFORMATION: Replacing schema definition with id: urn:jsonschema:org:forgerock:openidm:policy:api:PolicyParameterMap
[57] Jan 30, 2019 11:33:18.845 AM org.forgerock.api.transform.OpenApiTransformer addDefinitionReference
INFORMATION: Replacing schema definition with id: urn:jsonschema:org:forgerock:openidm:policy:api:PolicyParameterMap
[57] Jan 30, 2019 11:33:18.846 AM org.forgerock.api.transform.OpenApiTransformer addDefinitionReference
INFORMATION: Replacing schema definition with id: urn:jsonschema:org:forgerock:openidm:policy:api:PolicyParameterMap
[57] Jan 30, 2019 11:33:18.846 AM org.forgerock.api.transform.OpenApiTransformer addDefinitionReference
INFORMATION: Replacing schema definition with id: urn:jsonschema:org:forgerock:openidm:policy:api:PolicyParameterMap
[57] Jan 30, 2019 11:33:18.864 AM org.forgerock.api.transform.OpenApiTransformer addDefinitionReference
INFORMATION: Replacing schema definition with id: urn:jsonschema:org:forgerock:openidm:policy:api:PolicyParameterMap
[57] Jan 30, 2019 11:33:18.865 AM org.forgerock.api.transform.OpenApiTransformer addDefinitionReference
INFORMATION: Replacing schema definition with id: urn:jsonschema:org:forgerock:openidm:policy:api:PolicyParameterMap
[57] Jan 30, 2019 11:33:18.865 AM org.forgerock.api.transform.OpenApiTransformer addDefinitionReference
INFORMATION: Replacing schema definition with id: urn:jsonschema:org:forgerock:openidm:policy:api:PolicyParameterMap
[57] Jan 30, 2019 11:33:18.866 AM org.forgerock.api.transform.OpenApiTransformer addDefinitionReference
INFORMATION: Replacing schema definition with id: urn:jsonschema:org:forgerock:openidm:policy:api:PolicyParameterMap
[57] Jan 30, 2019 11:33:18.866 AM org.forgerock.api.transform.OpenApiTransformer addDefinitionReference
INFORMATION: Replacing schema definition with id: urn:jsonschema:org:forgerock:openidm:policy:api:PolicyParameterMap
[57] Jan 30, 2019 11:33:18.867 AM org.forgerock.api.transform.OpenApiTransformer addDefinitionReference
INFORMATION: Replacing schema definition with id: urn:jsonschema:org:forgerock:openidm:policy:api:PolicyParameterMap
[57] Jan 30, 2019 11:33:18.867 AM org.forgerock.api.transform.OpenApiTransformer addDefinitionReference
INFORMATION: Replacing schema definition with id: urn:jsonschema:org:forgerock:openidm:policy:api:PolicyParameterMap
[57] Jan 30, 2019 11:33:18.875 AM org.forgerock.openidm.provisioner.openicf.impl.OpenICFProvisionerService deactivate
INFORMATION: OpenICF Provisioner Service component APIGEE is deactivated.
[57] Jan 30, 2019 11:33:18.883 AM org.forgerock.openidm.provisioner.openicf.impl.OpenICFProvisionerService activate
INFORMATION: OpenICF Provisioner Service APIGEE is disabled, "enabled" set to false in configuration
[57] Jan 30, 2019 11:33:18.913 AM org.forgerock.openidm.config.installer.JSONConfigInstaller configurationEvent
INFORMATION: Updating configuration file: file:/Users/andorn/Repos/APIM/IdmDocker/openidm/conf/provisioner.openicf-APIGEE.json
[57] Jan 30, 2019 11:33:18.936 AM org.forgerock.openidm.provisioner.openicf.impl.OpenICFProvisionerService deactivate
INFORMATION: OpenICF Provisioner Service component APIGEE is deactivated.
[57] Jan 30, 2019 11:33:18.938 AM org.forgerock.openidm.provisioner.openicf.impl.OpenICFProvisionerService activate
INFORMATION: OpenICF Provisioner Service APIGEE is disabled, "enabled" set to false in configuration
[172] Jan 30, 2019 11:33:19.927 AM org.forgerock.openicf.connectors.groovy.ScriptedConfiguration evaluate
INFORMATION: Entering TEST Script
[172] Jan 30, 2019 11:33:19.933 AM org.forgerock.openicf.connectors.groovy.ScriptedConfiguration evaluate
INFORMATION: Entering SCHEMA Script
[57] Jan 30, 2019 11:33:20.007 AM org.forgerock.openidm.provisioner.openicf.impl.OpenICFProvisionerService deactivate
INFORMATION: OpenICF Provisioner Service component APIGEE is deactivated.
[57] Jan 30, 2019 11:33:20.049 AM org.forgerock.api.transform.OpenApiTransformer addDefinitionReference
INFORMATION: Replacing schema definition with id: urn:jsonschema:org:forgerock:openidm:policy:api:PolicyParameterMap
[57] Jan 30, 2019 11:33:20.050 AM org.forgerock.api.transform.OpenApiTransformer addDefinitionReference
INFORMATION: Replacing schema definition with id: urn:jsonschema:org:forgerock:openidm:policy:api:PolicyParameterMap
[57] Jan 30, 2019 11:33:20.050 AM org.forgerock.api.transform.OpenApiTransformer addDefinitionReference
INFORMATION: Replacing schema definition with id: urn:jsonschema:org:forgerock:openidm:policy:api:PolicyParameterMap
[57] Jan 30, 2019 11:33:20.051 AM org.forgerock.api.transform.OpenApiTransformer addDefinitionReference
INFORMATION: Replacing schema definition with id: urn:jsonschema:org:forgerock:openidm:policy:api:PolicyParameterMap
[57] Jan 30, 2019 11:33:20.051 AM org.forgerock.api.transform.OpenApiTransformer addDefinitionReference
INFORMATION: Replacing schema definition with id: urn:jsonschema:org:forgerock:openidm:policy:api:PolicyParameterMap
[57] Jan 30, 2019 11:33:20.052 AM org.forgerock.api.transform.OpenApiTransformer addDefinitionReference
INFORMATION: Replacing schema definition with id: urn:jsonschema:org:forgerock:openidm:policy:api:PolicyParameterMap
[57] Jan 30, 2019 11:33:20.052 AM org.forgerock.api.transform.OpenApiTransformer addDefinitionReference
INFORMATION: Replacing schema definition with id: urn:jsonschema:org:forgerock:openidm:policy:api:PolicyParameterMap
[57] Jan 30, 2019 11:33:20.066 AM org.forgerock.api.transform.OpenApiTransformer addDefinitionReference
INFORMATION: Replacing schema definition with id: urn:jsonschema:org:forgerock:openidm:policy:api:PolicyParameterMap
[57] Jan 30, 2019 11:33:20.066 AM org.forgerock.api.transform.OpenApiTransformer addDefinitionReference
INFORMATION: Replacing schema definition with id: urn:jsonschema:org:forgerock:openidm:policy:api:PolicyParameterMap
[57] Jan 30, 2019 11:33:20.067 AM org.forgerock.api.transform.OpenApiTransformer addDefinitionReference
INFORMATION: Replacing schema definition with id: urn:jsonschema:org:forgerock:openidm:policy:api:PolicyParameterMap
[57] Jan 30, 2019 11:33:20.067 AM org.forgerock.api.transform.OpenApiTransformer addDefinitionReference
INFORMATION: Replacing schema definition with id: urn:jsonschema:org:forgerock:openidm:policy:api:PolicyParameterMap
[57] Jan 30, 2019 11:33:20.068 AM org.forgerock.api.transform.OpenApiTransformer addDefinitionReference
INFORMATION: Replacing schema definition with id: urn:jsonschema:org:forgerock:openidm:policy:api:PolicyParameterMap
[57] Jan 30, 2019 11:33:20.068 AM org.forgerock.api.transform.OpenApiTransformer addDefinitionReference
INFORMATION: Replacing schema definition with id: urn:jsonschema:org:forgerock:openidm:policy:api:PolicyParameterMap
[57] Jan 30, 2019 11:33:20.069 AM org.forgerock.api.transform.OpenApiTransformer addDefinitionReference
INFORMATION: Replacing schema definition with id: urn:jsonschema:org:forgerock:openidm:policy:api:PolicyParameterMap
[57] Jan 30, 2019 11:33:22.189 AM org.forgerock.openicf.connectors.groovy.ScriptedConfiguration evaluate
INFORMATION: Entering TEST Script
[57] Jan 30, 2019 11:33:22.229 AM org.forgerock.api.transform.OpenApiTransformer addDefinitionReference
INFORMATION: Replacing schema definition with id: urn:jsonschema:org:forgerock:openidm:policy:api:PolicyParameterMap
[57] Jan 30, 2019 11:33:22.230 AM org.forgerock.api.transform.OpenApiTransformer addDefinitionReference
INFORMATION: Replacing schema definition with id: urn:jsonschema:org:forgerock:openidm:policy:api:PolicyParameterMap
[57] Jan 30, 2019 11:33:22.230 AM org.forgerock.api.transform.OpenApiTransformer addDefinitionReference
INFORMATION: Replacing schema definition with id: urn:jsonschema:org:forgerock:openidm:policy:api:PolicyParameterMap
[57] Jan 30, 2019 11:33:22.231 AM org.forgerock.api.transform.OpenApiTransformer addDefinitionReference
INFORMATION: Replacing schema definition with id: urn:jsonschema:org:forgerock:openidm:policy:api:PolicyParameterMap
[57] Jan 30, 2019 11:33:22.231 AM org.forgerock.api.transform.OpenApiTransformer addDefinitionReference
INFORMATION: Replacing schema definition with id: urn:jsonschema:org:forgerock:openidm:policy:api:PolicyParameterMap
[57] Jan 30, 2019 11:33:22.232 AM org.forgerock.api.transform.OpenApiTransformer addDefinitionReference
INFORMATION: Replacing schema definition with id: urn:jsonschema:org:forgerock:openidm:policy:api:PolicyParameterMap
[57] Jan 30, 2019 11:33:22.233 AM org.forgerock.api.transform.OpenApiTransformer addDefinitionReference
INFORMATION: Replacing schema definition with id: urn:jsonschema:org:forgerock:openidm:policy:api:PolicyParameterMap
[57] Jan 30, 2019 11:33:22.252 AM org.forgerock.api.transform.OpenApiTransformer addDefinitionReference
INFORMATION: Replacing schema definition with id: urn:jsonschema:org:forgerock:openidm:policy:api:PolicyParameterMap
[57] Jan 30, 2019 11:33:22.253 AM org.forgerock.api.transform.OpenApiTransformer addDefinitionReference
INFORMATION: Replacing schema definition with id: urn:jsonschema:org:forgerock:openidm:policy:api:PolicyParameterMap
[57] Jan 30, 2019 11:33:22.253 AM org.forgerock.api.transform.OpenApiTransformer addDefinitionReference
INFORMATION: Replacing schema definition with id: urn:jsonschema:org:forgerock:openidm:policy:api:PolicyParameterMap
[57] Jan 30, 2019 11:33:22.254 AM org.forgerock.api.transform.OpenApiTransformer addDefinitionReference
INFORMATION: Replacing schema definition with id: urn:jsonschema:org:forgerock:openidm:policy:api:PolicyParameterMap
[57] Jan 30, 2019 11:33:22.254 AM org.forgerock.api.transform.OpenApiTransformer addDefinitionReference
INFORMATION: Replacing schema definition with id: urn:jsonschema:org:forgerock:openidm:policy:api:PolicyParameterMap
[57] Jan 30, 2019 11:33:22.255 AM org.forgerock.api.transform.OpenApiTransformer addDefinitionReference
INFORMATION: Replacing schema definition with id: urn:jsonschema:org:forgerock:openidm:policy:api:PolicyParameterMap
[57] Jan 30, 2019 11:33:22.255 AM org.forgerock.api.transform.OpenApiTransformer addDefinitionReference
INFORMATION: Replacing schema definition with id: urn:jsonschema:org:forgerock:openidm:policy:api:PolicyParameterMap
[57] Jan 30, 2019 11:33:22.273 AM org.forgerock.openidm.provisioner.openicf.impl.OpenICFProvisionerService lambda$activate$0
INFORMATION: OpenICF Provisioner Service component APIGEE is activated.
[57] Jan 30, 2019 11:33:22.300 AM org.forgerock.openidm.config.installer.JSONConfigInstaller configurationEvent
INFORMATION: Updating configuration file: file:/Users/andorn/Repos/APIM/IdmDocker/openidm/conf/provisioner.openicf-APIGEE.json
[172] Jan 30, 2019 11:33:24.722 AM org.forgerock.openicf.connectors.groovy.ScriptedConfiguration evaluate
INFORMATION: Entering TEST Script
[172] Jan 30, 2019 11:33:24.726 AM org.forgerock.openicf.connectors.groovy.ScriptedConfiguration evaluate
INFORMATION: Entering SCHEMA Script
[176] Jan 30, 2019 11:33:24.806 AM org.forgerock.openicf.connectors.groovy.ScriptedConfiguration evaluate
INFORMATION: Entering TEST Script
[174] Jan 30, 2019 11:33:24.815 AM org.forgerock.openicf.connectors.groovy.ScriptedConfiguration evaluate
INFORMATION: Entering TEST Script
[175] Jan 30, 2019 11:33:24.880 AM org.forgerock.openicf.connectors.groovy.ScriptedConfiguration evaluate
INFORMATION: Entering TEST Script
[176] Jan 30, 2019 11:33:24.881 AM org.forgerock.openicf.connectors.groovy.ScriptedConfiguration evaluate
INFORMATION: Entering TEST Script
[175] Jan 30, 2019 11:33:24.954 AM org.forgerock.openicf.connectors.groovy.ScriptedConfiguration evaluate
INFORMATION: Entering TEST Script
[176] Jan 30, 2019 11:33:24.956 AM org.forgerock.openicf.connectors.groovy.ScriptedConfiguration evaluate
INFORMATION: Entering TEST Script
[177] Jan 30, 2019 11:33:24.960 AM org.forgerock.openicf.connectors.groovy.ScriptedConfiguration evaluate
INFORMATION: Entering SEARCH Script
[179] Jan 30, 2019 11:33:24.962 AM org.forgerock.openicf.connectors.groovy.ScriptedConfiguration evaluate
INFORMATION: Entering SEARCH Script
[176] Jan 30, 2019 11:35:54.933 AM org.forgerock.openidm.router.filter.ScriptedFilter evaluateOnResponse
INFORMATION: Filter response: f35e47b8-ab8f-47e4-8078-4d1f72cc0e95-1649.
[180] Jan 30, 2019 11:36:13.713 AM org.forgerock.openidm.router.filter.ScriptedFilter evaluateOnResponse
INFORMATION: Filter response: f35e47b8-ab8f-47e4-8078-4d1f72cc0e95-1751.
[174] Jan 30, 2019 11:36:13.794 AM org.forgerock.openidm.router.filter.ScriptedFilter evaluateOnResponse
INFORMATION: Filter response: f35e47b8-ab8f-47e4-8078-4d1f72cc0e95-1766.
[176] Jan 30, 2019 11:36:51.883 AM org.forgerock.openicf.connectors.groovy.ScriptedConfiguration evaluate
INFORMATION: Entering TEST Script
[57] Jan 30, 2019 11:36:51.945 AM org.forgerock.openidm.config.installer.JSONConfigInstaller configurationEvent
INFORMATION: Updating configuration file: file:/Users/andorn/Repos/APIM/IdmDocker/openidm/conf/sync.json
[57] Jan 30, 2019 11:38:10.221 AM org.forgerock.openidm.sync.LinkType$Match getLinkTypeMatch
INFORMATION: Mapping managedApigeeproduct_systemApigeeApiproduct defines links named managedApigeeproduct_systemApigeeApiproduct.
[57] Jan 30, 2019 11:38:10.264 AM org.forgerock.openidm.config.installer.JSONConfigInstaller configurationEvent
INFORMATION: Updating configuration file: file:/Users/andorn/Repos/APIM/IdmDocker/openidm/conf/sync.json
[181] Jan 30, 2019 11:38:10.425 AM org.forgerock.openidm.router.filter.ScriptedFilter evaluateOnResponse
INFORMATION: Filter response: f35e47b8-ab8f-47e4-8078-4d1f72cc0e95-2402.
[57] Jan 30, 2019 11:38:22.019 AM org.forgerock.openidm.sync.LinkType$Match getLinkTypeMatch
INFORMATION: Mapping managedApigeeproduct_systemApigeeApiproduct defines links named managedApigeeproduct_systemApigeeApiproduct.
[57] Jan 30, 2019 11:38:22.049 AM org.forgerock.openidm.config.installer.JSONConfigInstaller configurationEvent
INFORMATION: Updating configuration file: file:/Users/andorn/Repos/APIM/IdmDocker/openidm/conf/sync.json
[176] Jan 30, 2019 11:38:22.054 AM org.forgerock.openidm.router.filter.ScriptedFilter evaluateOnResponse
INFORMATION: Filter response: f35e47b8-ab8f-47e4-8078-4d1f72cc0e95-2503.
[57] Jan 30, 2019 11:38:40.186 AM org.forgerock.openidm.sync.LinkType$Match getLinkTypeMatch
INFORMATION: Mapping managedApigeeproduct_systemApigeeApiproduct defines links named managedApigeeproduct_systemApigeeApiproduct.
[182] Jan 30, 2019 11:38:40.225 AM org.forgerock.openidm.router.filter.ScriptedFilter evaluateOnResponse
INFORMATION: Filter response: f35e47b8-ab8f-47e4-8078-4d1f72cc0e95-2606.
[57] Jan 30, 2019 11:38:40.231 AM org.forgerock.openidm.config.installer.JSONConfigInstaller configurationEvent
INFORMATION: Updating configuration file: file:/Users/andorn/Repos/APIM/IdmDocker/openidm/conf/sync.json
[57] Jan 30, 2019 11:38:48.906 AM org.forgerock.openidm.sync.LinkType$Match getLinkTypeMatch
INFORMATION: Mapping managedApigeeproduct_systemApigeeApiproduct defines links named managedApigeeproduct_systemApigeeApiproduct.
[57] Jan 30, 2019 11:38:48.929 AM org.forgerock.openidm.config.installer.JSONConfigInstaller configurationEvent
INFORMATION: Updating configuration file: file:/Users/andorn/Repos/APIM/IdmDocker/openidm/conf/sync.json
[176] Jan 30, 2019 11:38:48.940 AM org.forgerock.openidm.router.filter.ScriptedFilter evaluateOnResponse
INFORMATION: Filter response: f35e47b8-ab8f-47e4-8078-4d1f72cc0e95-2683.
[57] Jan 30, 2019 11:38:52.455 AM org.forgerock.openidm.sync.LinkType$Match getLinkTypeMatch
INFORMATION: Mapping managedApigeeproduct_systemApigeeApiproduct defines links named managedApigeeproduct_systemApigeeApiproduct.
[57] Jan 30, 2019 11:38:52.475 AM org.forgerock.openidm.config.installer.JSONConfigInstaller configurationEvent
INFORMATION: Updating configuration file: file:/Users/andorn/Repos/APIM/IdmDocker/openidm/conf/sync.json
[172] Jan 30, 2019 11:38:52.483 AM org.forgerock.openidm.router.filter.ScriptedFilter evaluateOnResponse
INFORMATION: Filter response: f35e47b8-ab8f-47e4-8078-4d1f72cc0e95-2738.
[57] Jan 30, 2019 11:38:59.039 AM org.forgerock.openidm.sync.LinkType$Match getLinkTypeMatch
INFORMATION: Mapping managedApigeeproduct_systemApigeeApiproduct defines links named managedApigeeproduct_systemApigeeApiproduct.
[57] Jan 30, 2019 11:38:59.064 AM org.forgerock.openidm.config.installer.JSONConfigInstaller configurationEvent
INFORMATION: Updating configuration file: file:/Users/andorn/Repos/APIM/IdmDocker/openidm/conf/sync.json
[181] Jan 30, 2019 11:38:59.074 AM org.forgerock.openidm.router.filter.ScriptedFilter evaluateOnResponse
INFORMATION: Filter response: f35e47b8-ab8f-47e4-8078-4d1f72cc0e95-2793.
[57] Jan 30, 2019 11:39:02.901 AM org.forgerock.openidm.sync.LinkType$Match getLinkTypeMatch
INFORMATION: Mapping managedApigeeproduct_systemApigeeApiproduct defines links named managedApigeeproduct_systemApigeeApiproduct.
[57] Jan 30, 2019 11:39:02.921 AM org.forgerock.openidm.config.installer.JSONConfigInstaller configurationEvent
INFORMATION: Updating configuration file: file:/Users/andorn/Repos/APIM/IdmDocker/openidm/conf/sync.json
[180] Jan 30, 2019 11:39:02.927 AM org.forgerock.openidm.router.filter.ScriptedFilter evaluateOnResponse
INFORMATION: Filter response: f35e47b8-ab8f-47e4-8078-4d1f72cc0e95-2848.
[57] Jan 30, 2019 11:39:09.777 AM org.forgerock.openidm.sync.LinkType$Match getLinkTypeMatch
INFORMATION: Mapping managedApigeeproduct_systemApigeeApiproduct defines links named managedApigeeproduct_systemApigeeApiproduct.
[57] Jan 30, 2019 11:39:09.803 AM org.forgerock.openidm.config.installer.JSONConfigInstaller configurationEvent
INFORMATION: Updating configuration file: file:/Users/andorn/Repos/APIM/IdmDocker/openidm/conf/sync.json
[181] Jan 30, 2019 11:39:09.810 AM org.forgerock.openidm.router.filter.ScriptedFilter evaluateOnResponse
INFORMATION: Filter response: f35e47b8-ab8f-47e4-8078-4d1f72cc0e95-2907.
[57] Jan 30, 2019 11:39:13.356 AM org.forgerock.openidm.sync.LinkType$Match getLinkTypeMatch
INFORMATION: Mapping managedApigeeproduct_systemApigeeApiproduct defines links named managedApigeeproduct_systemApigeeApiproduct.
[57] Jan 30, 2019 11:39:13.390 AM org.forgerock.openidm.config.installer.JSONConfigInstaller configurationEvent
INFORMATION: Updating configuration file: file:/Users/andorn/Repos/APIM/IdmDocker/openidm/conf/sync.json
[180] Jan 30, 2019 11:39:13.394 AM org.forgerock.openidm.router.filter.ScriptedFilter evaluateOnResponse
INFORMATION: Filter response: f35e47b8-ab8f-47e4-8078-4d1f72cc0e95-2962.
[57] Jan 30, 2019 11:39:21.428 AM org.forgerock.openidm.sync.LinkType$Match getLinkTypeMatch
INFORMATION: Mapping managedApigeeproduct_systemApigeeApiproduct defines links named managedApigeeproduct_systemApigeeApiproduct.
[57] Jan 30, 2019 11:39:21.449 AM org.forgerock.openidm.config.installer.JSONConfigInstaller configurationEvent
INFORMATION: Updating configuration file: file:/Users/andorn/Repos/APIM/IdmDocker/openidm/conf/sync.json
[181] Jan 30, 2019 11:39:21.455 AM org.forgerock.openidm.router.filter.ScriptedFilter evaluateOnResponse
INFORMATION: Filter response: f35e47b8-ab8f-47e4-8078-4d1f72cc0e95-3035.
[57] Jan 30, 2019 11:39:24.586 AM org.forgerock.openidm.sync.LinkType$Match getLinkTypeMatch
INFORMATION: Mapping managedApigeeproduct_systemApigeeApiproduct defines links named managedApigeeproduct_systemApigeeApiproduct.
[57] Jan 30, 2019 11:39:24.608 AM org.forgerock.openidm.config.installer.JSONConfigInstaller configurationEvent
INFORMATION: Updating configuration file: file:/Users/andorn/Repos/APIM/IdmDocker/openidm/conf/sync.json
[180] Jan 30, 2019 11:39:24.616 AM org.forgerock.openidm.router.filter.ScriptedFilter evaluateOnResponse
INFORMATION: Filter response: f35e47b8-ab8f-47e4-8078-4d1f72cc0e95-3072.
[57] Jan 30, 2019 11:39:31.068 AM org.forgerock.openidm.sync.LinkType$Match getLinkTypeMatch
INFORMATION: Mapping managedApigeeproduct_systemApigeeApiproduct defines links named managedApigeeproduct_systemApigeeApiproduct.
[57] Jan 30, 2019 11:39:31.100 AM org.forgerock.openidm.config.installer.JSONConfigInstaller configurationEvent
INFORMATION: Updating configuration file: file:/Users/andorn/Repos/APIM/IdmDocker/openidm/conf/sync.json
[181] Jan 30, 2019 11:39:31.106 AM org.forgerock.openidm.router.filter.ScriptedFilter evaluateOnResponse
INFORMATION: Filter response: f35e47b8-ab8f-47e4-8078-4d1f72cc0e95-3131.
[57] Jan 30, 2019 11:39:47.410 AM org.forgerock.openidm.sync.LinkType$Match getLinkTypeMatch
INFORMATION: Mapping managedApigeeproduct_systemApigeeApiproduct defines links named managedApigeeproduct_systemApigeeApiproduct.
[57] Jan 30, 2019 11:39:47.436 AM org.forgerock.openidm.config.installer.JSONConfigInstaller configurationEvent
INFORMATION: Updating configuration file: file:/Users/andorn/Repos/APIM/IdmDocker/openidm/conf/sync.json
[184] Jan 30, 2019 11:39:56.488 AM org.forgerock.openidm.router.filter.ScriptedFilter evaluateOnResponse
INFORMATION: Filter response: f35e47b8-ab8f-47e4-8078-4d1f72cc0e95-3304.
[185] Jan 30, 2019 11:40:16.072 AM org.forgerock.openicf.connectors.groovy.ScriptedConfiguration evaluate
INFORMATION: Entering CREATE Script
[185] Jan 30, 2019 11:40:16.073 AM org.forgerock.openicf.connectors.groovy.ScriptedConfiguration evaluate
INFORMATION: Creating: Test
[185] Jan 30, 2019 11:40:17.680 AM org.forgerock.openicf.connectors.groovy.ScriptedConfiguration evaluate
INFORMATION: Entering SEARCH Script
[185] Jan 30, 2019 11:40:18.354 AM org.forgerock.openidm.router.filter.ScriptedFilter evaluateOnResponse
INFORMATION: Filter response: f35e47b8-ab8f-47e4-8078-4d1f72cc0e95-3388.
[172] Jan 30, 2019 11:40:18.434 AM org.forgerock.openidm.router.filter.ScriptedFilter evaluateOnResponse
INFORMATION: Filter response: f35e47b8-ab8f-47e4-8078-4d1f72cc0e95-3427.
[180] Jan 30, 2019 11:40:18.533 AM org.forgerock.openicf.connectors.groovy.ScriptedConfiguration evaluate
INFORMATION: Entering SEARCH Script
[184] Jan 30, 2019 11:40:19.275 AM org.forgerock.openicf.connectors.groovy.ScriptedConfiguration evaluate
INFORMATION: Entering TEST Script
