[19] Jan 30, 2019 11:31:16.651 AM org.forgerock.openidm.config.persistence.Activator start
INFORMATION: OpenIDM is starting from /Users/andorn/Repos/APIM/IdmDocker/openidm
[19] Jan 30, 2019 11:31:17.240 AM org.forgerock.openidm.datasource.jdbc.Activator start
INFORMATION: Registered DataSourceServiceFactory service
[19] Jan 30, 2019 11:31:17.242 AM org.forgerock.openidm.datasource.jdbc.Activator start
INFORMATION: Registered DataSourceServicePool service
[19] Jan 30, 2019 11:31:17.288 AM org.forgerock.openidm.config.persistence.ConfigBootstrapHelper getBootConfig
INFORMATION: Bootstrapping with settings from configuration file /Users/andorn/Repos/APIM/IdmDocker/openidm/conf/repo.ds.json
[19] Jan 30, 2019 11:31:17.289 AM org.forgerock.openidm.repo.opendj.impl.Activator start
INFORMATION: DS bundle starting
[19] Jan 30, 2019 11:31:17.291 AM org.forgerock.openidm.repo.opendj.impl.Activator initializeEmbeddedServer
INFORMATION: Starting embedded DS instance
[19] Jan 30, 2019 11:31:19.099 AM org.forgerock.openidm.repo.opendj.impl.Activator setupEmbeddedServer
INFORMATION: Starting embedded DS
[19] Jan 30, 2019 11:31:20.232 AM org.forgerock.audit.handlers.json.JsonFileWriter parseWriteInterval
INFORMATION: writeInterval 'null' is invalid, so falling back to 100 MILLISECONDS
[19] Jan 30, 2019 11:31:20.300 AM org.forgerock.audit.handlers.json.JsonFileWriter parseWriteInterval
INFORMATION: writeInterval 'null' is invalid, so falling back to 100 MILLISECONDS
[19] Jan 30, 2019 11:31:20.329 AM org.forgerock.i18n.slf4j.LocalizedLogger info
INFORMATION: ForgeRock Directory Services 6.5.0 (build 20181128095826, revision number e2a029a050cc6908fd144a6ca9c687e01ad56ea3) starting up
[19] Jan 30, 2019 11:31:20.331 AM org.forgerock.i18n.slf4j.LocalizedLogger info
INFORMATION: Installation Directory:  /Users/andorn/Repos/APIM/IdmDocker/openidm/db/openidm/opendj
[19] Jan 30, 2019 11:31:20.331 AM org.forgerock.i18n.slf4j.LocalizedLogger info
INFORMATION: Instance Directory:      /Users/andorn/Repos/APIM/IdmDocker/openidm/db/openidm/opendj
[19] Jan 30, 2019 11:31:20.332 AM org.forgerock.i18n.slf4j.LocalizedLogger info
INFORMATION: JVM Information: 1.8.0_152-b16 by Oracle Corporation, 64-bit architecture, 1029177344 bytes heap size
[19] Jan 30, 2019 11:31:20.467 AM org.forgerock.i18n.slf4j.LocalizedLogger info
INFORMATION: JVM Host: 192.168.99.1, running Mac OS X 10.14.2 x86_64, 17179869184 bytes physical memory size, number of processors available 8
[19] Jan 30, 2019 11:31:20.468 AM org.forgerock.i18n.slf4j.LocalizedLogger info
INFORMATION: JVM Arguments: "-Djava.util.logging.config.file=/Users/andorn/Repos/APIM/IdmDocker/openidm/conf/logging.properties", "-XX:+IgnoreUnrecognizedVMOptions", "--add-opens=java.base/jdk.internal.loader=ALL-UNNAMED", "-Xmx1024m", "-Xms1024m", "-Djava.endorsed.dirs=", "-Dopenidm.system.server.root=/Users/andorn/Repos/APIM/IdmDocker/openidm", "-Djava.awt.headless=true", "-Djava.security.properties=/Users/andorn/Repos/APIM/IdmDocker/openidm/conf/java.security"
[19] Jan 30, 2019 11:31:22.397 AM org.forgerock.i18n.slf4j.LocalizedLogger info
INFORMATION: The database backend idmRepo containing 104 entries has started
[19] Jan 30, 2019 11:31:22.588 AM org.forgerock.i18n.slf4j.LocalizedLogger info
INFORMATION: DIGEST-MD5 SASL mechanism using a server fully qualified domain name of: localhost
[19] Jan 30, 2019 11:31:24.003 AM org.forgerock.i18n.slf4j.LocalizedLogger info
INFORMATION: Started listening for new connections on Administration Connector 0.0.0.0 port 34444
[19] Jan 30, 2019 11:31:24.005 AM org.forgerock.i18n.slf4j.LocalizedLogger info
INFORMATION: Started listening for new connections on LDAP 0.0.0.0 port 31389
[19] Jan 30, 2019 11:31:24.008 AM org.forgerock.i18n.slf4j.LocalizedLogger info
INFORMATION: The Directory Server has started successfully
[19] Jan 30, 2019 11:31:24.010 AM org.forgerock.i18n.slf4j.LocalizedLogger info
INFORMATION: The Directory Server has sent an alert notification generated by class org.opends.server.core.DirectoryServer (alert type org.opends.server.DirectoryServerStarted, alert ID org.opends.messages.core-135): The Directory Server has started successfully
