[19] Jan 30, 2019 11:18:43.111 AM org.forgerock.openidm.repo.opendj.impl.Activator start
INFORMATION: Registered bootstrap repository service
[19] Jan 30, 2019 11:18:43.112 AM org.forgerock.openidm.repo.opendj.impl.Activator start
INFORMATION: DS bundle started
[19] Jan 30, 2019 11:18:46.013 AM org.forgerock.openidm.config.persistence.ConfigInstallStarter activate
INFORMATION: Services ready to handle config install.
[56] Jan 30, 2019 11:18:46.016 AM org.forgerock.openidm.config.installer.JSONConfigInstaller getConfigurationAdmin
INFORMATION: ConfigAdmin service detected by JSON configuration listener
[19] Jan 30, 2019 11:18:46.017 AM org.forgerock.openidm.config.persistence.ConfigBootstrapHelper installAllConfig
INFORMATION: Configuration from file enabled
[55] Jan 30, 2019 11:18:46.038 AM org.forgerock.openidm.config.installer.JSONConfigInstaller parsePid
INFORMATION: Configuring service PID org.forgerock.openidm.ui.context factory PID api
[55] Jan 30, 2019 11:18:46.330 AM org.forgerock.openidm.config.installer.JSONConfigInstaller parsePid
INFORMATION: Configuring service PID org.forgerock.openidm.endpoint factory PID removeRepoPathFromRelationships
[55] Jan 30, 2019 11:18:46.331 AM org.forgerock.openidm.config.installer.JSONConfigInstaller parsePid
INFORMATION: Configuring service PID org.forgerock.openidm.endpoint factory PID reconResults
[55] Jan 30, 2019 11:18:46.337 AM org.forgerock.openidm.config.installer.JSONConfigInstaller parsePid
INFORMATION: Configuring service PID org.forgerock.openidm.process factory PID access
[55] Jan 30, 2019 11:18:46.340 AM org.forgerock.openidm.config.installer.JSONConfigInstaller parsePid
INFORMATION: Configuring service PID org.forgerock.openidm.ui.context factory PID enduser
[55] Jan 30, 2019 11:18:46.342 AM org.forgerock.openidm.config.installer.JSONConfigInstaller parsePid
INFORMATION: Configuring service PID org.forgerock.openidm.notification factory PID profileUpdate
[55] Jan 30, 2019 11:18:46.348 AM org.forgerock.openidm.config.installer.JSONConfigInstaller parsePid
INFORMATION: Configuring service PID org.forgerock.openidm.servletfilter factory PID cors
[19] Jan 30, 2019 11:18:46.355 AM org.forgerock.openidm.idp.IdentityProviderService activate
INFORMATION: OpenIDM Identity Provider Service is activated.
[55] Jan 30, 2019 11:18:46.356 AM org.forgerock.openidm.config.installer.JSONConfigInstaller parsePid
INFORMATION: Configuring service PID org.forgerock.openidm.ui factory PID dashboard
[55] Jan 30, 2019 11:18:46.358 AM org.forgerock.openidm.config.installer.JSONConfigInstaller parsePid
INFORMATION: Configuring service PID org.forgerock.openidm.endpoint factory PID updateInternalUserAndInternalRoleEntries
[55] Jan 30, 2019 11:18:46.359 AM org.forgerock.openidm.config.installer.JSONConfigInstaller parsePid
INFORMATION: Configuring service PID org.forgerock.openidm.servletfilter factory PID gzip
[55] Jan 30, 2019 11:18:46.361 AM org.forgerock.openidm.config.installer.JSONConfigInstaller parsePid
INFORMATION: Configuring service PID org.forgerock.openidm.ui factory PID configuration
[55] Jan 30, 2019 11:18:46.362 AM org.forgerock.openidm.config.installer.JSONConfigInstaller parsePid
INFORMATION: Configuring service PID org.forgerock.openidm.ui factory PID profile
[55] Jan 30, 2019 11:18:46.365 AM org.forgerock.openidm.config.installer.JSONConfigInstaller parsePid
INFORMATION: Configuring service PID org.forgerock.openidm.emailTemplate factory PID welcome
[55] Jan 30, 2019 11:18:46.366 AM org.forgerock.openidm.config.installer.JSONConfigInstaller parsePid
INFORMATION: Configuring service PID org.forgerock.openidm.notification factory PID passwordUpdate
[55] Jan 30, 2019 11:18:46.368 AM org.forgerock.openidm.config.installer.JSONConfigInstaller parsePid
INFORMATION: Configuring service PID org.forgerock.openidm.endpoint factory PID mappingDetails
[55] Jan 30, 2019 11:18:46.369 AM org.forgerock.openidm.config.installer.JSONConfigInstaller parsePid
INFORMATION: Configuring service PID org.forgerock.openidm.endpoint factory PID getprocessesforuser
[55] Jan 30, 2019 11:18:46.370 AM org.forgerock.openidm.config.installer.JSONConfigInstaller parsePid
INFORMATION: Configuring service PID org.forgerock.openidm.ui.context factory PID oauth
[55] Jan 30, 2019 11:18:46.371 AM org.forgerock.openidm.config.installer.JSONConfigInstaller parsePid
INFORMATION: Configuring service PID org.forgerock.openidm.ui.context factory PID admin
[55] Jan 30, 2019 11:18:46.373 AM org.forgerock.openidm.config.installer.JSONConfigInstaller parsePid
INFORMATION: Configuring service PID org.forgerock.openidm.endpoint factory PID oauthproxy
[55] Jan 30, 2019 11:18:46.375 AM org.forgerock.openidm.config.installer.JSONConfigInstaller parsePid
INFORMATION: Configuring service PID org.forgerock.openidm.endpoint factory PID linkedView
[55] Jan 30, 2019 11:18:46.376 AM org.forgerock.openidm.config.installer.JSONConfigInstaller parsePid
INFORMATION: Configuring service PID org.forgerock.openidm.endpoint factory PID repairMetadata
[55] Jan 30, 2019 11:18:46.378 AM org.forgerock.openidm.config.installer.JSONConfigInstaller parsePid
INFORMATION: Configuring service PID org.forgerock.openidm.endpoint factory PID getavailableuserstoassign
[55] Jan 30, 2019 11:18:46.379 AM org.forgerock.openidm.config.installer.JSONConfigInstaller parsePid
INFORMATION: Configuring service PID org.forgerock.openidm.provisioner.openicf factory PID APIGEE
[55] Jan 30, 2019 11:18:46.388 AM org.forgerock.openidm.config.installer.JSONConfigInstaller parsePid
INFORMATION: Configuring service PID org.forgerock.openidm.ui factory PID themeconfig
[55] Jan 30, 2019 11:18:46.391 AM org.forgerock.openidm.config.installer.JSONConfigInstaller parsePid
INFORMATION: Configuring service PID org.forgerock.openidm.endpoint factory PID gettasksview
[19] Jan 30, 2019 11:18:46.584 AM org.apache.aries.blueprint.container.BlueprintExtender start
INFORMATION: No quiesce support is available, so blueprint components will not participate in quiesce operations
[19] Jan 30, 2019 11:18:46.801 AM org.forgerock.openidm.external.rest.RestService activate
INFORMATION: External REST connectivity started.
[19] Jan 30, 2019 11:18:48.254 AM org.forgerock.openidm.provisioner.openicf.impl.ConnectorInfoProviderService activate
INFORMATION: ConnectorInfoProviderService with OpenICF Version[1.5] is activated.
[19] Jan 30, 2019 11:18:48.334 AM org.forgerock.openidm.maintenance.impl.MaintenanceService activate
INFORMATION: Maintenance service started.
[19] Jan 30, 2019 11:18:48.371 AM org.forgerock.openidm.servlet.internal.ServletConnectionFactory activate
INFORMATION: Servlet ConnectionFactory created.
[19] Jan 30, 2019 11:18:48.384 AM org.forgerock.openidm.router.impl.JsonResourceRouterService activate
INFORMATION: IDMConnectionFactory service activated.
[19] Jan 30, 2019 11:18:48.470 AM org.forgerock.openidm.script.impl.ScriptRegistryService bindCryptoService
INFORMATION: Crypto functions are enabled
[19] Jan 30, 2019 11:18:48.477 AM org.forgerock.openidm.script.impl.ScriptRegistryService setConnectionFactory
INFORMATION: Resource functions are enabled
[19] Jan 30, 2019 11:18:48.483 AM org.forgerock.openidm.script.impl.ScriptRegistryService activate
INFORMATION: OpenIDM Script Service component is activated.
[19] Jan 30, 2019 11:18:49.105 AM org.forgerock.openidm.customendpoint.impl.EndpointsService activate
INFORMATION: OpenIDM Endpoints Service "oauthproxy" component is activated.
[19] Jan 30, 2019 11:18:49.113 AM org.forgerock.openidm.customendpoint.impl.EndpointsService activate
INFORMATION: OpenIDM Endpoints Service "repairMetadata" component is activated.
[19] Jan 30, 2019 11:18:49.120 AM org.forgerock.openidm.customendpoint.impl.EndpointsService activate
INFORMATION: OpenIDM Endpoints Service "getavailableuserstoassign" component is activated.
[19] Jan 30, 2019 11:18:49.127 AM org.forgerock.openidm.customendpoint.impl.EndpointsService activate
INFORMATION: OpenIDM Endpoints Service "gettasksview" component is activated.
[19] Jan 30, 2019 11:18:49.133 AM org.forgerock.openidm.customendpoint.impl.EndpointsService activate
INFORMATION: OpenIDM Endpoints Service "updateInternalUserAndInternalRoleEntries" component is activated.
[19] Jan 30, 2019 11:18:49.138 AM org.forgerock.openidm.customendpoint.impl.EndpointsService activate
INFORMATION: OpenIDM Endpoints Service "removeRepoPathFromRelationships" component is activated.
[19] Jan 30, 2019 11:18:49.146 AM org.forgerock.openidm.customendpoint.impl.EndpointsService activate
INFORMATION: OpenIDM Endpoints Service "reconResults" component is activated.
[19] Jan 30, 2019 11:18:49.151 AM org.forgerock.openidm.customendpoint.impl.EndpointsService activate
INFORMATION: OpenIDM Endpoints Service "mappingDetails" component is activated.
[19] Jan 30, 2019 11:18:49.154 AM org.forgerock.openidm.customendpoint.impl.EndpointsService activate
INFORMATION: OpenIDM Endpoints Service "linkedView" component is activated.
[19] Jan 30, 2019 11:18:49.160 AM org.forgerock.openidm.customendpoint.impl.EndpointsService activate
INFORMATION: OpenIDM Endpoints Service "getprocessesforuser" component is activated.
[19] Jan 30, 2019 11:18:49.257 AM org.forgerock.openidm.policy.PolicyService activate
INFORMATION: OpenIDM Policy Service component is activated.
[19] Jan 30, 2019 11:18:49.277 AM org.forgerock.openidm.maintenance.impl.UpdateLogServiceImpl activate
INFORMATION: Update Log service started.
[19] Jan 30, 2019 11:18:49.287 AM org.forgerock.openidm.maintenance.upgrade.UpdateManagerImpl activate
FEIN: Activating UpdateManagerImpl {suppressMetatypeWarning=true, service.pid=org.forgerock.openidm.maintenance.updatemanager, service.vendor=ForgeRock AS., service.description=Product Update Manager, connectionFactory.target=(service.pid=org.forgerock.openidm.router.internal), component.name=org.forgerock.openidm.maintenance.updatemanager, component.id=85, ref_UpdateManagerImpl_RepoService.target=(openidm.router.prefix=repo/*)}
[19] Jan 30, 2019 11:18:49.288 AM org.forgerock.openidm.maintenance.upgrade.UpdateManagerImpl activate
FEIN: Obtained OSGiFrameworkService
[19] Jan 30, 2019 11:18:49.292 AM org.forgerock.openidm.maintenance.impl.UpdateService activate
INFORMATION: Update service started.
[19] Jan 30, 2019 11:18:49.444 AM org.forgerock.openidm.audit.impl.AuditServiceImpl activate
INFORMATION: Audit service started.
[19] Jan 30, 2019 11:18:49.517 AM org.forgerock.openidm.internal.impl.InternalObjectApiDescription build
INFORMATION: Failed to generate API Description for internal schema section: notification
[19] Jan 30, 2019 11:18:53.250 AM org.forgerock.openicf.connectors.groovy.ScriptedConfiguration evaluate
INFORMATION: Entering TEST Script
[19] Jan 30, 2019 11:18:53.271 AM org.forgerock.openidm.provisioner.openicf.impl.OpenICFProvisionerService lambda$activate$0
INFORMATION: OpenICF Provisioner Service component APIGEE is activated.
[19] Jan 30, 2019 11:18:53.810 AM org.forgerock.api.transform.OpenApiTransformer addDefinitionReference
INFORMATION: Replacing schema definition with id: urn:jsonschema:org:forgerock:openidm:policy:api:PolicyParameterMap
[19] Jan 30, 2019 11:18:53.811 AM org.forgerock.api.transform.OpenApiTransformer addDefinitionReference
INFORMATION: Replacing schema definition with id: urn:jsonschema:org:forgerock:openidm:policy:api:PolicyParameterMap
[19] Jan 30, 2019 11:18:53.812 AM org.forgerock.api.transform.OpenApiTransformer addDefinitionReference
INFORMATION: Replacing schema definition with id: urn:jsonschema:org:forgerock:openidm:policy:api:PolicyParameterMap
[19] Jan 30, 2019 11:18:53.812 AM org.forgerock.api.transform.OpenApiTransformer addDefinitionReference
INFORMATION: Replacing schema definition with id: urn:jsonschema:org:forgerock:openidm:policy:api:PolicyParameterMap
[19] Jan 30, 2019 11:18:53.813 AM org.forgerock.api.transform.OpenApiTransformer addDefinitionReference
INFORMATION: Replacing schema definition with id: urn:jsonschema:org:forgerock:openidm:policy:api:PolicyParameterMap
[19] Jan 30, 2019 11:18:53.813 AM org.forgerock.api.transform.OpenApiTransformer addDefinitionReference
INFORMATION: Replacing schema definition with id: urn:jsonschema:org:forgerock:openidm:policy:api:PolicyParameterMap
[19] Jan 30, 2019 11:18:53.814 AM org.forgerock.api.transform.OpenApiTransformer addDefinitionReference
INFORMATION: Replacing schema definition with id: urn:jsonschema:org:forgerock:openidm:policy:api:PolicyParameterMap
[19] Jan 30, 2019 11:18:53.816 AM org.forgerock.openidm.policy.PolicyService resetService
INFORMATION: OpenIDM Policy Service component has been reset.
[19] Jan 30, 2019 11:18:53.873 AM org.forgerock.openidm.sync.ReconciliationService activate
INFORMATION: Reconciliation service started.
[19] Jan 30, 2019 11:18:53.896 AM org.forgerock.openidm.auth.AuthenticationService activate
INFORMATION: Activating Authentication Service with configuration {component.name=org.forgerock.openidm.authentication, authFilterWrapper.target=(service.pid=org.forgerock.openidm.auth.config), jsonconfig={
    "serverAuthContext" : {
        "sessionModule" : {
            "name" : "JWT_SESSION",
            "properties" : {
                "maxTokenLifeMinutes" : 120,
                "tokenIdleTimeMinutes" : 30,
                "sessionOnly" : true,
                "isHttpOnly" : true,
                "enableDynamicRoles" : false
            }
        },
        "authModules" : [
            {
                "name" : "STATIC_USER",
                "properties" : {
                    "queryOnResource" : "internal/user",
                    "username" : "anonymous",
                    "password" : {
                        "$crypto" : {
                            "type" : "x-simple-encryption",
                            "value" : {
                                "cipher" : "AES/CBC/PKCS5Padding",
                                "stableId" : "openidm-sym-default",
                                "salt" : "bCBr4LQhEW4lQeBbnSYM/A==",
                                "data" : "wTsKoYwuvCp9TsO/BPxdNQ==",
                                "keySize" : 16,
                                "purpose" : "idm.config.encryption",
                                "iv" : "9JSuCy3k8WIJrH//9V40oA==",
                                "mac" : "pF2NrVABLe8xlbkeQm238A=="
                            }
                        }
                    },
                    "defaultUserRoles" : [
                        "internal/role/openidm-reg"
                    ]
                },
                "enabled" : true
            },
            {
                "name" : "MANAGED_USER",
                "properties" : {
                    "augmentSecurityContext" : {
                        "type" : "text/javascript",
                        "source" : "require('auth/customAuthz').setProtectedAttributes(security)"
                    },
                    "queryId" : "credential-query",
                    "queryOnResource" : "managed/user",
                    "propertyMapping" : {
                        "authenticationId" : "username",
                        "userCredential" : "password",
                        "userRoles" : "authzRoles"
                    },
                    "defaultUserRoles" : [ ]
                },
                "enabled" : true
            },
            {
                "name" : "INTERNAL_USER",
                "properties" : {
                    "queryId" : "credential-internaluser-query",
                    "queryOnResource" : "internal/user",
                    "propertyMapping" : {
                        "authenticationId" : "username",
                        "userCredential" : "password",
                        "userRoles" : "authzRoles"
                    },
                    "defaultUserRoles" : [ ]
                },
                "enabled" : true
            },
            {
                "name" : "SOCIAL_PROVIDERS",
                "properties" : {
                    "defaultUserRoles" : [
                        "internal/role/openidm-authorized"
                    ],
                    "augmentSecurityContext" : {
                        "type" : "text/javascript",
                        "globals" : { },
                        "file" : "auth/populateAsManagedUserFromRelationship.js"
                    },
                    "propertyMapping" : {
                        "userRoles" : "authzRoles"
                    }
                },
                "enabled" : true
            },
            {
                "name" : "STATIC_USER",
                "properties" : {
                    "queryOnResource" : "internal/user",
                    "username" : "&{openidm.prometheus.username}",
                    "password" : "&{openidm.prometheus.password}",
                    "defaultUserRoles" : [
                        "&{openidm.prometheus.role}"
                    ]
                },
                "enabled" : true
            }
        ]
    }
}, service.vendor=ForgeRock AS., ref_AuthenticationService_Audit.target=(openidm.router.prefix=audit/*), service.pid=org.forgerock.openidm.authentication, openidm.router.prefix=authentication, connectionFactory.target=(service.pid=org.forgerock.openidm.router.internal), _rev=000000008a3efde0, component.id=19, _id=org.forgerock.openidm.authentication, service.description=OpenIDM Authentication Service}
[19] Jan 30, 2019 11:18:54.370 AM org.forgerock.openidm.cluster.ClusterManager startClusterManagement
INFORMATION: Starting Cluster Management
[19] Jan 30, 2019 11:18:54.370 AM org.forgerock.openidm.cluster.ClusterManager$ClusterManagerThread startup
INFORMATION: Starting the cluster manager thread
[19] Jan 30, 2019 11:18:54.386 AM org.forgerock.openidm.health.HealthService activate
INFORMATION: OpenIDM Health Service component is activated.
[19] Jan 30, 2019 11:18:54.440 AM org.forgerock.openidm.info.InfoService activate
INFORMATION: OpenIDM Info Service "{}" component is activated.
[19] Jan 30, 2019 11:18:54.587 AM org.forgerock.openidm.schema.impl.SchemaServiceImpl activate
INFORMATION: OpenIDM Schema Service is activated.
[19] Jan 30, 2019 11:18:54.592 AM org.forgerock.openidm.consent.impl.ConsentServiceImpl activate
INFORMATION: OpenIDM Consent Service is activated.
[19] Jan 30, 2019 11:18:54.616 AM org.forgerock.openidm.router.impl.RouterConfig createFiltersFromConfig
INFORMATION: Router filters added.
[19] Jan 30, 2019 11:18:54.643 AM org.ops4j.pax.web.service.internal.Activator start
INFORMATION: EventAdmin support enabled, servlet events will be postet to topics.
[19] Jan 30, 2019 11:18:54.644 AM org.ops4j.pax.web.service.internal.Activator start
INFORMATION: LogService support enabled, log events will be created.
[19] Jan 30, 2019 11:18:54.646 AM org.ops4j.pax.web.service.internal.Activator start
INFORMATION: Pax Web started
[124] Jan 30, 2019 11:18:54.695 AM org.eclipse.jetty.util.log.JavaUtilLog info
INFORMATION: Logging initialized @22799ms
[124] Jan 30, 2019 11:18:54.811 AM org.ops4j.pax.web.service.jetty.internal.JettyServerImpl start
INFORMATION: Pax Web available at [0.0.0.0]:[8080]
[124] Jan 30, 2019 11:18:54.812 AM org.ops4j.pax.web.service.jetty.internal.JettyServerImpl start
INFORMATION: Pax Web available at [0.0.0.0]:[8443]
[124] Jan 30, 2019 11:18:54.812 AM org.ops4j.pax.web.service.jetty.internal.JettyServerImpl start
INFORMATION: Pax Web available at [0.0.0.0]:[8444]
[124] Jan 30, 2019 11:18:54.819 AM org.ops4j.pax.web.service.internal.HttpServiceFactoryImpl getService
INFORMATION: Binding bundle: [org.forgerock.openidm.servlet-registrator [236]] to http service
[124] Jan 30, 2019 11:18:54.857 AM org.forgerock.openidm.servletregistration.impl.ServletFilterConfiguration activate
INFORMATION: Activating servlet registrator with configuration {config.factory-pid=gzip, component.name=org.forgerock.openidm.servletfilter, jsonconfig={
    "classPathURLs" : [ ],
    "systemProperties" : { },
    "requestAttributes" : { },
    "initParams" : { },
    "scriptExtensions" : { },
    "urlPatterns" : [
        "/*"
    ],
    "filterClass" : "org.eclipse.jetty.servlets.GzipFilter"
}, service.factoryPid=org.forgerock.openidm.servletfilter, felix.fileinstall.filename=file:/Users/andorn/Repos/APIM/IdmDocker/openidm/conf/servletfilter-gzip.json, service.pid=org.forgerock.openidm.servletfilter.43856a70-dcdb-4e1a-b0b7-388826ddcff0, _rev=00000000622f0864, component.id=95, _id=org.forgerock.openidm.servletfilter.43856a70-dcdb-4e1a-b0b7-388826ddcff0}
[124] Jan 30, 2019 11:18:54.858 AM org.forgerock.openidm.servletregistration.impl.ServletRegistrationSingleton registerFilterWithWebContainer
INFORMATION: Using filter class: org.eclipse.jetty.servlets.GzipFilter
[124] Jan 30, 2019 11:18:54.859 AM org.forgerock.openidm.servletregistration.impl.ServletRegistrationSingleton registerFilterWithWebContainer
INFORMATION: Added URLs {  })) to filter classpath
[124] Jan 30, 2019 11:18:54.918 AM org.ops4j.pax.web.service.jetty.internal.HttpServiceContext <init>
INFORMATION: registering context org.ops4j.pax.web.service.internal.DefaultSharedWebContainerContext@41459565, with context-name: 
[124] Jan 30, 2019 11:18:54.923 AM org.forgerock.openidm.servletregistration.impl.ServletRegistrationSingleton registerFilter
INFORMATION: Successfully registered servlet filter { "classPathURLs": [  ], "systemProperties": {  }, "requestAttributes": {  }, "initParams": {  }, "scriptExtensions": {  }, "urlPatterns": [ "/*" ], "filterClass": "org.eclipse.jetty.servlets.GzipFilter" }
[124] Jan 30, 2019 11:18:54.924 AM org.forgerock.openidm.servletregistration.impl.ServletFilterConfiguration activate
INFORMATION: Successfully registered servlet filter {config.factory-pid=gzip, component.name=org.forgerock.openidm.servletfilter, jsonconfig={
    "classPathURLs" : [ ],
    "systemProperties" : { },
    "requestAttributes" : { },
    "initParams" : { },
    "scriptExtensions" : { },
    "urlPatterns" : [
        "/*"
    ],
    "filterClass" : "org.eclipse.jetty.servlets.GzipFilter"
}, service.factoryPid=org.forgerock.openidm.servletfilter, felix.fileinstall.filename=file:/Users/andorn/Repos/APIM/IdmDocker/openidm/conf/servletfilter-gzip.json, service.pid=org.forgerock.openidm.servletfilter.43856a70-dcdb-4e1a-b0b7-388826ddcff0, _rev=00000000622f0864, component.id=95, _id=org.forgerock.openidm.servletfilter.43856a70-dcdb-4e1a-b0b7-388826ddcff0}
[124] Jan 30, 2019 11:18:54.925 AM org.forgerock.openidm.servletregistration.impl.ServletFilterConfiguration activate
INFORMATION: Activating servlet registrator with configuration {config.factory-pid=cors, component.name=org.forgerock.openidm.servletfilter, jsonconfig={
    "classPathURLs" : [ ],
    "systemProperties" : { },
    "requestAttributes" : { },
    "scriptExtensions" : { },
    "initParams" : {
        "allowedOrigins" : "https://localhost:&{openidm.port.https}",
        "allowedMethods" : "GET,POST,PUT,DELETE,PATCH",
        "allowedHeaders" : "accept,x-openidm-password,x-openidm-nosession,x-openidm-username,content-type,origin,x-requested-with",
        "allowCredentials" : true,
        "chainPreflight" : false
    },
    "urlPatterns" : [
        "/*"
    ],
    "filterClass" : "org.eclipse.jetty.servlets.CrossOriginFilter"
}, service.factoryPid=org.forgerock.openidm.servletfilter, felix.fileinstall.filename=file:/Users/andorn/Repos/APIM/IdmDocker/openidm/conf/servletfilter-cors.json, service.pid=org.forgerock.openidm.servletfilter.088af44b-3fd5-405a-adbd-435fddaaaf2d, _rev=00000000854c6f63, component.id=96, _id=org.forgerock.openidm.servletfilter.088af44b-3fd5-405a-adbd-435fddaaaf2d}
[124] Jan 30, 2019 11:18:54.926 AM org.forgerock.openidm.servletregistration.impl.ServletRegistrationSingleton registerFilterWithWebContainer
INFORMATION: Using filter class: org.eclipse.jetty.servlets.GzipFilter
[124] Jan 30, 2019 11:18:54.927 AM org.forgerock.openidm.servletregistration.impl.ServletRegistrationSingleton registerFilterWithWebContainer
INFORMATION: Added URLs {  })) to filter classpath
[124] Jan 30, 2019 11:18:54.927 AM org.forgerock.openidm.servletregistration.impl.ServletRegistrationSingleton registerFilterWithWebContainer
INFORMATION: Using filter class: org.eclipse.jetty.servlets.CrossOriginFilter
[124] Jan 30, 2019 11:18:54.928 AM org.forgerock.openidm.servletregistration.impl.ServletRegistrationSingleton registerFilterWithWebContainer
INFORMATION: Added URLs {  })) to filter classpath
[124] Jan 30, 2019 11:18:54.931 AM org.forgerock.openidm.servletregistration.impl.ServletRegistrationSingleton registerFilter
INFORMATION: Successfully registered servlet filter { "classPathURLs": [  ], "systemProperties": {  }, "requestAttributes": {  }, "scriptExtensions": {  }, "initParams": { "allowedOrigins": "https://localhost:8443", "allowedMethods": "GET,POST,PUT,DELETE,PATCH", "allowedHeaders": "accept,x-openidm-password,x-openidm-nosession,x-openidm-username,content-type,origin,x-requested-with", "allowCredentials": true, "chainPreflight": false }, "urlPatterns": [ "/*" ], "filterClass": "org.eclipse.jetty.servlets.CrossOriginFilter" }
[124] Jan 30, 2019 11:18:54.932 AM org.forgerock.openidm.servletregistration.impl.ServletFilterConfiguration activate
INFORMATION: Successfully registered servlet filter {config.factory-pid=cors, component.name=org.forgerock.openidm.servletfilter, jsonconfig={
    "classPathURLs" : [ ],
    "systemProperties" : { },
    "requestAttributes" : { },
    "scriptExtensions" : { },
    "initParams" : {
        "allowedOrigins" : "https://localhost:&{openidm.port.https}",
        "allowedMethods" : "GET,POST,PUT,DELETE,PATCH",
        "allowedHeaders" : "accept,x-openidm-password,x-openidm-nosession,x-openidm-username,content-type,origin,x-requested-with",
        "allowCredentials" : true,
        "chainPreflight" : false
    },
    "urlPatterns" : [
        "/*"
    ],
    "filterClass" : "org.eclipse.jetty.servlets.CrossOriginFilter"
}, service.factoryPid=org.forgerock.openidm.servletfilter, felix.fileinstall.filename=file:/Users/andorn/Repos/APIM/IdmDocker/openidm/conf/servletfilter-cors.json, service.pid=org.forgerock.openidm.servletfilter.088af44b-3fd5-405a-adbd-435fddaaaf2d, _rev=00000000854c6f63, component.id=96, _id=org.forgerock.openidm.servletfilter.088af44b-3fd5-405a-adbd-435fddaaaf2d}
[124] Jan 30, 2019 11:18:55.087 AM org.forgerock.api.transform.OpenApiTransformer addDefinitionReference
INFORMATION: Replacing schema definition with id: urn:jsonschema:org:forgerock:openidm:policy:api:PolicyParameterMap
[124] Jan 30, 2019 11:18:55.088 AM org.forgerock.api.transform.OpenApiTransformer addDefinitionReference
INFORMATION: Replacing schema definition with id: urn:jsonschema:org:forgerock:openidm:policy:api:PolicyParameterMap
[124] Jan 30, 2019 11:18:55.088 AM org.forgerock.api.transform.OpenApiTransformer addDefinitionReference
INFORMATION: Replacing schema definition with id: urn:jsonschema:org:forgerock:openidm:policy:api:PolicyParameterMap
[124] Jan 30, 2019 11:18:55.089 AM org.forgerock.api.transform.OpenApiTransformer addDefinitionReference
INFORMATION: Replacing schema definition with id: urn:jsonschema:org:forgerock:openidm:policy:api:PolicyParameterMap
[124] Jan 30, 2019 11:18:55.089 AM org.forgerock.api.transform.OpenApiTransformer addDefinitionReference
INFORMATION: Replacing schema definition with id: urn:jsonschema:org:forgerock:openidm:policy:api:PolicyParameterMap
[124] Jan 30, 2019 11:18:55.090 AM org.forgerock.api.transform.OpenApiTransformer addDefinitionReference
INFORMATION: Replacing schema definition with id: urn:jsonschema:org:forgerock:openidm:policy:api:PolicyParameterMap
[124] Jan 30, 2019 11:18:55.090 AM org.forgerock.api.transform.OpenApiTransformer addDefinitionReference
INFORMATION: Replacing schema definition with id: urn:jsonschema:org:forgerock:openidm:policy:api:PolicyParameterMap
[124] Jan 30, 2019 11:18:55.118 AM org.forgerock.api.transform.OpenApiTransformer addDefinitionReference
INFORMATION: Replacing schema definition with id: urn:jsonschema:org:forgerock:openidm:policy:api:PolicyParameterMap
[124] Jan 30, 2019 11:18:55.119 AM org.forgerock.api.transform.OpenApiTransformer addDefinitionReference
INFORMATION: Replacing schema definition with id: urn:jsonschema:org:forgerock:openidm:policy:api:PolicyParameterMap
[124] Jan 30, 2019 11:18:55.120 AM org.forgerock.api.transform.OpenApiTransformer addDefinitionReference
INFORMATION: Replacing schema definition with id: urn:jsonschema:org:forgerock:openidm:policy:api:PolicyParameterMap
[124] Jan 30, 2019 11:18:55.121 AM org.forgerock.api.transform.OpenApiTransformer addDefinitionReference
INFORMATION: Replacing schema definition with id: urn:jsonschema:org:forgerock:openidm:policy:api:PolicyParameterMap
[124] Jan 30, 2019 11:18:55.121 AM org.forgerock.api.transform.OpenApiTransformer addDefinitionReference
INFORMATION: Replacing schema definition with id: urn:jsonschema:org:forgerock:openidm:policy:api:PolicyParameterMap
[124] Jan 30, 2019 11:18:55.122 AM org.forgerock.api.transform.OpenApiTransformer addDefinitionReference
INFORMATION: Replacing schema definition with id: urn:jsonschema:org:forgerock:openidm:policy:api:PolicyParameterMap
[124] Jan 30, 2019 11:18:55.123 AM org.forgerock.api.transform.OpenApiTransformer addDefinitionReference
INFORMATION: Replacing schema definition with id: urn:jsonschema:org:forgerock:openidm:policy:api:PolicyParameterMap
[124] Jan 30, 2019 11:18:55.132 AM org.eclipse.jetty.util.log.JavaUtilLog info
INFORMATION: Started HttpServiceContext{httpContext=org.ops4j.pax.web.service.internal.DefaultSharedWebContainerContext@41459565}
[124] Jan 30, 2019 11:18:55.134 AM org.eclipse.jetty.util.log.JavaUtilLog info
INFORMATION: jetty-9.2.z-SNAPSHOT
[124] Jan 30, 2019 11:18:55.164 AM org.eclipse.jetty.util.log.JavaUtilLog info
INFORMATION: Started 0.0.0.0:8080@6df4f366{HTTP/1.1}{0.0.0.0:8080}
[19] Jan 30, 2019 11:18:55.182 AM org.forgerock.openidm.scheduler.SchedulerService activate
INFORMATION: Starting Scheduler Service
[19] Jan 30, 2019 11:18:55.183 AM org.forgerock.openidm.scheduler.SchedulerService initInMemoryScheduler
INFORMATION: Creating In-Memory Scheduler
[19] Jan 30, 2019 11:18:55.219 AM org.quartz.core.SchedulerSignalerImpl <init>
INFORMATION: Initialized Scheduler Signaller of type: class org.quartz.core.SchedulerSignalerImpl
[19] Jan 30, 2019 11:18:55.219 AM org.quartz.core.QuartzScheduler <init>
INFORMATION: Quartz Scheduler v.1.8.6 created.
[19] Jan 30, 2019 11:18:55.222 AM org.quartz.simpl.RAMJobStore initialize
INFORMATION: RAMJobStore initialized.
[19] Jan 30, 2019 11:18:55.225 AM org.quartz.core.QuartzScheduler initialize
INFORMATION: Scheduler meta-data: Quartz Scheduler (v1.8.6) 'SimpleQuartzScheduler' with instanceId 'SIMPLE_NON_CLUSTERED'
  Scheduler class: 'org.quartz.core.QuartzScheduler' - running locally.
  NOT STARTED.
  Currently in standby mode.
  Number of jobs executed: 0
  Using thread pool 'org.quartz.simpl.SimpleThreadPool' - with 10 threads.
  Using job-store 'org.quartz.simpl.RAMJobStore' - which does not support persistence. and is not clustered.

[19] Jan 30, 2019 11:18:55.226 AM org.quartz.impl.DirectSchedulerFactory createScheduler
INFORMATION: Quartz scheduler 'SimpleQuartzScheduler
[19] Jan 30, 2019 11:18:55.226 AM org.quartz.impl.DirectSchedulerFactory createScheduler
INFORMATION: Quartz scheduler version: 1.8.6
[19] Jan 30, 2019 11:18:55.228 AM org.forgerock.openidm.scheduler.SchedulerService initInMemoryScheduler
INFORMATION: Scheduler facility started
[19] Jan 30, 2019 11:18:55.230 AM org.forgerock.openidm.scheduler.SchedulerService createPersistentScheduler
INFORMATION: Creating Persistent Scheduler
[19] Jan 30, 2019 11:18:55.258 AM org.quartz.impl.StdSchedulerFactory instantiate
INFORMATION: Using default implementation for ThreadExecutor
[19] Jan 30, 2019 11:18:55.258 AM org.quartz.simpl.SimpleThreadPool initialize
INFORMATION: Job execution threads will use class loader of thread: FelixStartLevel
[19] Jan 30, 2019 11:18:55.261 AM org.quartz.core.QuartzSchedulerThread <init>
INFORMATION: QuartzSchedulerThread Inheriting ContextClassLoader of thread: FelixStartLevel
[19] Jan 30, 2019 11:18:55.262 AM org.quartz.core.SchedulerSignalerImpl <init>
INFORMATION: Initialized Scheduler Signaller of type: class org.quartz.core.SchedulerSignalerImpl
[19] Jan 30, 2019 11:18:55.262 AM org.quartz.core.QuartzScheduler <init>
INFORMATION: Quartz Scheduler v.1.8.6 created.
[19] Jan 30, 2019 11:18:55.262 AM org.forgerock.openidm.quartz.RepoJobStore initialize
INFORMATION: Initializing RepoJobStore
[19] Jan 30, 2019 11:18:55.263 AM org.forgerock.openidm.quartz.RepoJobStore initialize
INFORMATION: Registering with ClusterManagementService
[19] Jan 30, 2019 11:18:55.263 AM org.quartz.core.QuartzScheduler initialize
INFORMATION: Scheduler meta-data: Quartz Scheduler (v1.8.6) 'DefaultQuartzScheduler' with instanceId 'node1'
  Scheduler class: 'org.quartz.core.QuartzScheduler' - running locally.
  NOT STARTED.
  Currently in standby mode.
  Number of jobs executed: 0
  Using thread pool 'org.quartz.simpl.SimpleThreadPool' - with 10 threads.
  Using job-store 'org.forgerock.openidm.quartz.RepoJobStore' - which supports persistence. and is clustered.

[19] Jan 30, 2019 11:18:55.263 AM org.quartz.impl.StdSchedulerFactory instantiate
INFORMATION: Quartz scheduler 'DefaultQuartzScheduler' initialized from an externally provided properties instance.
[19] Jan 30, 2019 11:18:55.264 AM org.quartz.impl.StdSchedulerFactory instantiate
INFORMATION: Quartz scheduler version: 1.8.6
[19] Jan 30, 2019 11:18:55.264 AM org.forgerock.openidm.scheduler.SchedulerService activate
INFORMATION: Starting Volatile Scheduler
[19] Jan 30, 2019 11:18:55.264 AM org.quartz.core.QuartzScheduler start
INFORMATION: Scheduler SimpleQuartzScheduler_$_SIMPLE_NON_CLUSTERED started.
[19] Jan 30, 2019 11:18:55.264 AM org.forgerock.openidm.scheduler.SchedulerService activate
INFORMATION: Starting Persistent Scheduler
[19] Jan 30, 2019 11:18:55.265 AM org.forgerock.openidm.quartz.RepoJobStore schedulerStarted
INFORMATION: Job Scheduler Started
[19] Jan 30, 2019 11:18:55.268 AM org.quartz.core.QuartzScheduler start
INFORMATION: Scheduler DefaultQuartzScheduler_$_node1 started.
[19] Jan 30, 2019 11:18:55.274 AM org.forgerock.openidm.scheduler.SchedulerService activate
INFORMATION: There are 0 jobs waiting to be scheduled
[19] Jan 30, 2019 11:18:55.274 AM org.forgerock.openidm.scheduler.SchedulerService activate
INFORMATION: Scheduling waiting schedules
[19] Jan 30, 2019 11:18:55.306 AM org.forgerock.api.transform.OpenApiTransformer addDefinitionReference
INFORMATION: Replacing schema definition with id: urn:jsonschema:org:forgerock:openidm:policy:api:PolicyParameterMap
[19] Jan 30, 2019 11:18:55.307 AM org.forgerock.api.transform.OpenApiTransformer addDefinitionReference
INFORMATION: Replacing schema definition with id: urn:jsonschema:org:forgerock:openidm:policy:api:PolicyParameterMap
[19] Jan 30, 2019 11:18:55.307 AM org.forgerock.api.transform.OpenApiTransformer addDefinitionReference
INFORMATION: Replacing schema definition with id: urn:jsonschema:org:forgerock:openidm:policy:api:PolicyParameterMap
[19] Jan 30, 2019 11:18:55.307 AM org.forgerock.api.transform.OpenApiTransformer addDefinitionReference
INFORMATION: Replacing schema definition with id: urn:jsonschema:org:forgerock:openidm:policy:api:PolicyParameterMap
[19] Jan 30, 2019 11:18:55.308 AM org.forgerock.api.transform.OpenApiTransformer addDefinitionReference
INFORMATION: Replacing schema definition with id: urn:jsonschema:org:forgerock:openidm:policy:api:PolicyParameterMap
[19] Jan 30, 2019 11:18:55.308 AM org.forgerock.api.transform.OpenApiTransformer addDefinitionReference
INFORMATION: Replacing schema definition with id: urn:jsonschema:org:forgerock:openidm:policy:api:PolicyParameterMap
[19] Jan 30, 2019 11:18:55.309 AM org.forgerock.api.transform.OpenApiTransformer addDefinitionReference
INFORMATION: Replacing schema definition with id: urn:jsonschema:org:forgerock:openidm:policy:api:PolicyParameterMap
[19] Jan 30, 2019 11:18:55.338 AM org.forgerock.api.transform.OpenApiTransformer addDefinitionReference
INFORMATION: Replacing schema definition with id: urn:jsonschema:org:forgerock:openidm:policy:api:PolicyParameterMap
[19] Jan 30, 2019 11:18:55.338 AM org.forgerock.api.transform.OpenApiTransformer addDefinitionReference
INFORMATION: Replacing schema definition with id: urn:jsonschema:org:forgerock:openidm:policy:api:PolicyParameterMap
[19] Jan 30, 2019 11:18:55.339 AM org.forgerock.api.transform.OpenApiTransformer addDefinitionReference
INFORMATION: Replacing schema definition with id: urn:jsonschema:org:forgerock:openidm:policy:api:PolicyParameterMap
[19] Jan 30, 2019 11:18:55.340 AM org.forgerock.api.transform.OpenApiTransformer addDefinitionReference
INFORMATION: Replacing schema definition with id: urn:jsonschema:org:forgerock:openidm:policy:api:PolicyParameterMap
[19] Jan 30, 2019 11:18:55.340 AM org.forgerock.api.transform.OpenApiTransformer addDefinitionReference
INFORMATION: Replacing schema definition with id: urn:jsonschema:org:forgerock:openidm:policy:api:PolicyParameterMap
[19] Jan 30, 2019 11:18:55.341 AM org.forgerock.api.transform.OpenApiTransformer addDefinitionReference
INFORMATION: Replacing schema definition with id: urn:jsonschema:org:forgerock:openidm:policy:api:PolicyParameterMap
[19] Jan 30, 2019 11:18:55.342 AM org.forgerock.api.transform.OpenApiTransformer addDefinitionReference
INFORMATION: Replacing schema definition with id: urn:jsonschema:org:forgerock:openidm:policy:api:PolicyParameterMap
[19] Jan 30, 2019 11:18:55.388 AM org.forgerock.api.transform.OpenApiTransformer addDefinitionReference
INFORMATION: Replacing schema definition with id: urn:jsonschema:org:forgerock:openidm:policy:api:PolicyParameterMap
[19] Jan 30, 2019 11:18:55.388 AM org.forgerock.api.transform.OpenApiTransformer addDefinitionReference
INFORMATION: Replacing schema definition with id: urn:jsonschema:org:forgerock:openidm:policy:api:PolicyParameterMap
[19] Jan 30, 2019 11:18:55.389 AM org.forgerock.api.transform.OpenApiTransformer addDefinitionReference
INFORMATION: Replacing schema definition with id: urn:jsonschema:org:forgerock:openidm:policy:api:PolicyParameterMap
[19] Jan 30, 2019 11:18:55.390 AM org.forgerock.api.transform.OpenApiTransformer addDefinitionReference
INFORMATION: Replacing schema definition with id: urn:jsonschema:org:forgerock:openidm:policy:api:PolicyParameterMap
[19] Jan 30, 2019 11:18:55.391 AM org.forgerock.api.transform.OpenApiTransformer addDefinitionReference
INFORMATION: Replacing schema definition with id: urn:jsonschema:org:forgerock:openidm:policy:api:PolicyParameterMap
[19] Jan 30, 2019 11:18:55.391 AM org.forgerock.api.transform.OpenApiTransformer addDefinitionReference
INFORMATION: Replacing schema definition with id: urn:jsonschema:org:forgerock:openidm:policy:api:PolicyParameterMap
[19] Jan 30, 2019 11:18:55.392 AM org.forgerock.api.transform.OpenApiTransformer addDefinitionReference
INFORMATION: Replacing schema definition with id: urn:jsonschema:org:forgerock:openidm:policy:api:PolicyParameterMap
[19] Jan 30, 2019 11:18:55.416 AM org.forgerock.api.transform.OpenApiTransformer addDefinitionReference
INFORMATION: Replacing schema definition with id: urn:jsonschema:org:forgerock:openidm:policy:api:PolicyParameterMap
[19] Jan 30, 2019 11:18:55.417 AM org.forgerock.api.transform.OpenApiTransformer addDefinitionReference
INFORMATION: Replacing schema definition with id: urn:jsonschema:org:forgerock:openidm:policy:api:PolicyParameterMap
[19] Jan 30, 2019 11:18:55.418 AM org.forgerock.api.transform.OpenApiTransformer addDefinitionReference
INFORMATION: Replacing schema definition with id: urn:jsonschema:org:forgerock:openidm:policy:api:PolicyParameterMap
[19] Jan 30, 2019 11:18:55.418 AM org.forgerock.api.transform.OpenApiTransformer addDefinitionReference
INFORMATION: Replacing schema definition with id: urn:jsonschema:org:forgerock:openidm:policy:api:PolicyParameterMap
[19] Jan 30, 2019 11:18:55.419 AM org.forgerock.api.transform.OpenApiTransformer addDefinitionReference
INFORMATION: Replacing schema definition with id: urn:jsonschema:org:forgerock:openidm:policy:api:PolicyParameterMap
[19] Jan 30, 2019 11:18:55.420 AM org.forgerock.api.transform.OpenApiTransformer addDefinitionReference
INFORMATION: Replacing schema definition with id: urn:jsonschema:org:forgerock:openidm:policy:api:PolicyParameterMap
[19] Jan 30, 2019 11:18:55.420 AM org.forgerock.api.transform.OpenApiTransformer addDefinitionReference
INFORMATION: Replacing schema definition with id: urn:jsonschema:org:forgerock:openidm:policy:api:PolicyParameterMap
[12] Jan 30, 2019 11:18:55.460 AM org.forgerock.openidm.health.HealthService setState
INFORMATION: OpenIDM ready OpenIDM version "6.5.0" (build: 20181128123548, revision: 7b41aaf) jenkins-openidm-release-sustaining%2F6.5.x-10
[124] Jan 30, 2019 11:18:55.828 AM org.eclipse.jetty.util.log.JavaUtilLog info
INFORMATION: Started 0.0.0.0:8443@58a78de4{SSL-http/1.1}{0.0.0.0:8443}
[124] Jan 30, 2019 11:18:56.385 AM org.eclipse.jetty.util.log.JavaUtilLog info
INFORMATION: Started 0.0.0.0:8444@47a1cd09{SSL-http/1.1}{0.0.0.0:8444}
[124] Jan 30, 2019 11:18:56.386 AM org.eclipse.jetty.util.log.JavaUtilLog info
INFORMATION: Started @24490ms
[124] Jan 30, 2019 11:18:56.387 AM org.forgerock.openidm.servlet.internal.ServletComponent activate
INFORMATION: Registered servlet at /openidm
[124] Jan 30, 2019 11:18:56.401 AM org.ops4j.pax.web.service.internal.HttpServiceFactoryImpl getService
INFORMATION: Binding bundle: [org.forgerock.openidm.api-servlet [234]] to http service
[124] Jan 30, 2019 11:18:56.403 AM org.forgerock.openidm.servlet.internal.ErrorServletComponent activate
INFORMATION: Registered servlet at /error
[124] Jan 30, 2019 11:18:56.418 AM org.ops4j.pax.web.service.internal.HttpServiceFactoryImpl getService
INFORMATION: Binding bundle: [org.forgerock.openidm.httpcontext [15]] to http service
[124] Jan 30, 2019 11:18:56.433 AM org.forgerock.openidm.http.ContextRegistrator activateSecurityConfigurators
INFORMATION: Activated security configurator org.forgerock.openidm.http.internal.JettySecurityConfigurator
[124] Jan 30, 2019 11:18:56.435 AM org.ops4j.pax.web.service.internal.HttpServiceFactoryImpl getService
INFORMATION: Binding bundle: [org.forgerock.openidm.servlet [148]] to http service
[124] Jan 30, 2019 11:18:56.436 AM org.forgerock.openidm.ui.internal.service.ResourceServlet activate
INFORMATION: Activating resource servlet with configuration {config.factory-pid=api, component.name=org.forgerock.openidm.ui.context, jsonconfig={
    "enabled" : true,
    "urlContextRoot" : "/api",
    "defaultDir" : "&{idm.install.dir}/ui/api/default",
    "extensionDir" : "&{idm.install.dir}/ui/api/extension"
}, service.factoryPid=org.forgerock.openidm.ui.context, felix.fileinstall.filename=file:/Users/andorn/Repos/APIM/IdmDocker/openidm/conf/ui.context-api.json, service.pid=org.forgerock.openidm.ui.context.100c0635-929a-446d-b0d8-9e79d8bc962a, _rev=00000000f728efcd, component.id=34, _id=org.forgerock.openidm.ui.context.100c0635-929a-446d-b0d8-9e79d8bc962a}
[124] Jan 30, 2019 11:18:56.437 AM org.forgerock.openidm.ui.internal.service.ResourceServlet activate
INFORMATION: Activating resource servlet with configuration {config.factory-pid=admin, component.name=org.forgerock.openidm.ui.context, jsonconfig={
    "enabled" : true,
    "urlContextRoot" : "/admin",
    "defaultDir" : "&{idm.install.dir}/ui/admin/default",
    "extensionDir" : "&{idm.install.dir}/ui/admin/extension",
    "responseHeaders" : {
        "X-Frame-Options" : "DENY"
    }
}, service.factoryPid=org.forgerock.openidm.ui.context, felix.fileinstall.filename=file:/Users/andorn/Repos/APIM/IdmDocker/openidm/conf/ui.context-admin.json, service.pid=org.forgerock.openidm.ui.context.15683cc4-1449-42d7-bb29-44e3ff07a515, _rev=000000008a48033d, component.id=35, _id=org.forgerock.openidm.ui.context.15683cc4-1449-42d7-bb29-44e3ff07a515}
[124] Jan 30, 2019 11:18:56.438 AM org.forgerock.openidm.ui.internal.service.ResourceServlet activate
INFORMATION: Activating resource servlet with configuration {config.factory-pid=enduser, component.name=org.forgerock.openidm.ui.context, jsonconfig={
    "enabled" : true,
    "urlContextRoot" : "/",
    "defaultDir" : "&{idm.install.dir}/ui/enduser",
    "responseHeaders" : {
        "X-Frame-Options" : "DENY"
    }
}, service.factoryPid=org.forgerock.openidm.ui.context, felix.fileinstall.filename=file:/Users/andorn/Repos/APIM/IdmDocker/openidm/conf/ui.context-enduser.json, service.pid=org.forgerock.openidm.ui.context.adf68af8-470a-433c-9519-c31cbb67b4c8, _rev=00000000bd5cef52, component.id=36, _id=org.forgerock.openidm.ui.context.adf68af8-470a-433c-9519-c31cbb67b4c8}
[124] Jan 30, 2019 11:18:56.440 AM org.forgerock.openidm.ui.internal.service.ResourceServlet activate
INFORMATION: Activating resource servlet with configuration {config.factory-pid=oauth, component.name=org.forgerock.openidm.ui.context, jsonconfig={
    "enabled" : true,
    "urlContextRoot" : "/oauthReturn",
    "defaultDir" : "&{idm.install.dir}/ui/oauth/default",
    "extensionDir" : "&{idm.install.dir}/ui/oauth/extension"
}, service.factoryPid=org.forgerock.openidm.ui.context, felix.fileinstall.filename=file:/Users/andorn/Repos/APIM/IdmDocker/openidm/conf/ui.context-oauth.json, service.pid=org.forgerock.openidm.ui.context.59797a69-c0ea-4d6a-a460-d5ef4a3391b9, _rev=00000000ae57f856, component.id=37, _id=org.forgerock.openidm.ui.context.59797a69-c0ea-4d6a-a460-d5ef4a3391b9}
[124] Jan 30, 2019 11:18:56.441 AM org.ops4j.pax.web.service.internal.HttpServiceFactoryImpl getService
INFORMATION: Binding bundle: [org.apache.felix.webconsole [241]] to http service
[124] Jan 30, 2019 11:18:56.456 AM org.ops4j.pax.web.service.jetty.internal.HttpServiceContext <init>
INFORMATION: registering context org.apache.felix.webconsole.internal.servlet.OsgiManagerHttpContext@6b51b4d0, with context-name: 
[124] Jan 30, 2019 11:18:56.469 AM org.eclipse.jetty.util.log.JavaUtilLog info
INFORMATION: Started HttpServiceContext{httpContext=org.apache.felix.webconsole.internal.servlet.OsgiManagerHttpContext@6b51b4d0}
[173] Jan 30, 2019 11:22:09.084 AM org.forgerock.openidm.router.filter.ScriptedFilter evaluateOnResponse
INFORMATION: Filter response: 6a512000-81ef-44e9-bc4a-2783903017fe-1157.
[176] Jan 30, 2019 11:22:10.773 AM org.forgerock.openicf.connectors.groovy.ScriptedConfiguration evaluate
INFORMATION: Entering TEST Script
[176] Jan 30, 2019 11:22:10.797 AM org.forgerock.openidm.servlet.internal.ServletConnectionFactory$3 lambda$handleRequestWithLogging$8
WARNUNG: Resource exception: 500 Internal Server Error: "SchemaScript must return with Schema object"
org.forgerock.json.resource.InternalServerErrorException: SchemaScript must return with Schema object
	at org.forgerock.openidm.provisioner.api.SystemObjectSetService.actionInstance(SystemObjectSetService.java:402)
	at org.forgerock.json.resource.InterfaceSingletonHandler.handleAction(InterfaceSingletonHandler.java:26)
	at org.forgerock.json.resource.Router.handleAction(Router.java:251)
	at org.forgerock.json.resource.Router.handleAction(Router.java:251)
	at org.forgerock.json.resource.FilterChain$Cursor.handleAction(FilterChain.java:55)
	at org.forgerock.json.resource.Filters$ConditionalFilter.filterAction(Filters.java:44)
	at org.forgerock.json.resource.Filters$ConditionalFilter.filterAction(Filters.java:42)
	at org.forgerock.json.resource.FilterChain$Cursor.handleAction(FilterChain.java:53)
	at org.forgerock.json.resource.Filters$ConditionalFilter.filterAction(Filters.java:44)
	at org.forgerock.json.resource.FilterChain$Cursor.handleAction(FilterChain.java:53)
	at org.forgerock.openidm.authz.DelegatedAdminFilter.lambda$filterAction$0(DelegatedAdminFilter.java:187)
	at org.forgerock.util.promise.Promises$CompletedPromise.thenAsync(Promises.java:260)
	at org.forgerock.util.promise.Promises$CompletedPromise.thenAsync(Promises.java:224)
	at org.forgerock.openidm.authz.DelegatedAdminFilter.filterRequest(DelegatedAdminFilter.java:260)
	at org.forgerock.openidm.authz.DelegatedAdminFilter.filterAction(DelegatedAdminFilter.java:187)
	at org.forgerock.json.resource.Filters$ConditionalFilter.filterAction(Filters.java:42)
	at org.forgerock.json.resource.FilterChain$Cursor.handleAction(FilterChain.java:53)
	at org.forgerock.openidm.audit.filter.AuditFilter.lambda$filterAction$0(AuditFilter.java:119)
	at org.forgerock.openidm.audit.filter.AuditFilter.logAuditAccessEntry(AuditFilter.java:175)
	at org.forgerock.openidm.audit.filter.AuditFilter.filterAction(AuditFilter.java:119)
	at org.forgerock.openidm.router.filter.MutableFilterDecorator.filterAction(MutableFilterDecorator.java:66)
	at org.forgerock.json.resource.Filters$ConditionalFilter.filterAction(Filters.java:42)
	at org.forgerock.json.resource.FilterChain$Cursor.handleAction(FilterChain.java:53)
	at org.forgerock.openidm.servlet.internal.ServletConnectionFactory$3.lambda$filterAction$0(ServletConnectionFactory.java:379)
	at org.forgerock.openidm.servlet.internal.ServletConnectionFactory$3.handleRequestWithLogging(ServletConnectionFactory.java:436)
	at org.forgerock.openidm.servlet.internal.ServletConnectionFactory$3.filterAction(ServletConnectionFactory.java:379)
	at org.forgerock.json.resource.FilterChain$Cursor.handleAction(FilterChain.java:53)
	at org.forgerock.openidm.router.filter.PassthroughFilter.filterAction(PassthroughFilter.java:42)
	at org.forgerock.openidm.router.filter.MutableFilterDecorator.filterAction(MutableFilterDecorator.java:66)
	at org.forgerock.openidm.router.filter.MutableFilterDecorator.filterAction(MutableFilterDecorator.java:66)
	at org.forgerock.json.resource.FilterChain$Cursor.handleAction(FilterChain.java:53)
	at org.forgerock.openidm.router.filter.PassthroughFilter.filterAction(PassthroughFilter.java:42)
	at org.forgerock.openidm.router.filter.MutableFilterDecorator.filterAction(MutableFilterDecorator.java:66)
	at org.forgerock.json.resource.Filters$ConditionalFilter.filterAction(Filters.java:42)
	at org.forgerock.json.resource.FilterChain$Cursor.handleAction(FilterChain.java:53)
	at org.forgerock.json.resource.FilterChain.handleAction(FilterChain.java:226)
	at org.forgerock.json.resource.InternalConnection.actionAsync(InternalConnection.java:29)
	at org.forgerock.json.resource.AbstractConnectionWrapper.actionAsync(AbstractConnectionWrapper.java:74)
	at org.forgerock.openidm.servlet.internal.ServletConnectionFactory$InternalConnectionWrapper.lambda$actionAsync$11(ServletConnectionFactory.java:357)
	at org.forgerock.openidm.metrics.MetricsCollector.time(MetricsCollector.java:112)
	at org.forgerock.openidm.servlet.internal.ServletConnectionFactory$InternalConnectionWrapper.time(ServletConnectionFactory.java:292)
	at org.forgerock.openidm.servlet.internal.ServletConnectionFactory$InternalConnectionWrapper.actionAsync(ServletConnectionFactory.java:357)
	at org.forgerock.json.resource.http.RequestRunner.visitActionRequest(RequestRunner.java:136)
	at org.forgerock.json.resource.http.RequestRunner.visitActionRequest(RequestRunner.java:82)
	at org.forgerock.json.resource.Requests$ActionRequestImpl.accept(Requests.java:181)
	at org.forgerock.json.resource.http.RequestRunner.handleResult(RequestRunner.java:128)
	at org.forgerock.util.promise.Promises$CompletedPromise.thenAsync(Promises.java:260)
	at org.forgerock.util.promise.Promises$CompletedPromise.thenAsync(Promises.java:249)
	at org.forgerock.json.resource.http.HttpAdapter.doRequest(HttpAdapter.java:713)
	at org.forgerock.json.resource.http.HttpAdapter.doAction(HttpAdapter.java:619)
	at org.forgerock.json.resource.http.HttpAdapter.handle(HttpAdapter.java:281)
	at org.forgerock.http.handler.Handlers$HandlerDescribableAsDescribableHandler.handle(Handlers.java:146)
	at org.forgerock.http.filter.OptionsFilter.filter(OptionsFilter.java:69)
	at org.forgerock.http.handler.Handlers$1.handle(Handlers.java:53)
	at org.forgerock.http.routing.Router.handle(Router.java:100)
	at org.forgerock.http.swagger.OpenApiRequestFilter.filter(OpenApiRequestFilter.java:63)
	at org.forgerock.http.handler.Handlers$1.handle(Handlers.java:53)
	at org.forgerock.openidm.auth.ProfileEnhancementCheckFilter.filter(ProfileEnhancementCheckFilter.java:146)
	at org.forgerock.http.handler.Handlers$1.handle(Handlers.java:53)
	at org.forgerock.openidm.auth.LoginCountFilter.filter(LoginCountFilter.java:63)
	at org.forgerock.http.handler.Handlers$1.handle(Handlers.java:53)
	at org.forgerock.caf.authentication.framework.AuthenticationFramework.grantAccess(AuthenticationFramework.java:188)
	at org.forgerock.caf.authentication.framework.AuthenticationFramework.lambda$onValidateRequestSuccess$1(AuthenticationFramework.java:181)
	at org.forgerock.util.promise.Promises$CompletedPromise.thenAsync(Promises.java:260)
	at org.forgerock.util.promise.Promises$CompletedPromise.thenAsync(Promises.java:249)
	at org.forgerock.caf.authentication.framework.AuthenticationFramework.validateRequest(AuthenticationFramework.java:144)
	at org.forgerock.caf.authentication.framework.AuthenticationFramework.processMessage(AuthenticationFramework.java:134)
	at org.forgerock.caf.authentication.framework.AuthenticationFilter.filter(AuthenticationFilter.java:84)
	at org.forgerock.openidm.auth.AuthFilterWrapper.filter(AuthFilterWrapper.java:87)
	at org.forgerock.http.handler.Handlers$1.handle(Handlers.java:53)
	at org.forgerock.http.filter.TransactionIdInboundFilter.filter(TransactionIdInboundFilter.java:86)
	at org.forgerock.http.handler.Handlers$1.handle(Handlers.java:53)
	at org.forgerock.http.servlet.HttpFrameworkServlet.service(HttpFrameworkServlet.java:252)
	at javax.servlet.http.HttpServlet.service(HttpServlet.java:790)
	at org.eclipse.jetty.servlet.ServletHolder.handle(ServletHolder.java:812)
	at org.eclipse.jetty.servlet.ServletHandler$CachedChain.doFilter(ServletHandler.java:1669)
	at org.eclipse.jetty.servlets.CrossOriginFilter.handle(CrossOriginFilter.java:257)
	at org.eclipse.jetty.servlets.CrossOriginFilter.doFilter(CrossOriginFilter.java:220)
	at sun.reflect.GeneratedMethodAccessor91.invoke(Unknown Source)
	at sun.reflect.DelegatingMethodAccessorImpl.invoke(DelegatingMethodAccessorImpl.java:43)
	at java.lang.reflect.Method.invoke(Method.java:498)
	at org.forgerock.openidm.servletregistration.impl.ServletRegistrationSingleton$FilterProxy.invoke(ServletRegistrationSingleton.java:309)
	at com.sun.proxy.$Proxy67.doFilter(Unknown Source)
	at org.eclipse.jetty.servlet.ServletHandler$CachedChain.doFilter(ServletHandler.java:1652)
	at org.eclipse.jetty.servlets.UserAgentFilter.doFilter(UserAgentFilter.java:83)
	at org.eclipse.jetty.servlets.GzipFilter.doFilter(GzipFilter.java:301)
	at sun.reflect.GeneratedMethodAccessor91.invoke(Unknown Source)
	at sun.reflect.DelegatingMethodAccessorImpl.invoke(DelegatingMethodAccessorImpl.java:43)
	at java.lang.reflect.Method.invoke(Method.java:498)
	at org.forgerock.openidm.servletregistration.impl.ServletRegistrationSingleton$FilterProxy.invoke(ServletRegistrationSingleton.java:309)
	at com.sun.proxy.$Proxy67.doFilter(Unknown Source)
	at org.eclipse.jetty.servlet.ServletHandler$CachedChain.doFilter(ServletHandler.java:1652)
	at org.eclipse.jetty.servlet.ServletHandler.doHandle(ServletHandler.java:585)
	at org.ops4j.pax.web.service.jetty.internal.HttpServiceServletHandler.doHandle(HttpServiceServletHandler.java:71)
	at org.eclipse.jetty.server.handler.ScopedHandler.handle(ScopedHandler.java:143)
	at org.eclipse.jetty.security.SecurityHandler.handle(SecurityHandler.java:577)
	at org.eclipse.jetty.server.session.SessionHandler.doHandle(SessionHandler.java:223)
	at org.eclipse.jetty.server.handler.ContextHandler.doHandle(ContextHandler.java:1127)
	at org.ops4j.pax.web.service.jetty.internal.HttpServiceContext.doHandle(HttpServiceContext.java:276)
	at org.eclipse.jetty.servlet.ServletHandler.doScope(ServletHandler.java:515)
	at org.eclipse.jetty.server.session.SessionHandler.doScope(SessionHandler.java:185)
	at org.eclipse.jetty.server.handler.ContextHandler.doScope(ContextHandler.java:1061)
	at org.eclipse.jetty.server.handler.ScopedHandler.handle(ScopedHandler.java:141)
	at org.ops4j.pax.web.service.jetty.internal.JettyServerHandlerCollection.handle(JettyServerHandlerCollection.java:80)
	at org.eclipse.jetty.server.handler.HandlerWrapper.handle(HandlerWrapper.java:97)
	at org.eclipse.jetty.server.Server.handle(Server.java:499)
	at org.eclipse.jetty.server.HttpChannel.handle(HttpChannel.java:311)
	at org.eclipse.jetty.server.HttpConnection.onFillable(HttpConnection.java:257)
	at org.eclipse.jetty.io.AbstractConnection$2.run(AbstractConnection.java:544)
	at org.eclipse.jetty.util.thread.QueuedThreadPool.runJob(QueuedThreadPool.java:635)
	at org.eclipse.jetty.util.thread.QueuedThreadPool$3.run(QueuedThreadPool.java:555)
	at java.lang.Thread.run(Thread.java:748)
Caused by: org.identityconnectors.framework.common.exceptions.ConnectorException: SchemaScript must return with Schema object
	at sun.reflect.NativeConstructorAccessorImpl.newInstance0(Native Method)
	at sun.reflect.NativeConstructorAccessorImpl.newInstance(NativeConstructorAccessorImpl.java:62)
	at sun.reflect.DelegatingConstructorAccessorImpl.newInstance(DelegatingConstructorAccessorImpl.java:45)
	at java.lang.reflect.Constructor.newInstance(Constructor.java:423)
	at org.codehaus.groovy.reflection.CachedConstructor.invoke(CachedConstructor.java:83)
	at org.codehaus.groovy.runtime.callsite.ConstructorSite$ConstructorSiteNoUnwrapNoCoerce.callConstructor(ConstructorSite.java:105)
	at org.codehaus.groovy.runtime.callsite.CallSiteArray.defaultCallConstructor(CallSiteArray.java:60)
	at org.codehaus.groovy.runtime.callsite.AbstractCallSite.callConstructor(AbstractCallSite.java:235)
	at org.codehaus.groovy.runtime.callsite.AbstractCallSite.callConstructor(AbstractCallSite.java:247)
	at org.forgerock.openicf.connectors.groovy.ScriptedConnectorBase.schema(ScriptedConnectorBase.groovy:297)
	at org.identityconnectors.framework.impl.api.local.operations.SchemaImpl.schema(SchemaImpl.java:45)
	at sun.reflect.NativeMethodAccessorImpl.invoke0(Native Method)
	at sun.reflect.NativeMethodAccessorImpl.invoke(NativeMethodAccessorImpl.java:62)
	at sun.reflect.DelegatingMethodAccessorImpl.invoke(DelegatingMethodAccessorImpl.java:43)
	at java.lang.reflect.Method.invoke(Method.java:498)
	at org.identityconnectors.framework.impl.api.local.operations.ConnectorAPIOperationRunnerProxy.invoke(ConnectorAPIOperationRunnerProxy.java:104)
	at com.sun.proxy.$Proxy69.schema(Unknown Source)
	at sun.reflect.NativeMethodAccessorImpl.invoke0(Native Method)
	at sun.reflect.NativeMethodAccessorImpl.invoke(NativeMethodAccessorImpl.java:62)
	at sun.reflect.DelegatingMethodAccessorImpl.invoke(DelegatingMethodAccessorImpl.java:43)
	at java.lang.reflect.Method.invoke(Method.java:498)
	at org.identityconnectors.framework.impl.api.local.operations.ThreadClassLoaderManagerProxy.invoke(ThreadClassLoaderManagerProxy.java:96)
	at com.sun.proxy.$Proxy69.schema(Unknown Source)
	at sun.reflect.NativeMethodAccessorImpl.invoke0(Native Method)
	at sun.reflect.NativeMethodAccessorImpl.invoke(NativeMethodAccessorImpl.java:62)
	at sun.reflect.DelegatingMethodAccessorImpl.invoke(DelegatingMethodAccessorImpl.java:43)
	at java.lang.reflect.Method.invoke(Method.java:498)
	at org.identityconnectors.framework.impl.api.DelegatingTimeoutProxy.invoke(DelegatingTimeoutProxy.java:98)
	at com.sun.proxy.$Proxy69.schema(Unknown Source)
	at sun.reflect.NativeMethodAccessorImpl.invoke0(Native Method)
	at sun.reflect.NativeMethodAccessorImpl.invoke(NativeMethodAccessorImpl.java:62)
	at sun.reflect.DelegatingMethodAccessorImpl.invoke(DelegatingMethodAccessorImpl.java:43)
	at java.lang.reflect.Method.invoke(Method.java:498)
	at org.identityconnectors.framework.impl.api.local.LocalConnectorFacadeImpl$ReferenceCountingProxy.invoke(LocalConnectorFacadeImpl.java:304)
	at com.sun.proxy.$Proxy69.schema(Unknown Source)
	at org.identityconnectors.framework.impl.api.AbstractConnectorFacade.schema(AbstractConnectorFacade.java:202)
	at org.forgerock.openidm.provisioner.openicf.impl.ConnectorInfoProviderService.setSchema(ConnectorInfoProviderService.java:684)
	at org.forgerock.openidm.provisioner.openicf.impl.ConnectorInfoProviderService.createSystemConfiguration(ConnectorInfoProviderService.java:674)
	at org.forgerock.openidm.provisioner.openicf.impl.ConnectorInfoProviderService.generateConnectorFullConfig(ConnectorInfoProviderService.java:417)
	at org.forgerock.openidm.provisioner.api.SystemObjectSetService.actionInstance(SystemObjectSetService.java:392)
	... 111 more

[173] Jan 30, 2019 11:22:17.928 AM org.forgerock.openidm.router.filter.ScriptedFilter evaluateOnResponse
INFORMATION: Filter response: 6a512000-81ef-44e9-bc4a-2783903017fe-1277.
[175] Jan 30, 2019 11:22:21.987 AM org.forgerock.openicf.connectors.groovy.ScriptedConfiguration evaluate
INFORMATION: Entering TEST Script
[177] Jan 30, 2019 11:22:24.678 AM org.forgerock.openicf.connectors.groovy.ScriptedConfiguration evaluate
INFORMATION: Entering TEST Script
[177] Jan 30, 2019 11:22:24.684 AM org.forgerock.openidm.servlet.internal.ServletConnectionFactory$3 lambda$handleRequestWithLogging$8
WARNUNG: Resource exception: 500 Internal Server Error: "SchemaScript must return with Schema object"
org.forgerock.json.resource.InternalServerErrorException: SchemaScript must return with Schema object
	at org.forgerock.openidm.provisioner.api.SystemObjectSetService.actionInstance(SystemObjectSetService.java:402)
	at org.forgerock.json.resource.InterfaceSingletonHandler.handleAction(InterfaceSingletonHandler.java:26)
	at org.forgerock.json.resource.Router.handleAction(Router.java:251)
	at org.forgerock.json.resource.Router.handleAction(Router.java:251)
	at org.forgerock.json.resource.FilterChain$Cursor.handleAction(FilterChain.java:55)
	at org.forgerock.json.resource.Filters$ConditionalFilter.filterAction(Filters.java:44)
	at org.forgerock.json.resource.Filters$ConditionalFilter.filterAction(Filters.java:42)
	at org.forgerock.json.resource.FilterChain$Cursor.handleAction(FilterChain.java:53)
	at org.forgerock.json.resource.Filters$ConditionalFilter.filterAction(Filters.java:44)
	at org.forgerock.json.resource.FilterChain$Cursor.handleAction(FilterChain.java:53)
	at org.forgerock.openidm.authz.DelegatedAdminFilter.lambda$filterAction$0(DelegatedAdminFilter.java:187)
	at org.forgerock.util.promise.Promises$CompletedPromise.thenAsync(Promises.java:260)
	at org.forgerock.util.promise.Promises$CompletedPromise.thenAsync(Promises.java:224)
	at org.forgerock.openidm.authz.DelegatedAdminFilter.filterRequest(DelegatedAdminFilter.java:260)
	at org.forgerock.openidm.authz.DelegatedAdminFilter.filterAction(DelegatedAdminFilter.java:187)
	at org.forgerock.json.resource.Filters$ConditionalFilter.filterAction(Filters.java:42)
	at org.forgerock.json.resource.FilterChain$Cursor.handleAction(FilterChain.java:53)
	at org.forgerock.openidm.audit.filter.AuditFilter.lambda$filterAction$0(AuditFilter.java:119)
	at org.forgerock.openidm.audit.filter.AuditFilter.logAuditAccessEntry(AuditFilter.java:175)
	at org.forgerock.openidm.audit.filter.AuditFilter.filterAction(AuditFilter.java:119)
	at org.forgerock.openidm.router.filter.MutableFilterDecorator.filterAction(MutableFilterDecorator.java:66)
	at org.forgerock.json.resource.Filters$ConditionalFilter.filterAction(Filters.java:42)
	at org.forgerock.json.resource.FilterChain$Cursor.handleAction(FilterChain.java:53)
	at org.forgerock.openidm.servlet.internal.ServletConnectionFactory$3.lambda$filterAction$0(ServletConnectionFactory.java:379)
	at org.forgerock.openidm.servlet.internal.ServletConnectionFactory$3.handleRequestWithLogging(ServletConnectionFactory.java:436)
	at org.forgerock.openidm.servlet.internal.ServletConnectionFactory$3.filterAction(ServletConnectionFactory.java:379)
	at org.forgerock.json.resource.FilterChain$Cursor.handleAction(FilterChain.java:53)
	at org.forgerock.openidm.router.filter.PassthroughFilter.filterAction(PassthroughFilter.java:42)
	at org.forgerock.openidm.router.filter.MutableFilterDecorator.filterAction(MutableFilterDecorator.java:66)
	at org.forgerock.openidm.router.filter.MutableFilterDecorator.filterAction(MutableFilterDecorator.java:66)
	at org.forgerock.json.resource.FilterChain$Cursor.handleAction(FilterChain.java:53)
	at org.forgerock.openidm.router.filter.PassthroughFilter.filterAction(PassthroughFilter.java:42)
	at org.forgerock.openidm.router.filter.MutableFilterDecorator.filterAction(MutableFilterDecorator.java:66)
	at org.forgerock.json.resource.Filters$ConditionalFilter.filterAction(Filters.java:42)
	at org.forgerock.json.resource.FilterChain$Cursor.handleAction(FilterChain.java:53)
	at org.forgerock.json.resource.FilterChain.handleAction(FilterChain.java:226)
	at org.forgerock.json.resource.InternalConnection.actionAsync(InternalConnection.java:29)
	at org.forgerock.json.resource.AbstractConnectionWrapper.actionAsync(AbstractConnectionWrapper.java:74)
	at org.forgerock.openidm.servlet.internal.ServletConnectionFactory$InternalConnectionWrapper.lambda$actionAsync$11(ServletConnectionFactory.java:357)
	at org.forgerock.openidm.metrics.MetricsCollector.time(MetricsCollector.java:112)
	at org.forgerock.openidm.servlet.internal.ServletConnectionFactory$InternalConnectionWrapper.time(ServletConnectionFactory.java:292)
	at org.forgerock.openidm.servlet.internal.ServletConnectionFactory$InternalConnectionWrapper.actionAsync(ServletConnectionFactory.java:357)
	at org.forgerock.json.resource.http.RequestRunner.visitActionRequest(RequestRunner.java:136)
	at org.forgerock.json.resource.http.RequestRunner.visitActionRequest(RequestRunner.java:82)
	at org.forgerock.json.resource.Requests$ActionRequestImpl.accept(Requests.java:181)
	at org.forgerock.json.resource.http.RequestRunner.handleResult(RequestRunner.java:128)
	at org.forgerock.util.promise.Promises$CompletedPromise.thenAsync(Promises.java:260)
	at org.forgerock.util.promise.Promises$CompletedPromise.thenAsync(Promises.java:249)
	at org.forgerock.json.resource.http.HttpAdapter.doRequest(HttpAdapter.java:713)
	at org.forgerock.json.resource.http.HttpAdapter.doAction(HttpAdapter.java:619)
	at org.forgerock.json.resource.http.HttpAdapter.handle(HttpAdapter.java:281)
	at org.forgerock.http.handler.Handlers$HandlerDescribableAsDescribableHandler.handle(Handlers.java:146)
	at org.forgerock.http.filter.OptionsFilter.filter(OptionsFilter.java:69)
	at org.forgerock.http.handler.Handlers$1.handle(Handlers.java:53)
	at org.forgerock.http.routing.Router.handle(Router.java:100)
	at org.forgerock.http.swagger.OpenApiRequestFilter.filter(OpenApiRequestFilter.java:63)
	at org.forgerock.http.handler.Handlers$1.handle(Handlers.java:53)
	at org.forgerock.openidm.auth.ProfileEnhancementCheckFilter.filter(ProfileEnhancementCheckFilter.java:146)
	at org.forgerock.http.handler.Handlers$1.handle(Handlers.java:53)
	at org.forgerock.openidm.auth.LoginCountFilter.filter(LoginCountFilter.java:63)
	at org.forgerock.http.handler.Handlers$1.handle(Handlers.java:53)
	at org.forgerock.caf.authentication.framework.AuthenticationFramework.grantAccess(AuthenticationFramework.java:188)
	at org.forgerock.caf.authentication.framework.AuthenticationFramework.lambda$onValidateRequestSuccess$1(AuthenticationFramework.java:181)
	at org.forgerock.util.promise.Promises$CompletedPromise.thenAsync(Promises.java:260)
	at org.forgerock.util.promise.Promises$CompletedPromise.thenAsync(Promises.java:249)
	at org.forgerock.caf.authentication.framework.AuthenticationFramework.validateRequest(AuthenticationFramework.java:144)
	at org.forgerock.caf.authentication.framework.AuthenticationFramework.processMessage(AuthenticationFramework.java:134)
	at org.forgerock.caf.authentication.framework.AuthenticationFilter.filter(AuthenticationFilter.java:84)
	at org.forgerock.openidm.auth.AuthFilterWrapper.filter(AuthFilterWrapper.java:87)
	at org.forgerock.http.handler.Handlers$1.handle(Handlers.java:53)
	at org.forgerock.http.filter.TransactionIdInboundFilter.filter(TransactionIdInboundFilter.java:86)
	at org.forgerock.http.handler.Handlers$1.handle(Handlers.java:53)
	at org.forgerock.http.servlet.HttpFrameworkServlet.service(HttpFrameworkServlet.java:252)
	at javax.servlet.http.HttpServlet.service(HttpServlet.java:790)
	at org.eclipse.jetty.servlet.ServletHolder.handle(ServletHolder.java:812)
	at org.eclipse.jetty.servlet.ServletHandler$CachedChain.doFilter(ServletHandler.java:1669)
	at org.eclipse.jetty.servlets.CrossOriginFilter.handle(CrossOriginFilter.java:257)
	at org.eclipse.jetty.servlets.CrossOriginFilter.doFilter(CrossOriginFilter.java:220)
	at sun.reflect.GeneratedMethodAccessor91.invoke(Unknown Source)
	at sun.reflect.DelegatingMethodAccessorImpl.invoke(DelegatingMethodAccessorImpl.java:43)
	at java.lang.reflect.Method.invoke(Method.java:498)
	at org.forgerock.openidm.servletregistration.impl.ServletRegistrationSingleton$FilterProxy.invoke(ServletRegistrationSingleton.java:309)
	at com.sun.proxy.$Proxy67.doFilter(Unknown Source)
	at org.eclipse.jetty.servlet.ServletHandler$CachedChain.doFilter(ServletHandler.java:1652)
	at org.eclipse.jetty.servlets.UserAgentFilter.doFilter(UserAgentFilter.java:83)
	at org.eclipse.jetty.servlets.GzipFilter.doFilter(GzipFilter.java:301)
	at sun.reflect.GeneratedMethodAccessor91.invoke(Unknown Source)
	at sun.reflect.DelegatingMethodAccessorImpl.invoke(DelegatingMethodAccessorImpl.java:43)
	at java.lang.reflect.Method.invoke(Method.java:498)
	at org.forgerock.openidm.servletregistration.impl.ServletRegistrationSingleton$FilterProxy.invoke(ServletRegistrationSingleton.java:309)
	at com.sun.proxy.$Proxy67.doFilter(Unknown Source)
	at org.eclipse.jetty.servlet.ServletHandler$CachedChain.doFilter(ServletHandler.java:1652)
	at org.eclipse.jetty.servlet.ServletHandler.doHandle(ServletHandler.java:585)
	at org.ops4j.pax.web.service.jetty.internal.HttpServiceServletHandler.doHandle(HttpServiceServletHandler.java:71)
	at org.eclipse.jetty.server.handler.ScopedHandler.handle(ScopedHandler.java:143)
	at org.eclipse.jetty.security.SecurityHandler.handle(SecurityHandler.java:577)
	at org.eclipse.jetty.server.session.SessionHandler.doHandle(SessionHandler.java:223)
	at org.eclipse.jetty.server.handler.ContextHandler.doHandle(ContextHandler.java:1127)
	at org.ops4j.pax.web.service.jetty.internal.HttpServiceContext.doHandle(HttpServiceContext.java:276)
	at org.eclipse.jetty.servlet.ServletHandler.doScope(ServletHandler.java:515)
	at org.eclipse.jetty.server.session.SessionHandler.doScope(SessionHandler.java:185)
	at org.eclipse.jetty.server.handler.ContextHandler.doScope(ContextHandler.java:1061)
	at org.eclipse.jetty.server.handler.ScopedHandler.handle(ScopedHandler.java:141)
	at org.ops4j.pax.web.service.jetty.internal.JettyServerHandlerCollection.handle(JettyServerHandlerCollection.java:80)
	at org.eclipse.jetty.server.handler.HandlerWrapper.handle(HandlerWrapper.java:97)
	at org.eclipse.jetty.server.Server.handle(Server.java:499)
	at org.eclipse.jetty.server.HttpChannel.handle(HttpChannel.java:311)
	at org.eclipse.jetty.server.HttpConnection.onFillable(HttpConnection.java:257)
	at org.eclipse.jetty.io.AbstractConnection$2.run(AbstractConnection.java:544)
	at org.eclipse.jetty.util.thread.QueuedThreadPool.runJob(QueuedThreadPool.java:635)
	at org.eclipse.jetty.util.thread.QueuedThreadPool$3.run(QueuedThreadPool.java:555)
	at java.lang.Thread.run(Thread.java:748)
Caused by: org.identityconnectors.framework.common.exceptions.ConnectorException: SchemaScript must return with Schema object
	at sun.reflect.NativeConstructorAccessorImpl.newInstance0(Native Method)
	at sun.reflect.NativeConstructorAccessorImpl.newInstance(NativeConstructorAccessorImpl.java:62)
	at sun.reflect.DelegatingConstructorAccessorImpl.newInstance(DelegatingConstructorAccessorImpl.java:45)
	at java.lang.reflect.Constructor.newInstance(Constructor.java:423)
	at org.codehaus.groovy.reflection.CachedConstructor.invoke(CachedConstructor.java:83)
	at org.codehaus.groovy.runtime.callsite.ConstructorSite$ConstructorSiteNoUnwrapNoCoerce.callConstructor(ConstructorSite.java:105)
	at org.codehaus.groovy.runtime.callsite.AbstractCallSite.callConstructor(AbstractCallSite.java:247)
	at org.forgerock.openicf.connectors.groovy.ScriptedConnectorBase.schema(ScriptedConnectorBase.groovy:297)
	at org.identityconnectors.framework.impl.api.local.operations.SchemaImpl.schema(SchemaImpl.java:45)
	at sun.reflect.NativeMethodAccessorImpl.invoke0(Native Method)
	at sun.reflect.NativeMethodAccessorImpl.invoke(NativeMethodAccessorImpl.java:62)
	at sun.reflect.DelegatingMethodAccessorImpl.invoke(DelegatingMethodAccessorImpl.java:43)
	at java.lang.reflect.Method.invoke(Method.java:498)
	at org.identityconnectors.framework.impl.api.local.operations.ConnectorAPIOperationRunnerProxy.invoke(ConnectorAPIOperationRunnerProxy.java:104)
	at com.sun.proxy.$Proxy69.schema(Unknown Source)
	at sun.reflect.NativeMethodAccessorImpl.invoke0(Native Method)
	at sun.reflect.NativeMethodAccessorImpl.invoke(NativeMethodAccessorImpl.java:62)
	at sun.reflect.DelegatingMethodAccessorImpl.invoke(DelegatingMethodAccessorImpl.java:43)
	at java.lang.reflect.Method.invoke(Method.java:498)
	at org.identityconnectors.framework.impl.api.local.operations.ThreadClassLoaderManagerProxy.invoke(ThreadClassLoaderManagerProxy.java:96)
	at com.sun.proxy.$Proxy69.schema(Unknown Source)
	at sun.reflect.NativeMethodAccessorImpl.invoke0(Native Method)
	at sun.reflect.NativeMethodAccessorImpl.invoke(NativeMethodAccessorImpl.java:62)
	at sun.reflect.DelegatingMethodAccessorImpl.invoke(DelegatingMethodAccessorImpl.java:43)
	at java.lang.reflect.Method.invoke(Method.java:498)
	at org.identityconnectors.framework.impl.api.DelegatingTimeoutProxy.invoke(DelegatingTimeoutProxy.java:98)
	at com.sun.proxy.$Proxy69.schema(Unknown Source)
	at sun.reflect.NativeMethodAccessorImpl.invoke0(Native Method)
	at sun.reflect.NativeMethodAccessorImpl.invoke(NativeMethodAccessorImpl.java:62)
	at sun.reflect.DelegatingMethodAccessorImpl.invoke(DelegatingMethodAccessorImpl.java:43)
	at java.lang.reflect.Method.invoke(Method.java:498)
	at org.identityconnectors.framework.impl.api.local.LocalConnectorFacadeImpl$ReferenceCountingProxy.invoke(LocalConnectorFacadeImpl.java:304)
	at com.sun.proxy.$Proxy69.schema(Unknown Source)
	at org.identityconnectors.framework.impl.api.AbstractConnectorFacade.schema(AbstractConnectorFacade.java:202)
	at org.forgerock.openidm.provisioner.openicf.impl.ConnectorInfoProviderService.setSchema(ConnectorInfoProviderService.java:684)
	at org.forgerock.openidm.provisioner.openicf.impl.ConnectorInfoProviderService.createSystemConfiguration(ConnectorInfoProviderService.java:674)
	at org.forgerock.openidm.provisioner.openicf.impl.ConnectorInfoProviderService.generateConnectorFullConfig(ConnectorInfoProviderService.java:417)
	at org.forgerock.openidm.provisioner.api.SystemObjectSetService.actionInstance(SystemObjectSetService.java:392)
	... 111 more

[176] Jan 30, 2019 11:22:33.441 AM org.forgerock.openicf.connectors.groovy.ScriptedConfiguration evaluate
INFORMATION: Entering TEST Script
[176] Jan 30, 2019 11:22:33.446 AM org.forgerock.openidm.servlet.internal.ServletConnectionFactory$3 lambda$handleRequestWithLogging$8
WARNUNG: Resource exception: 500 Internal Server Error: "SchemaScript must return with Schema object"
org.forgerock.json.resource.InternalServerErrorException: SchemaScript must return with Schema object
	at org.forgerock.openidm.provisioner.api.SystemObjectSetService.actionInstance(SystemObjectSetService.java:402)
	at org.forgerock.json.resource.InterfaceSingletonHandler.handleAction(InterfaceSingletonHandler.java:26)
	at org.forgerock.json.resource.Router.handleAction(Router.java:251)
	at org.forgerock.json.resource.Router.handleAction(Router.java:251)
	at org.forgerock.json.resource.FilterChain$Cursor.handleAction(FilterChain.java:55)
	at org.forgerock.json.resource.Filters$ConditionalFilter.filterAction(Filters.java:44)
	at org.forgerock.json.resource.Filters$ConditionalFilter.filterAction(Filters.java:42)
	at org.forgerock.json.resource.FilterChain$Cursor.handleAction(FilterChain.java:53)
	at org.forgerock.json.resource.Filters$ConditionalFilter.filterAction(Filters.java:44)
	at org.forgerock.json.resource.FilterChain$Cursor.handleAction(FilterChain.java:53)
	at org.forgerock.openidm.authz.DelegatedAdminFilter.lambda$filterAction$0(DelegatedAdminFilter.java:187)
	at org.forgerock.util.promise.Promises$CompletedPromise.thenAsync(Promises.java:260)
	at org.forgerock.util.promise.Promises$CompletedPromise.thenAsync(Promises.java:224)
	at org.forgerock.openidm.authz.DelegatedAdminFilter.filterRequest(DelegatedAdminFilter.java:260)
	at org.forgerock.openidm.authz.DelegatedAdminFilter.filterAction(DelegatedAdminFilter.java:187)
	at org.forgerock.json.resource.Filters$ConditionalFilter.filterAction(Filters.java:42)
	at org.forgerock.json.resource.FilterChain$Cursor.handleAction(FilterChain.java:53)
	at org.forgerock.openidm.audit.filter.AuditFilter.lambda$filterAction$0(AuditFilter.java:119)
	at org.forgerock.openidm.audit.filter.AuditFilter.logAuditAccessEntry(AuditFilter.java:175)
	at org.forgerock.openidm.audit.filter.AuditFilter.filterAction(AuditFilter.java:119)
	at org.forgerock.openidm.router.filter.MutableFilterDecorator.filterAction(MutableFilterDecorator.java:66)
	at org.forgerock.json.resource.Filters$ConditionalFilter.filterAction(Filters.java:42)
	at org.forgerock.json.resource.FilterChain$Cursor.handleAction(FilterChain.java:53)
	at org.forgerock.openidm.servlet.internal.ServletConnectionFactory$3.lambda$filterAction$0(ServletConnectionFactory.java:379)
	at org.forgerock.openidm.servlet.internal.ServletConnectionFactory$3.handleRequestWithLogging(ServletConnectionFactory.java:436)
	at org.forgerock.openidm.servlet.internal.ServletConnectionFactory$3.filterAction(ServletConnectionFactory.java:379)
	at org.forgerock.json.resource.FilterChain$Cursor.handleAction(FilterChain.java:53)
	at org.forgerock.openidm.router.filter.PassthroughFilter.filterAction(PassthroughFilter.java:42)
	at org.forgerock.openidm.router.filter.MutableFilterDecorator.filterAction(MutableFilterDecorator.java:66)
	at org.forgerock.openidm.router.filter.MutableFilterDecorator.filterAction(MutableFilterDecorator.java:66)
	at org.forgerock.json.resource.FilterChain$Cursor.handleAction(FilterChain.java:53)
	at org.forgerock.openidm.router.filter.PassthroughFilter.filterAction(PassthroughFilter.java:42)
	at org.forgerock.openidm.router.filter.MutableFilterDecorator.filterAction(MutableFilterDecorator.java:66)
	at org.forgerock.json.resource.Filters$ConditionalFilter.filterAction(Filters.java:42)
	at org.forgerock.json.resource.FilterChain$Cursor.handleAction(FilterChain.java:53)
	at org.forgerock.json.resource.FilterChain.handleAction(FilterChain.java:226)
	at org.forgerock.json.resource.InternalConnection.actionAsync(InternalConnection.java:29)
	at org.forgerock.json.resource.AbstractConnectionWrapper.actionAsync(AbstractConnectionWrapper.java:74)
	at org.forgerock.openidm.servlet.internal.ServletConnectionFactory$InternalConnectionWrapper.lambda$actionAsync$11(ServletConnectionFactory.java:357)
	at org.forgerock.openidm.metrics.MetricsCollector.time(MetricsCollector.java:112)
	at org.forgerock.openidm.servlet.internal.ServletConnectionFactory$InternalConnectionWrapper.time(ServletConnectionFactory.java:292)
	at org.forgerock.openidm.servlet.internal.ServletConnectionFactory$InternalConnectionWrapper.actionAsync(ServletConnectionFactory.java:357)
	at org.forgerock.json.resource.http.RequestRunner.visitActionRequest(RequestRunner.java:136)
	at org.forgerock.json.resource.http.RequestRunner.visitActionRequest(RequestRunner.java:82)
	at org.forgerock.json.resource.Requests$ActionRequestImpl.accept(Requests.java:181)
	at org.forgerock.json.resource.http.RequestRunner.handleResult(RequestRunner.java:128)
	at org.forgerock.util.promise.Promises$CompletedPromise.thenAsync(Promises.java:260)
	at org.forgerock.util.promise.Promises$CompletedPromise.thenAsync(Promises.java:249)
	at org.forgerock.json.resource.http.HttpAdapter.doRequest(HttpAdapter.java:713)
	at org.forgerock.json.resource.http.HttpAdapter.doAction(HttpAdapter.java:619)
	at org.forgerock.json.resource.http.HttpAdapter.handle(HttpAdapter.java:281)
	at org.forgerock.http.handler.Handlers$HandlerDescribableAsDescribableHandler.handle(Handlers.java:146)
	at org.forgerock.http.filter.OptionsFilter.filter(OptionsFilter.java:69)
	at org.forgerock.http.handler.Handlers$1.handle(Handlers.java:53)
	at org.forgerock.http.routing.Router.handle(Router.java:100)
	at org.forgerock.http.swagger.OpenApiRequestFilter.filter(OpenApiRequestFilter.java:63)
	at org.forgerock.http.handler.Handlers$1.handle(Handlers.java:53)
	at org.forgerock.openidm.auth.ProfileEnhancementCheckFilter.filter(ProfileEnhancementCheckFilter.java:146)
	at org.forgerock.http.handler.Handlers$1.handle(Handlers.java:53)
	at org.forgerock.openidm.auth.LoginCountFilter.filter(LoginCountFilter.java:63)
	at org.forgerock.http.handler.Handlers$1.handle(Handlers.java:53)
	at org.forgerock.caf.authentication.framework.AuthenticationFramework.grantAccess(AuthenticationFramework.java:188)
	at org.forgerock.caf.authentication.framework.AuthenticationFramework.lambda$onValidateRequestSuccess$1(AuthenticationFramework.java:181)
	at org.forgerock.util.promise.Promises$CompletedPromise.thenAsync(Promises.java:260)
	at org.forgerock.util.promise.Promises$CompletedPromise.thenAsync(Promises.java:249)
	at org.forgerock.caf.authentication.framework.AuthenticationFramework.validateRequest(AuthenticationFramework.java:144)
	at org.forgerock.caf.authentication.framework.AuthenticationFramework.processMessage(AuthenticationFramework.java:134)
	at org.forgerock.caf.authentication.framework.AuthenticationFilter.filter(AuthenticationFilter.java:84)
	at org.forgerock.openidm.auth.AuthFilterWrapper.filter(AuthFilterWrapper.java:87)
	at org.forgerock.http.handler.Handlers$1.handle(Handlers.java:53)
	at org.forgerock.http.filter.TransactionIdInboundFilter.filter(TransactionIdInboundFilter.java:86)
	at org.forgerock.http.handler.Handlers$1.handle(Handlers.java:53)
	at org.forgerock.http.servlet.HttpFrameworkServlet.service(HttpFrameworkServlet.java:252)
	at javax.servlet.http.HttpServlet.service(HttpServlet.java:790)
	at org.eclipse.jetty.servlet.ServletHolder.handle(ServletHolder.java:812)
	at org.eclipse.jetty.servlet.ServletHandler$CachedChain.doFilter(ServletHandler.java:1669)
	at org.eclipse.jetty.servlets.CrossOriginFilter.handle(CrossOriginFilter.java:257)
	at org.eclipse.jetty.servlets.CrossOriginFilter.doFilter(CrossOriginFilter.java:220)
	at sun.reflect.GeneratedMethodAccessor91.invoke(Unknown Source)
	at sun.reflect.DelegatingMethodAccessorImpl.invoke(DelegatingMethodAccessorImpl.java:43)
	at java.lang.reflect.Method.invoke(Method.java:498)
	at org.forgerock.openidm.servletregistration.impl.ServletRegistrationSingleton$FilterProxy.invoke(ServletRegistrationSingleton.java:309)
	at com.sun.proxy.$Proxy67.doFilter(Unknown Source)
	at org.eclipse.jetty.servlet.ServletHandler$CachedChain.doFilter(ServletHandler.java:1652)
	at org.eclipse.jetty.servlets.UserAgentFilter.doFilter(UserAgentFilter.java:83)
	at org.eclipse.jetty.servlets.GzipFilter.doFilter(GzipFilter.java:301)
	at sun.reflect.GeneratedMethodAccessor91.invoke(Unknown Source)
	at sun.reflect.DelegatingMethodAccessorImpl.invoke(DelegatingMethodAccessorImpl.java:43)
	at java.lang.reflect.Method.invoke(Method.java:498)
	at org.forgerock.openidm.servletregistration.impl.ServletRegistrationSingleton$FilterProxy.invoke(ServletRegistrationSingleton.java:309)
	at com.sun.proxy.$Proxy67.doFilter(Unknown Source)
	at org.eclipse.jetty.servlet.ServletHandler$CachedChain.doFilter(ServletHandler.java:1652)
	at org.eclipse.jetty.servlet.ServletHandler.doHandle(ServletHandler.java:585)
	at org.ops4j.pax.web.service.jetty.internal.HttpServiceServletHandler.doHandle(HttpServiceServletHandler.java:71)
	at org.eclipse.jetty.server.handler.ScopedHandler.handle(ScopedHandler.java:143)
	at org.eclipse.jetty.security.SecurityHandler.handle(SecurityHandler.java:577)
	at org.eclipse.jetty.server.session.SessionHandler.doHandle(SessionHandler.java:223)
	at org.eclipse.jetty.server.handler.ContextHandler.doHandle(ContextHandler.java:1127)
	at org.ops4j.pax.web.service.jetty.internal.HttpServiceContext.doHandle(HttpServiceContext.java:276)
	at org.eclipse.jetty.servlet.ServletHandler.doScope(ServletHandler.java:515)
	at org.eclipse.jetty.server.session.SessionHandler.doScope(SessionHandler.java:185)
	at org.eclipse.jetty.server.handler.ContextHandler.doScope(ContextHandler.java:1061)
	at org.eclipse.jetty.server.handler.ScopedHandler.handle(ScopedHandler.java:141)
	at org.ops4j.pax.web.service.jetty.internal.JettyServerHandlerCollection.handle(JettyServerHandlerCollection.java:80)
	at org.eclipse.jetty.server.handler.HandlerWrapper.handle(HandlerWrapper.java:97)
	at org.eclipse.jetty.server.Server.handle(Server.java:499)
	at org.eclipse.jetty.server.HttpChannel.handle(HttpChannel.java:311)
	at org.eclipse.jetty.server.HttpConnection.onFillable(HttpConnection.java:257)
	at org.eclipse.jetty.io.AbstractConnection$2.run(AbstractConnection.java:544)
	at org.eclipse.jetty.util.thread.QueuedThreadPool.runJob(QueuedThreadPool.java:635)
	at org.eclipse.jetty.util.thread.QueuedThreadPool$3.run(QueuedThreadPool.java:555)
	at java.lang.Thread.run(Thread.java:748)
Caused by: org.identityconnectors.framework.common.exceptions.ConnectorException: SchemaScript must return with Schema object
	at sun.reflect.NativeConstructorAccessorImpl.newInstance0(Native Method)
	at sun.reflect.NativeConstructorAccessorImpl.newInstance(NativeConstructorAccessorImpl.java:62)
	at sun.reflect.DelegatingConstructorAccessorImpl.newInstance(DelegatingConstructorAccessorImpl.java:45)
	at java.lang.reflect.Constructor.newInstance(Constructor.java:423)
	at org.codehaus.groovy.reflection.CachedConstructor.invoke(CachedConstructor.java:83)
	at org.codehaus.groovy.runtime.callsite.ConstructorSite$ConstructorSiteNoUnwrapNoCoerce.callConstructor(ConstructorSite.java:105)
	at org.codehaus.groovy.runtime.callsite.AbstractCallSite.callConstructor(AbstractCallSite.java:247)
	at org.forgerock.openicf.connectors.groovy.ScriptedConnectorBase.schema(ScriptedConnectorBase.groovy:297)
	at org.identityconnectors.framework.impl.api.local.operations.SchemaImpl.schema(SchemaImpl.java:45)
	at sun.reflect.NativeMethodAccessorImpl.invoke0(Native Method)
	at sun.reflect.NativeMethodAccessorImpl.invoke(NativeMethodAccessorImpl.java:62)
	at sun.reflect.DelegatingMethodAccessorImpl.invoke(DelegatingMethodAccessorImpl.java:43)
	at java.lang.reflect.Method.invoke(Method.java:498)
	at org.identityconnectors.framework.impl.api.local.operations.ConnectorAPIOperationRunnerProxy.invoke(ConnectorAPIOperationRunnerProxy.java:104)
	at com.sun.proxy.$Proxy69.schema(Unknown Source)
	at sun.reflect.NativeMethodAccessorImpl.invoke0(Native Method)
	at sun.reflect.NativeMethodAccessorImpl.invoke(NativeMethodAccessorImpl.java:62)
	at sun.reflect.DelegatingMethodAccessorImpl.invoke(DelegatingMethodAccessorImpl.java:43)
	at java.lang.reflect.Method.invoke(Method.java:498)
	at org.identityconnectors.framework.impl.api.local.operations.ThreadClassLoaderManagerProxy.invoke(ThreadClassLoaderManagerProxy.java:96)
	at com.sun.proxy.$Proxy69.schema(Unknown Source)
	at sun.reflect.NativeMethodAccessorImpl.invoke0(Native Method)
	at sun.reflect.NativeMethodAccessorImpl.invoke(NativeMethodAccessorImpl.java:62)
	at sun.reflect.DelegatingMethodAccessorImpl.invoke(DelegatingMethodAccessorImpl.java:43)
	at java.lang.reflect.Method.invoke(Method.java:498)
	at org.identityconnectors.framework.impl.api.DelegatingTimeoutProxy.invoke(DelegatingTimeoutProxy.java:98)
	at com.sun.proxy.$Proxy69.schema(Unknown Source)
	at sun.reflect.NativeMethodAccessorImpl.invoke0(Native Method)
	at sun.reflect.NativeMethodAccessorImpl.invoke(NativeMethodAccessorImpl.java:62)
	at sun.reflect.DelegatingMethodAccessorImpl.invoke(DelegatingMethodAccessorImpl.java:43)
	at java.lang.reflect.Method.invoke(Method.java:498)
	at org.identityconnectors.framework.impl.api.local.LocalConnectorFacadeImpl$ReferenceCountingProxy.invoke(LocalConnectorFacadeImpl.java:304)
	at com.sun.proxy.$Proxy69.schema(Unknown Source)
	at org.identityconnectors.framework.impl.api.AbstractConnectorFacade.schema(AbstractConnectorFacade.java:202)
	at org.forgerock.openidm.provisioner.openicf.impl.ConnectorInfoProviderService.setSchema(ConnectorInfoProviderService.java:684)
	at org.forgerock.openidm.provisioner.openicf.impl.ConnectorInfoProviderService.createSystemConfiguration(ConnectorInfoProviderService.java:674)
	at org.forgerock.openidm.provisioner.openicf.impl.ConnectorInfoProviderService.generateConnectorFullConfig(ConnectorInfoProviderService.java:417)
	at org.forgerock.openidm.provisioner.api.SystemObjectSetService.actionInstance(SystemObjectSetService.java:392)
	... 111 more

[173] Jan 30, 2019 11:22:33.629 AM org.forgerock.openicf.connectors.groovy.ScriptedConfiguration evaluate
INFORMATION: Entering TEST Script
[177] Jan 30, 2019 11:22:33.636 AM org.forgerock.openicf.connectors.groovy.ScriptedConfiguration evaluate
INFORMATION: Entering TEST Script
[175] Jan 30, 2019 11:22:33.717 AM org.forgerock.openicf.connectors.groovy.ScriptedConfiguration evaluate
INFORMATION: Entering TEST Script
[173] Jan 30, 2019 11:22:33.720 AM org.forgerock.openicf.connectors.groovy.ScriptedConfiguration evaluate
INFORMATION: Entering TEST Script
[178] Jan 30, 2019 11:22:33.779 AM org.forgerock.openicf.connectors.groovy.ScriptedConfiguration evaluate
INFORMATION: Entering SEARCH Script
[180] Jan 30, 2019 11:22:33.808 AM org.forgerock.openicf.connectors.groovy.ScriptedConfiguration evaluate
INFORMATION: Entering SEARCH Script
[173] Jan 30, 2019 11:22:33.812 AM org.forgerock.openicf.connectors.groovy.ScriptedConfiguration evaluate
INFORMATION: Entering TEST Script
[175] Jan 30, 2019 11:22:33.815 AM org.forgerock.openicf.connectors.groovy.ScriptedConfiguration evaluate
INFORMATION: Entering TEST Script
